{
    "messages": [
        {
            "body": "What do you want?!",
            "personId": 5400,
            "typing": false
        },
        {
            "body": "It's your turn.",
            "personId": 5401,
            "typing": false
        },
        {
            "body": "Play.",
            "personId": 5401,
            "typing": false
        },
        {
            "body": "This is stupid.",
            "personId": 5400,
            "typing": false
        },
        {
            "body": "What are you going to do?",
            "personId": 5400,
            "typing": false
        },
        {
            "body": "Sneak through my Words With Friends messaging app and kill me?",
            "personId": 5400,
            "typing": false
        },
        {
            "body": "No.",
            "personId": 5401,
            "typing": false
        },
        {
            "body": "I think I would rather come up to your apartment.",
            "personId": 5401,
            "typing": false
        },
        {
            "body": "Play some games face-to-face.",
            "personId": 5401,
            "typing": false
        },
        {
            "body": "Right.",
            "personId": 5400,
            "typing": false
        },
        {
            "body": "Because you know where I live?",
            "personId": 5400,
            "typing": false
        },
        {
            "body": "Genesse.",
            "personId": 5401,
            "typing": false
        },
        {
            "body": "Light green building on the corner.",
            "personId": 5401,
            "typing": false
        },
        {
            "body": "Apt 307.",
            "personId": 5401,
            "typing": false
        },
        {
            "body": "Your move.",
            "personId": 5401,
            "typing": false
        },
        {
            "body": "Who are you?!",
            "personId": 5400,
            "typing": false
        },
        {
            "body": "What is going on?!",
            "personId": 5400,
            "typing": false
        },
        {
            "body": "Your move.",
            "personId": 5401,
            "typing": false
        },
        {
            "body": "5 minutes later",
            "typing": false
        },
        {
            "body": ""Mat?!"",
            "personId": 5401,
            "typing": false
        },
        {
            "body": "That's all you've got?",
            "personId": 5401,
            "typing": false
        },
        {
            "body": ""Mat?!"",
            "personId": 5401,
            "typing": false
        },
        {
            "body": "That's my move.",
            "personId": 5400,
            "typing": false
        },
        {
            "body": "Also, that was dumb of you.",
            "personId": 5401,
            "typing": false
        },
        {
            "body": "I only have one vowel.",
            "personId": 5400,
            "typing": false
        },
        {
            "body": "Not the word.",
            "personId": 5401,
            "typing": false
        },
        {
            "body": "Calling the cops.",
            "personId": 5401,
            "typing": false
        },
        {
            "body": "THAT was dumb of you.",
            "personId": 5401,
            "typing": false
        },
        {
            "body": "You told me to trust you.",
            "personId": 5401,
            "typing": false
        },
        {
            "body": "You shouldn't of lied to me.",
            "personId": 5401,
            "typing": false
        },
        {
            "body": "WHAT DO YOU WANT?!",
            "personId": 5400,
            "typing": false
        },
        {
            "body": "My turn.",
            "personId": 5401,
            "typing": false
        },
        {
            "body": ""MURDER?!"",
            "personId": 5400,
            "typing": false
        },
        {
            "body": "STOP!",
            "personId": 5400,
            "typing": false
        },
        {
            "body": "PLEASE!",
            "personId": 5400,
            "typing": false
        },
        {
            "body": "You're really scaring me.",
            "personId": 5400,
            "typing": false
        },
        {
            "body": "Just tell me what you want.",
            "personId": 5400,
            "typing": false
        },
        {
            "body": "Read the board.",
            "personId": 5401,
            "typing": false
        },
        {
            "body": "That's what I want.",
            "personId": 5401,
            "typing": false
        },
        {
            "body": "Why?",
            "personId": 5400,
            "typing": false
        },
        {
            "body": "WHY?",
            "personId": 5400,
            "typing": false
        },
        {
            "body": "Hello?",
            "personId": 5400,
            "typing": false
        },
        {
            "body": "Whoever you are, I'm sorry for whatever I did.",
            "personId": 5400,
            "typing": false
        },
        {
            "body": "HELLO!",
            "personId": 5400,
            "typing": false
        },
        {
            "body": "Your move.",
            "personId": 5401,
            "typing": false
        },
        {
            "body": "YOUR MOVE!",
            "personId": 5401,
            "typing": false
        },
        {
            "body": ""Radio."",
            "personId": 5401,
            "typing": false
        },
        {
            "body": "Thank you.",
            "personId": 5401,
            "typing": false
        },
        {
            "body": "For what?",
            "personId": 5400,
            "typing": false
        },
        {
            "body": "I needed that "D."",
            "personId": 5401,
            "typing": false
        },
        {
            "body": "WHY?",
            "personId": 5400,
            "typing": false
        },
        {
            "body": "For my final word.",
            "personId": 5401,
            "typing": false
        },
        {
            "body": "What word?",
            "personId": 5400,
            "typing": false
        },
        {
            "body": ""Dead."",
            "personId": 5401,
            "typing": false
        }
    ],
    "number": 1,
    "people": [
        {
            "bubbleColor": "ebeff4",
            "id": 5400,
            "name": "F_spelling",
            "nameColor": "25aef4",
            "textColor": "000000cc"
        },
        {
            "bubbleColor": "f6ecec",
            "id": 5401,
            "name": "Scrabblekiller",
            "nameColor": "ea5aa3",
            "textColor": "000000cc"
        }
    ],
    "storyId": 54
}