{
    "messages": [
        {
            "body": "This feels wrong?",
            "personId": 100115,
            "typing": false
        },
        {
            "body": "I'd be embarrassed if my mom knew I was here.",
            "personId": 100115,
            "typing": false
        },
        {
            "body": "There are a lot of things you'd be embarrassed for your mom to know.",
            "personId": 100114,
            "typing": false
        },
        {
            "body": "Like how magical your tongue is.",
            "personId": 100114,
            "typing": false
        },
        {
            "body": "How it makes me tremble.",
            "personId": 100114,
            "typing": false
        },
        {
            "body": "Who's making you tremble right now?",
            "personId": 100115,
            "typing": false
        },
        {
            "body": "Angel.",
            "personId": 100114,
            "typing": false
        },
        {
            "body": "She's not quite there yet.",
            "personId": 100114,
            "typing": false
        },
        {
            "body": "When do I get to join?",
            "personId": 100115,
            "typing": false
        },
        {
            "body": "All of the girls out here are staring at me.",
            "personId": 100115,
            "typing": false
        },
        {
            "body": "Enjoy it!",
            "personId": 100114,
            "typing": false
        },
        {
            "body": "That's what we're here for.",
            "personId": 100114,
            "typing": false
        },
        {
            "body": "I just wish I was with you.",
            "personId": 100115,
            "typing": false
        },
        {
            "body": "I want to watch Angel with you.",
            "personId": 100115,
            "typing": false
        },
        {
            "body": "She's going to come get you in a minute.",
            "personId": 100114,
            "typing": false
        },
        {
            "body": "Why in a minute?",
            "personId": 100115,
            "typing": false
        },
        {
            "body": "What's happening now?",
            "personId": 100115,
            "typing": false
        },
        {
            "body": "She said she wants to get me warmed up.",
            "personId": 100114,
            "typing": false
        },
        {
            "body": "What does that mean?",
            "personId": 100115,
            "typing": false
        },
        {
            "body": "She's actually just talking to me right now.",
            "personId": 100114,
            "typing": false
        },
        {
            "body": "Telling me about all the men that come in here and worship her.",
            "personId": 100114,
            "typing": false
        },
        {
            "body": "Because she makes them feel special.",
            "personId": 100114,
            "typing": false
        },
        {
            "body": "And she's caressing my inner thighs as she talks.",
            "personId": 100114,
            "typing": false
        },
        {
            "body": "I almost can't handle it.",
            "personId": 100114,
            "typing": false
        },
        {
            "body": "It's like playing pretend.",
            "personId": 100114,
            "typing": false
        },
        {
            "body": "2 minutes later",
            "typing": false
        },
        {
            "body": "She wants you back here alone.",
            "personId": 100114,
            "typing": false
        },
        {
            "body": "Alone?",
            "personId": 100115,
            "typing": false
        },
        {
            "body": "No. Not without you.",
            "personId": 100115,
            "typing": false
        },
        {
            "body": "I want you to.",
            "personId": 100114,
            "typing": false
        },
        {
            "body": "I'll join you in 15 minutes.",
            "personId": 100114,
            "typing": false
        },
        {
            "body": "I guess. ",
            "personId": 100115,
            "typing": false
        },
        {
            "body": "3 minutes later",
            "typing": false
        },
        {
            "body": "What's happening?",
            "personId": 100114,
            "typing": false
        },
        {
            "body": "She's wearing a leather corset.",
            "personId": 100115,
            "typing": false
        },
        {
            "body": "She's asking me to take it off",
            "personId": 100115,
            "typing": false
        },
        {
            "body": "She said she needs help.",
            "personId": 100115,
            "typing": false
        },
        {
            "body": "I guess the back is too hard to reach.",
            "personId": 100115,
            "typing": false
        },
        {
            "body": "Lol. Help her. ",
            "personId": 100114,
            "typing": false
        },
        {
            "body": "It's off.",
            "personId": 100115,
            "typing": false
        },
        {
            "body": "She keeps asking me what I want.",
            "personId": 100115,
            "typing": false
        },
        {
            "body": "But she's naked. I can't focus.",
            "personId": 100115,
            "typing": false
        },
        {
            "body": "What am I supposed to do?",
            "personId": 100115,
            "typing": false
        },
        {
            "body": "Talk to her Dylan!",
            "personId": 100114,
            "typing": false
        },
        {
            "body": "I feel weird.",
            "personId": 100115,
            "typing": false
        },
        {
            "body": "This is too strange for me.",
            "personId": 100115,
            "typing": false
        },
        {
            "body": "How often do they wash the sheets here?",
            "personId": 100115,
            "typing": false
        },
        {
            "body": "Would you let go and enjoy.",
            "personId": 100114,
            "typing": false
        },
        {
            "body": "Tomorrow we'll pretend it never happend.",
            "personId": 100114,
            "typing": false
        },
        {
            "body": "Or we'll talk about it all day every day.",
            "personId": 100114,
            "typing": false
        },
        {
            "body": "Up to you.",
            "personId": 100114,
            "typing": false
        },
        {
            "body": "Ok.",
            "personId": 100115,
            "typing": false
        },
        {
            "body": "Whoa.",
            "personId": 100115,
            "typing": false
        },
        {
            "body": "What?",
            "personId": 100114,
            "typing": false
        },
        {
            "body": "I think I'm starting to like this.",
            "personId": 100115,
            "typing": false
        },
        {
            "body": "Get back here.",
            "personId": 100115,
            "typing": false
        },
        {
            "body": "Stay tuned for Episode 3 tomorrow 8/2 at 6:00 P.M. PST / 9:00 P.M. EST",
            "typing": false
        }
    ],
    "number": 1,
    "people": [
        {
            "bubbleColor": "f6ecec",
            "id": 100114,
            "name": "Laura",
            "nameColor": "ea5aa3",
            "textColor": "000000cc"
        },
        {
            "bubbleColor": "ebeff4",
            "id": 100115,
            "name": "Dylan",
            "nameColor": "25aef4",
            "textColor": "000000cc"
        },
        {
            "bubbleColor": "eff4eb",
            "id": 100118,
            "name": "Angel",
            "nameColor": "7ed321",
            "textColor": "000000cc"
        }
    ],
    "storyId": 100041
}