{
    "messages": [
        {
            "body": "Thank GOD I got to the door before Deirdre.",
            "personId": 2800,
            "typing": false
        },
        {
            "body": "I'm not ok with inviting stray dudes in off the street.",
            "personId": 2800,
            "typing": false
        },
        {
            "body": "Oh please. You're freaking out for nothing.",
            "personId": 2801,
            "typing": false
        },
        {
            "body": "They were harmless.",
            "personId": 2801,
            "typing": false
        },
        {
            "body": "I side with Jess.",
            "personId": 2802,
            "typing": false
        },
        {
            "body": "They were 98 year old creepers!",
            "personId": 2802,
            "typing": false
        },
        {
            "body": "I thought I it would have made for a fun night. 🙌🏼",
            "personId": 2801,
            "typing": false
        },
        {
            "body": "Did you notice that they left a box at the door?",
            "personId": 2801,
            "typing": false
        },
        {
            "body": "I thought that was from Amazon.",
            "personId": 2800,
            "typing": false
        },
        {
            "body": "The old men left it?!",
            "personId": 2800,
            "typing": false
        },
        {
            "body": "Yes!",
            "personId": 2801,
            "typing": false
        },
        {
            "body": "I'm going to get it.",
            "personId": 2801,
            "typing": false
        },
        {
            "body": "Where are you?",
            "personId": 2801,
            "typing": false
        },
        {
            "body": "Ran out for food.",
            "personId": 2800,
            "typing": false
        },
        {
            "body": "OMG.",
            "personId": 2801,
            "typing": false
        },
        {
            "body": "HAHAHAHAHAH.",
            "personId": 2801,
            "typing": false
        },
        {
            "body": "HAHAHAHAHAH.",
            "personId": 2801,
            "typing": false
        },
        {
            "body": "WHAT?!",
            "personId": 2802,
            "typing": false
        },
        {
            "body": "It's filled with old fish net stockings...",
            "personId": 2801,
            "typing": false
        },
        {
            "body": "...and a note.",
            "personId": 2801,
            "typing": false
        },
        {
            "body": "A NOTE?",
            "personId": 2800,
            "typing": false
        },
        {
            "body": "What the hell!",
            "personId": 2800,
            "typing": false
        },
        {
            "body": "What does the note say?",
            "personId": 2800,
            "typing": false
        },
        {
            "body": ""In case you wanted to keep the tradition alive..."",
            "personId": 2801,
            "typing": false
        },
        {
            "body": "WHAT",
            "personId": 2800,
            "typing": false
        },
        {
            "body": "WHAT",
            "personId": 2800,
            "typing": false
        },
        {
            "body": "WHAT",
            "personId": 2800,
            "typing": false
        },
        {
            "body": "WE HAVE LEGIT BEEN PROPOSITIONED BY OLD MEN!",
            "personId": 2802,
            "typing": false
        },
        {
            "body": "I'm not done.",
            "personId": 2801,
            "typing": false
        },
        {
            "body": "Go on.",
            "personId": 2800,
            "typing": false
        },
        {
            "body": "I'm scared to walk home.",
            "personId": 2800,
            "typing": false
        },
        {
            "body": "What if they follow me?",
            "personId": 2800,
            "typing": false
        },
        {
            "body": "Follow you home?",
            "personId": 2801,
            "typing": false
        },
        {
            "body": "I'm pretty sure you could out run both of them.",
            "personId": 2801,
            "typing": false
        },
        {
            "body": "This is terrifying.",
            "personId": 2802,
            "typing": false
        },
        {
            "body": "...the rest of the note says...",
            "personId": 2801,
            "typing": false
        },
        {
            "body": "P.S. take a closer look at the closet under the steps.",
            "personId": 2801,
            "typing": false
        },
        {
            "body": "SHUT UP.",
            "personId": 2802,
            "typing": false
        },
        {
            "body": "DEIRDRE. GO.",
            "personId": 2802,
            "typing": false
        },
        {
            "body": "DO IT.",
            "personId": 2802,
            "typing": false
        },
        {
            "body": "No way!",
            "personId": 2801,
            "typing": false
        },
        {
            "body": "I'm not going alone.",
            "personId": 2801,
            "typing": false
        },
        {
            "body": "Oh please.",
            "personId": 2800,
            "typing": false
        },
        {
            "body": "You haven't been phased by this thing one bit.",
            "personId": 2800,
            "typing": false
        },
        {
            "body": "I've been pretending!",
            "personId": 2801,
            "typing": false
        },
        {
            "body": "This is weird as shit.",
            "personId": 2801,
            "typing": false
        },
        {
            "body": "We have a band of geriatrics after us!",
            "personId": 2801,
            "typing": false
        },
        {
            "body": "Does it get more bizarre?",
            "personId": 2801,
            "typing": false
        },
        {
            "body": "Just go to the back of the downstairs closet.",
            "personId": 2800,
            "typing": false
        },
        {
            "body": "GO!",
            "personId": 2802,
            "typing": false
        },
        {
            "body": "Hold.",
            "personId": 2801,
            "typing": false
        },
        {
            "body": "OH SHIT.",
            "personId": 2801,
            "typing": true
        },
        {
            "body": "WHAT?!",
            "personId": 2800,
            "typing": false
        },
        {
            "body": "WHAT?! WHAT IS IT?!",
            "personId": 2802,
            "typing": false
        },
        {
            "body": "The back wall opens up.",
            "personId": 2801,
            "typing": false
        },
        {
            "body": "THERE'S A SECRET ROOM IN HERE.",
            "personId": 2801,
            "typing": false
        },
        {
            "body": "OUR HOUSE HAS A SECRET ROOM.",
            "personId": 2801,
            "typing": false
        },
        {
            "body": "Whoa.",
            "personId": 2802,
            "typing": false
        },
        {
            "body": "That's so cool.",
            "personId": 2802,
            "typing": false
        },
        {
            "body": "How did the old man know that?",
            "personId": 2800,
            "typing": false
        },
        {
            "body": "...WHOA.",
            "personId": 2801,
            "typing": false
        },
        {
            "body": "OMG.",
            "personId": 2801,
            "typing": false
        },
        {
            "body": "What is it?  What's in the room?",
            "personId": 2802,
            "typing": false
        },
        {
            "body": "We need to move.",
            "personId": 2801,
            "typing": false
        }
    ],
    "number": 1,
    "people": [
        {
            "bubbleColor": "ebeff4",
            "id": 2800,
            "name": "Jessica",
            "nameColor": "25aef4",
            "textColor": "000000cc"
        },
        {
            "bubbleColor": "f6ecec",
            "id": 2801,
            "name": "Deirdre",
            "nameColor": "ea5aa3",
            "textColor": "000000cc"
        },
        {
            "bubbleColor": "eff4eb",
            "id": 2802,
            "name": "Jeanna",
            "nameColor": "7ed321",
            "textColor": "000000cc"
        }
    ],
    "storyId": 28
}