{
    "messages": [
        {
            "body": "You bitch!",
            "personId": 100125,
            "typing": false
        },
        {
            "body": "That's cheating!",
            "personId": 100125,
            "typing": false
        },
        {
            "body": "I don't know what you're talking about.",
            "personId": 100124,
            "typing": false
        },
        {
            "body": "Oh yes you do.",
            "personId": 100125,
            "typing": false
        },
        {
            "body": "Getting all bff with Nicole.",
            "personId": 100125,
            "typing": false
        },
        {
            "body": "Telling her I'm bad news.",
            "personId": 100125,
            "typing": false
        },
        {
            "body": "Taking her to the race with a car full of chicks that want to cut my balls off.",
            "personId": 100125,
            "typing": false
        },
        {
            "body": "That's on you.",
            "personId": 100124,
            "typing": false
        },
        {
            "body": "I never told you to bone all of my friends at the same time.",
            "personId": 100124,
            "typing": false
        },
        {
            "body": "You know what I mean.",
            "personId": 100125,
            "typing": false
        },
        {
            "body": "You can't turn her against me before we even get started!",
            "personId": 100125,
            "typing": false
        },
        {
            "body": "That's against the rules.",
            "personId": 100125,
            "typing": false
        },
        {
            "body": "Oh there's rules now?",
            "personId": 100124,
            "typing": false
        },
        {
            "body": "Fair enough.",
            "personId": 100125,
            "typing": true
        },
        {
            "body": "We neglected to establish the rules.",
            "personId": 100125,
            "typing": false
        },
        {
            "body": "An over sight on my part.",
            "personId": 100125,
            "typing": false
        },
        {
            "body": "Fine. Let's set some rules.",
            "personId": 100125,
            "typing": false
        },
        {
            "body": "No more slander.",
            "personId": 100125,
            "typing": false
        },
        {
            "body": "She hears nothing else of my past.",
            "personId": 100125,
            "typing": false
        },
        {
            "body": "Fine. ",
            "personId": 100124,
            "typing": false
        },
        {
            "body": "No alcohol or drugs.",
            "personId": 100124,
            "typing": false
        },
        {
            "body": "What the what?!!!",
            "personId": 100125,
            "typing": false
        },
        {
            "body": "Too easy!",
            "personId": 100124,
            "typing": false
        },
        {
            "body": "You can't just get her intoxicated and take advantage of her... that's child's play.",
            "personId": 100124,
            "typing": false
        },
        {
            "body": "Fine, but if she gets drunk on her own and comes looking for me that's in bounds.",
            "personId": 100125,
            "typing": false
        },
        {
            "body": "Fine.",
            "personId": 100124,
            "typing": true
        },
        {
            "body": "You can't get another one of your dudes to go for her.",
            "personId": 100125,
            "typing": false
        },
        {
            "body": "If my challenge is to be her first, then I get to be the FIRST!",
            "personId": 100125,
            "typing": false
        },
        {
            "body": "K",
            "personId": 100124,
            "typing": false
        },
        {
            "body": "But if she happens to fall for someone better than you that's out of my hands.",
            "personId": 100124,
            "typing": false
        },
        {
            "body": "Right. Like there's anyone better than me at this school.",
            "personId": 100125,
            "typing": false
        },
        {
            "body": "Just keep your minions at bay.",
            "personId": 100125,
            "typing": false
        },
        {
            "body": "Wow. Conceited much?",
            "personId": 100124,
            "typing": false
        },
        {
            "body": "I call it confident.",
            "personId": 100125,
            "typing": false
        },
        {
            "body": "Oh OK. 🙄",
            "personId": 100124,
            "typing": false
        },
        {
            "body": "You can't tell her you love her.",
            "personId": 100124,
            "typing": true
        },
        {
            "body": "Again. Too easy.",
            "personId": 100124,
            "typing": false
        },
        {
            "body": "Shit!",
            "personId": 100125,
            "typing": false
        },
        {
            "body": "Fine.",
            "personId": 100125,
            "typing": false
        },
        {
            "body": "Haha!",
            "personId": 100124,
            "typing": false
        },
        {
            "body": "Unless of course... you actually fall in love with her.",
            "personId": 100124,
            "typing": false
        },
        {
            "body": "Who do you think you're talking to.",
            "personId": 100125,
            "typing": false
        },
        {
            "body": "Just checking. Just making sure you're not going soft on me.",
            "personId": 100124,
            "typing": false
        },
        {
            "body": "Also, you can't tell her about my past either.",
            "personId": 100124,
            "typing": false
        },
        {
            "body": "We get to both have clean slates with her.",
            "personId": 100124,
            "typing": false
        },
        {
            "body": "Oooh! You maybe want a little piece for yourself?",
            "personId": 100125,
            "typing": false
        },
        {
            "body": "Wouldn't be your first time flipping an innocent young thing.",
            "personId": 100125,
            "typing": false
        },
        {
            "body": "We'll see how I feel. I'm not convinced she's oh so innocent.",
            "personId": 100124,
            "typing": false
        },
        {
            "body": "So there are the rules!",
            "personId": 100124,
            "typing": false
        },
        {
            "body": "No you got one more than me.",
            "personId": 100125,
            "typing": false
        },
        {
            "body": "Hold please... counting.",
            "personId": 100124,
            "typing": false
        },
        {
            "body": "Shit.",
            "personId": 100124,
            "typing": false
        },
        {
            "body": "Fine, what else?",
            "personId": 100124,
            "typing": false
        },
        {
            "body": "You can't tell her about us. Ever.",
            "personId": 100125,
            "typing": false
        },
        {
            "body": "I hate you. I thought I got away with that little gem.",
            "personId": 100124,
            "typing": false
        },
        {
            "body": "Can't fool me "sister."",
            "personId": 100125,
            "typing": false
        },
        {
            "body": "Fine.",
            "personId": 100124,
            "typing": false
        },
        {
            "body": "That's the rules.",
            "personId": 100124,
            "typing": false
        },
        {
            "body": "May the best lady win.",
            "personId": 100124,
            "typing": false
        }
    ],
    "number": 2,
    "people": [
        {
            "bubbleColor": "ebeff4",
            "id": 100124,
            "name": "Hunter Le Doux",
            "nameColor": "25aef4",
            "textColor": "000000cc"
        },
        {
            "bubbleColor": "f6ecec",
            "id": 100125,
            "name": "Beau Lansing",
            "nameColor": "ea5aa3",
            "textColor": "000000cc"
        },
        {
            "bubbleColor": "ecedf6",
            "id": 100139,
            "name": "Nicole Peters",
            "nameColor": "8c37e4",
            "textColor": "000000cc"
        },
        {
            "bubbleColor": "eff4eb",
            "id": 100153,
            "name": "Dumb Rebecca",
            "nameColor": "7ed321",
            "textColor": "000000cc"
        },
        {
            "bubbleColor": "fbf9e0",
            "id": 100188,
            "name": "BFF Sydney",
            "nameColor": "ffb112",
            "textColor": "000000cc"
        },
        {
            "bubbleColor": "eff4eb",
            "id": 100193,
            "name": "Rebecca Cole",
            "nameColor": "7ed321",
            "textColor": "000000cc"
        }
    ],
    "storyId": 100043
}