{
    "messages": [
        {
            "body": "please don't touch my stuff",
            "personId": 100083,
            "typing": false
        },
        {
            "body": "your towels?",
            "personId": 100084,
            "typing": false
        },
        {
            "body": "yah.",
            "personId": 100083,
            "typing": false
        },
        {
            "body": "they were on my bed. ",
            "personId": 100084,
            "typing": false
        },
        {
            "body": "I know. I put them there",
            "personId": 100083,
            "typing": false
        },
        {
            "body": "I moved them over to your side of the room.",
            "personId": 100084,
            "typing": false
        },
        {
            "body": "i thought it was an accident",
            "personId": 100084,
            "typing": false
        },
        {
            "body": "It wasn't",
            "personId": 100083,
            "typing": false
        },
        {
            "body": "College roommates are supposed to bond.",
            "personId": 100083,
            "typing": false
        },
        {
            "body": "Sharing stuff is part of bonding. ",
            "personId": 100083,
            "typing": false
        },
        {
            "body": "oh. I have my own towels",
            "personId": 100084,
            "typing": false
        },
        {
            "image": "CkVAO4zR1OCCuqv5tgHf_rue1.hi-res.jpg",
            "obscuredImage": "CkVAO4zR1OCCuqv5tgHf_rue1.obscured.jpg",
            "personId": 100083,
            "portrait": true,
            "typing": false
        },
        {
            "body": "Is that my towel?",
            "personId": 100084,
            "typing": false
        },
        {
            "body": "Yep. We're already besties! DAY 1.",
            "personId": 100083,
            "typing": false
        },
        {
            "body": "oh my god",
            "personId": 100084,
            "typing": false
        },
        {
            "body": "i know!! hearts",
            "personId": 100083,
            "typing": false
        },
        {
            "body": "#RoomiesForLife",
            "personId": 100083,
            "typing": false
        },
        {
            "body": "DUDE!",
            "personId": 100084,
            "typing": false
        },
        {
            "body": "OMG",
            "personId": 100084,
            "typing": false
        },
        {
            "body": "SOS",
            "personId": 100084,
            "typing": false
        },
        {
            "body": "WTF",
            "personId": 100084,
            "typing": false
        },
        {
            "body": "HELP HELP HELP",
            "personId": 100084,
            "typing": false
        },
        {
            "body": "SERIOUSLY!",
            "personId": 100084,
            "typing": false
        },
        {
            "body": "I AM IN HELL!",
            "personId": 100084,
            "typing": false
        },
        {
            "body": "??",
            "personId": 100083,
            "typing": false
        },
        {
            "body": "MY ROOMMATE IS BAT SHIT",
            "personId": 100084,
            "typing": false
        },
        {
            "body": "BAT. SHIT CRAZY",
            "personId": 100084,
            "typing": false
        },
        {
            "body": "Random assignments are cruel",
            "personId": 100084,
            "typing": false
        },
        {
            "body": "awful",
            "personId": 100084,
            "typing": false
        },
        {
            "body": "she legit just yelled at me for moving HER towels off of MY bed",
            "personId": 100084,
            "typing": false
        },
        {
            "body": "SHE WANTS TO SHARE TOWELS",
            "personId": 100084,
            "typing": false
        },
        {
            "body": "what kind of a sick pillow fight porn is this?",
            "personId": 100084,
            "typing": false
        },
        {
            "body": "people don't come this weird.",
            "personId": 100084,
            "typing": false
        },
        {
            "body": "i think she was home schooled",
            "personId": 100084,
            "typing": false
        },
        {
            "body": "i need to get out",
            "personId": 100084,
            "typing": false
        },
        {
            "body": "AND",
            "personId": 100084,
            "typing": false
        },
        {
            "body": "SHE #'D ME ROOMIES FOR LIFE?",
            "personId": 100084,
            "typing": false
        },
        {
            "body": "i'm dying",
            "personId": 100084,
            "typing": false
        },
        {
            "body": "i'm literally dying",
            "personId": 100084,
            "typing": false
        },
        {
            "body": "i might be dead",
            "personId": 100084,
            "typing": false
        },
        {
            "body": "i am not going to be this chicks roomie for life",
            "personId": 100084,
            "typing": false
        },
        {
            "body": "more like roomie for a day",
            "personId": 100084,
            "typing": false
        },
        {
            "body": "before i dump her ass",
            "personId": 100084,
            "typing": false
        },
        {
            "body": "yo?",
            "personId": 100084,
            "typing": false
        },
        {
            "body": "HELP. ME.",
            "personId": 100084,
            "typing": false
        },
        {
            "body": "KATE! where r u?",
            "personId": 100084,
            "typing": false
        },
        {
            "body": "wow",
            "personId": 100083,
            "typing": true
        },
        {
            "body": "tell me how you really feel.",
            "personId": 100083,
            "typing": false
        },
        {
            "body": "shit.",
            "personId": 100084,
            "typing": false
        },
        {
            "body": "sorry wrong person.",
            "personId": 100084,
            "typing": false
        },
        {
            "personId": 100083,
            "typing": true
        }
    ],
    "number": 0,
    "people": [
        {
            "bubbleColor": "ebeff4",
            "id": 100083,
            "name": "Penelope",
            "nameColor": "25aef4",
            "textColor": "000000cc"
        },
        {
            "bubbleColor": "f6ecec",
            "id": 100084,
            "name": "Rue",
            "nameColor": "ea5aa3",
            "textColor": "000000cc"
        },
        {
            "bubbleColor": "eff4eb",
            "id": 100087,
            "name": "Marick",
            "nameColor": "7ed321",
            "textColor": "000000cc"
        },
        {
            "bubbleColor": "ebeff4",
            "id": 100092,
            "name": "Olivia",
            "nameColor": "25aef4",
            "textColor": "000000cc"
        },
        {
            "bubbleColor": "ebeff4",
            "id": 100093,
            "name": "New Guy",
            "nameColor": "25aef4",
            "textColor": "000000cc"
        },
        {
            "bubbleColor": "ecedf6",
            "id": 100112,
            "name": "Kate",
            "nameColor": "8c37e4",
            "textColor": "000000cc"
        },
        {
            "bubbleColor": "ebeff4",
            "id": 100152,
            "name": "Jeff",
            "nameColor": "25aef4",
            "textColor": "000000cc"
        },
        {
            "bubbleColor": "ebeff4",
            "id": 100187,
            "name": "Danny",
            "nameColor": "25aef4",
            "textColor": "000000cc"
        },
        {
            "bubbleColor": "ebeff4",
            "id": 100203,
            "name": "Mom",
            "nameColor": "25aef4",
            "textColor": "000000cc"
        }
    ],
    "storyId": 100032
}