{
    "messages": [
        {
            "body": "You need to hack his accounts.",
            "personId": 100087,
            "typing": false
        },
        {
            "body": "I swore I'd never be that girl.",
            "personId": 100084,
            "typing": false
        },
        {
            "body": "Be that girl, Rue!",
            "personId": 100087,
            "typing": false
        },
        {
            "body": "He's gotta be cheating.",
            "personId": 100087,
            "typing": false
        },
        {
            "body": "He's probably just busy.",
            "personId": 100084,
            "typing": false
        },
        {
            "body": "He's barely texted you back since Spring Break.",
            "personId": 100087,
            "typing": false
        },
        {
            "body": "Maybe it's the neck tattoo.",
            "personId": 100084,
            "typing": false
        },
        {
            "body": "Maybe he met some ho and has a guilty conscience.",
            "personId": 100087,
            "typing": false
        },
        {
            "body": "There's only one way to find out.",
            "personId": 100087,
            "typing": false
        },
        {
            "body": "Do it.",
            "personId": 100087,
            "typing": false
        },
        {
            "body": "You have no choice.",
            "personId": 100087,
            "typing": false
        },
        {
            "body": "What if he finds out?",
            "personId": 100084,
            "typing": false
        },
        {
            "body": "He won't",
            "personId": 100087,
            "typing": false
        },
        {
            "body": "Start with his snaps.",
            "personId": 100087,
            "typing": false
        },
        {
            "body": "My heart is pounding.",
            "personId": 100084,
            "typing": false
        },
        {
            "body": "Username: JeffyWho.",
            "personId": 100084,
            "typing": false
        },
        {
            "body": "I don't konw the password.",
            "personId": 100084,
            "typing": false
        },
        {
            "body": "What's the hint?",
            "personId": 100087,
            "typing": false
        },
        {
            "body": "First name of oldest nephew",
            "personId": 100084,
            "typing": false
        },
        {
            "body": "That's easy! ",
            "personId": 100084,
            "typing": false
        },
        {
            "body": "Timmy",
            "personId": 100084,
            "typing": false
        },
        {
            "body": "Shit didn't work.",
            "personId": 100084,
            "typing": false
        },
        {
            "body": "timothy?",
            "personId": 100087,
            "typing": false
        },
        {
            "body": "IN",
            "personId": 100084,
            "typing": false
        },
        {
            "body": "Um. Who the hell is this?",
            "personId": 100084,
            "typing": false
        },
        {
            "body": "WHO",
            "personId": 100087,
            "typing": false
        },
        {
            "body": "He has all these snap convos from some girl named LUCY",
            "personId": 100084,
            "typing": false
        },
        {
            "body": "Lucy? Ew. ",
            "personId": 100087,
            "typing": false
        },
        {
            "body": "Definite tramp.",
            "personId": 100087,
            "typing": false
        },
        {
            "body": "What do they say?",
            "personId": 100087,
            "typing": false
        },
        {
            "body": "They're kind of sexual.",
            "personId": 100084,
            "typing": false
        },
        {
            "body": "I can't believe this.",
            "personId": 100084,
            "typing": false
        },
        {
            "body": "I spent my whole spring break texting him about how much I love him.",
            "personId": 100084,
            "typing": false
        },
        {
            "body": "And he was messaging some slore named LUCY.",
            "personId": 100084,
            "typing": false
        },
        {
            "body": "Grrrrrrllll. Not cool. ",
            "personId": 100087,
            "typing": false
        },
        {
            "body": "It could have been worse.",
            "personId": 100084,
            "typing": false
        },
        {
            "body": "?",
            "personId": 100087,
            "typing": false
        },
        {
            "body": "At least it was just messages.",
            "personId": 100084,
            "typing": false
        },
        {
            "body": "LOL. Oh honey.",
            "personId": 100087,
            "typing": false
        },
        {
            "body": "NO no no.",
            "personId": 100087,
            "typing": false
        },
        {
            "body": "Where there's smoke there's fire.",
            "personId": 100087,
            "typing": false
        },
        {
            "body": "He would never actually cheat.",
            "personId": 100084,
            "typing": false
        },
        {
            "body": "Hack his Instagram.",
            "personId": 100087,
            "typing": false
        },
        {
            "body": "You think?",
            "personId": 100084,
            "typing": false
        },
        {
            "body": "YES. CLEARLY.",
            "personId": 100087,
            "typing": false
        },
        {
            "body": "Ok.",
            "personId": 100084,
            "typing": false
        },
        {
            "body": "Password isn't timothy",
            "personId": 100084,
            "typing": false
        },
        {
            "body": "Hint?",
            "personId": 100087,
            "typing": false
        },
        {
            "body": "Favorite sports team?",
            "personId": 100084,
            "typing": false
        },
        {
            "body": "Detroit Lions!",
            "personId": 100084,
            "typing": false
        },
        {
            "body": "Just put lions",
            "personId": 100087,
            "typing": false
        },
        {
            "body": "Not it.",
            "personId": 100084,
            "typing": false
        },
        {
            "body": "Capital?",
            "personId": 100087,
            "typing": false
        },
        {
            "body": "No!",
            "personId": 100084,
            "typing": false
        },
        {
            "body": "detroitlions one word",
            "personId": 100087,
            "typing": false
        },
        {
            "body": "OH SHIT",
            "personId": 100084,
            "typing": false
        },
        {
            "body": "what?",
            "personId": 100087,
            "typing": false
        },
        {
            "body": "It says he's locked out from one too many sign in attempts!",
            "personId": 100084,
            "typing": false
        },
        {
            "body": "AHHHHHHHHHHH",
            "personId": 100084,
            "typing": false
        },
        {
            "body": "I'm sunk!",
            "personId": 100084,
            "typing": false
        },
        {
            "body": "He's going to know!!!!",
            "personId": 100084,
            "typing": false
        },
        {
            "body": "What am I going to do?",
            "personId": 100084,
            "typing": false
        },
        {
            "body": "Nothing. You're going to do nothing.",
            "personId": 100087,
            "typing": false
        },
        {
            "body": "I have to tell him.",
            "personId": 100084,
            "typing": false
        },
        {
            "body": "NO. WHATEVER YOU DO DO NOT TELL HIM",
            "personId": 100087,
            "typing": false
        },
        {
            "body": "He'll think it was some hacker from India.",
            "personId": 100087,
            "typing": false
        },
        {
            "body": "Move onto his Facebook while you can.",
            "personId": 100087,
            "typing": false
        },
        {
            "body": "He'll change all his passwords after the Instagram notification.",
            "personId": 100087,
            "typing": false
        },
        {
            "body": "Here I go.",
            "personId": 100084,
            "typing": true
        },
        {
            "body": "OH MY GOD.",
            "personId": 100084,
            "typing": false
        },
        {
            "body": "NO ON NO NO NO NONONONONONOOOOO",
            "personId": 100084,
            "typing": false
        },
        {
            "body": "MOTHER EFFER",
            "personId": 100084,
            "typing": false
        },
        {
            "body": "What?! ",
            "personId": 100087,
            "typing": false
        },
        {
            "body": "Screen Shot!",
            "personId": 100087,
            "typing": false
        },
        {
            "body": "To Be Continued…",
            "typing": false
        }
    ],
    "number": 6,
    "people": [
        {
            "bubbleColor": "ebeff4",
            "id": 100083,
            "name": "Penelope",
            "nameColor": "25aef4",
            "textColor": "000000cc"
        },
        {
            "bubbleColor": "f6ecec",
            "id": 100084,
            "name": "Rue",
            "nameColor": "ea5aa3",
            "textColor": "000000cc"
        },
        {
            "bubbleColor": "eff4eb",
            "id": 100087,
            "name": "Marick",
            "nameColor": "7ed321",
            "textColor": "000000cc"
        },
        {
            "bubbleColor": "ebeff4",
            "id": 100092,
            "name": "Olivia",
            "nameColor": "25aef4",
            "textColor": "000000cc"
        },
        {
            "bubbleColor": "ebeff4",
            "id": 100093,
            "name": "New Guy",
            "nameColor": "25aef4",
            "textColor": "000000cc"
        },
        {
            "bubbleColor": "ecedf6",
            "id": 100112,
            "name": "Kate",
            "nameColor": "8c37e4",
            "textColor": "000000cc"
        },
        {
            "bubbleColor": "ebeff4",
            "id": 100152,
            "name": "Jeff",
            "nameColor": "25aef4",
            "textColor": "000000cc"
        },
        {
            "bubbleColor": "ebeff4",
            "id": 100187,
            "name": "Danny",
            "nameColor": "25aef4",
            "textColor": "000000cc"
        },
        {
            "bubbleColor": "ebeff4",
            "id": 100203,
            "name": "Mom",
            "nameColor": "25aef4",
            "textColor": "000000cc"
        }
    ],
    "storyId": 100032
}