{
    "messages": [
        {
            "body": "You guys, this is stupid!",
            "personId": 6800,
            "typing": false
        },
        {
            "body": "The tour guide specifically said to stay off this trail!",
            "personId": 6800,
            "typing": false
        },
        {
            "body": "Why do I let you talk me into these things? 😡",
            "personId": 6800,
            "typing": false
        },
        {
            "body": "Also, WHERE did you go?!",
            "personId": 6800,
            "typing": false
        },
        {
            "body": "Chill out Phong!",
            "personId": 6801,
            "typing": false
        },
        {
            "body": "That guide is like 100.",
            "personId": 6801,
            "typing": false
        },
        {
            "body": "He doesn't know what he's talking about.",
            "personId": 6801,
            "typing": false
        },
        {
            "body": "Right. The GUIDE doesn't know what he's talking about! Ha. Ha.",
            "personId": 6800,
            "typing": false
        },
        {
            "body": "He's lived on this reservation his WHOLE life and does these stupid High School camping trips EVERY week!",
            "personId": 6800,
            "typing": false
        },
        {
            "body": "He knows EXACTLY what he's talking about.",
            "personId": 6800,
            "typing": false
        },
        {
            "body": "OMG!",
            "personId": 6802,
            "typing": false
        },
        {
            "body": "OMG!",
            "personId": 6802,
            "typing": false
        },
        {
            "body": "Shit you guys this place IS haunted!!!",
            "personId": 6802,
            "typing": false
        },
        {
            "body": "Not you too!",
            "personId": 6801,
            "typing": false
        },
        {
            "body": "You're both such idiots!",
            "personId": 6801,
            "typing": false
        },
        {
            "body": "What do you mean Georgia?!",
            "personId": 6800,
            "typing": false
        },
        {
            "body": "WHERE ARE YOU GUYS?!!!",
            "personId": 6800,
            "typing": false
        },
        {
            "image": "Lost On A Reservation.manrunning.jpg",
            "obscuredImage": "Lost On A Reservation.manrunning.obscured.jpg",
            "personId": 6802,
            "portrait": true,
            "typing": false
        },
        {
            "body": "What's THAT?!",
            "personId": 6800,
            "typing": false
        },
        {
            "body": "Yeah, what the hell is that?",
            "personId": 6801,
            "typing": false
        },
        {
            "body": "It's all blurry.",
            "personId": 6801,
            "typing": false
        },
        {
            "body": "Is that a deer?",
            "personId": 6801,
            "typing": false
        },
        {
            "body": "LOOK at the photo!!",
            "personId": 6802,
            "typing": false
        },
        {
            "body": "We ARE!",
            "personId": 6801,
            "typing": false
        },
        {
            "body": "It's just all blurry.",
            "personId": 6801,
            "typing": false
        },
        {
            "body": "Does anyone hear chanting? Is that YOU, Will? It's so offensive!",
            "personId": 6800,
            "typing": false
        },
        {
            "body": "How am I friends with you?!",
            "personId": 6800,
            "typing": false
        },
        {
            "body": "I'm not chanting.",
            "personId": 6801,
            "typing": false
        },
        {
            "body": "Yes you are!",
            "personId": 6800,
            "typing": false
        },
        {
            "body": "And I'm not falling for it!",
            "personId": 6800,
            "typing": false
        },
        {
            "body": "Do I seem like the kind of person who knows any chants?",
            "personId": 6801,
            "typing": false
        },
        {
            "body": "I know it's just you trying to freak me out!",
            "personId": 6800,
            "typing": false
        },
        {
            "body": "You think I'm running around making weird Indian chant noises just to scare you?",
            "personId": 6801,
            "typing": false
        },
        {
            "body": "I KNOW YOU ARE!!!",
            "personId": 6800,
            "typing": false
        },
        {
            "body": "And they're called Native Americans!",
            "personId": 6800,
            "typing": false
        },
        {
            "body": "🙄",
            "personId": 6801,
            "typing": false
        },
        {
            "body": "Georgia help me out here!",
            "personId": 6801,
            "typing": false
        },
        {
            "body": "Where did you go Georgia!",
            "personId": 6800,
            "typing": false
        },
        {
            "body": "You're suppossed to chime in when Will's being a tool.",
            "personId": 6800,
            "typing": false
        },
        {
            "body": "Or when Phong's being a wussy.",
            "personId": 6801,
            "typing": false
        },
        {
            "body": "Screw you!",
            "personId": 6800,
            "typing": false
        },
        {
            "body": "Screw you!",
            "personId": 6801,
            "typing": false
        },
        {
            "body": "Georgia?!",
            "personId": 6800,
            "typing": false
        },
        {
            "body": "Hello?!",
            "personId": 6800,
            "typing": false
        },
        {
            "body": "2 minutes later",
            "typing": false
        },
        {
            "image": "Lost On A Reservation.manrunning2.jpg",
            "obscuredImage": "Lost On A Reservation.manrunning2.obscured.jpg",
            "personId": 6802,
            "portrait": true,
            "typing": false
        },
        {
            "body": "Help.",
            "personId": 6802,
            "typing": false
        },
        {
            "body": "What's THAT!",
            "personId": 6800,
            "typing": false
        },
        {
            "body": "Where did you go?",
            "personId": 6800,
            "typing": false
        },
        {
            "body": "HELP?! Are you ok?!",
            "personId": 6800,
            "typing": false
        },
        {
            "body": "I can't see that one either?",
            "personId": 6801,
            "typing": false
        },
        {
            "body": "Hold your phone still when you take pics.",
            "personId": 6801,
            "typing": false
        },
        {
            "body": "Wow. Great idea Will.",
            "personId": 6800,
            "typing": false
        },
        {
            "image": "Lost On A Reservation.manrunning3.jpg",
            "obscuredImage": "Lost On A Reservation.manrunning3.obscured.jpg",
            "personId": 6802,
            "portrait": true,
            "typing": false
        },
        {
            "body": "They're following me!!!",
            "personId": 6802,
            "typing": false
        },
        {
            "body": "CAN'T YOU SEE!!!",
            "personId": 6802,
            "typing": false
        },
        {
            "body": "What's happening!!!!",
            "personId": 6800,
            "typing": false
        },
        {
            "body": "Georgia!",
            "personId": 6801,
            "typing": false
        },
        {
            "body": "Who's following you?!",
            "personId": 6801,
            "typing": false
        },
        {
            "body": "You okay?!",
            "personId": 6801,
            "typing": false
        },
        {
            "body": "Where are you?",
            "personId": 6801,
            "typing": false
        },
        {
            "body": "SHIT!",
            "personId": 6800,
            "typing": false
        },
        {
            "body": "Will what's going on?!",
            "personId": 6800,
            "typing": false
        },
        {
            "body": "I DON'T KNOW!!!",
            "personId": 6801,
            "typing": false
        },
        {
            "body": "Georgia!!!",
            "personId": 6801,
            "typing": false
        },
        {
            "image": "Lost On A Reservation.manrunning4.jpg",
            "obscuredImage": "Lost On A Reservation.manrunning4.obscured.jpg",
            "personId": 6802,
            "portrait": true,
            "typing": false
        },
        {
            "body": "To Be Continued…",
            "typing": false
        }
    ],
    "number": 0,
    "people": [
        {
            "bubbleColor": "ebeff4",
            "id": 6800,
            "name": "Phong",
            "nameColor": "25aef4",
            "textColor": "000000cc"
        },
        {
            "bubbleColor": "f6ecec",
            "id": 6801,
            "name": "Will",
            "nameColor": "ea5aa3",
            "textColor": "000000cc"
        },
        {
            "bubbleColor": "eff4eb",
            "id": 6802,
            "name": "Georgia",
            "nameColor": "7ed321",
            "textColor": "000000cc"
        }
    ],
    "storyId": 68
}