{
    "messages": [
        {
            "body": "I was thinking we could rent a trailer in the desert with the gang.",
            "personId": 7100,
            "typing": false
        },
        {
            "body": "Sweet.",
            "personId": 7101,
            "typing": false
        },
        {
            "body": "I was looking for a reason to use my vintage rangefinder camera.",
            "personId": 7101,
            "typing": false
        },
        {
            "body": "The desert is great for that.",
            "personId": 7101,
            "typing": false
        },
        {
            "body": "Nice.",
            "personId": 7100,
            "typing": false
        },
        {
            "body": "We can bring some vinyl too.",
            "personId": 7100,
            "typing": false
        },
        {
            "body": "To the trailer?",
            "personId": 7101,
            "typing": false
        },
        {
            "body": "Yeah man.",
            "personId": 7100,
            "typing": false
        },
        {
            "body": "I have a traveling turn table.",
            "personId": 7100,
            "typing": false
        },
        {
            "body": "Sweet.",
            "personId": 7101,
            "typing": false
        },
        {
            "body": "I'll bring the french press.",
            "personId": 7101,
            "typing": false
        },
        {
            "body": "I've got the binoculars.",
            "personId": 7100,
            "typing": false
        },
        {
            "body": "Uh...",
            "personId": 7101,
            "typing": false
        },
        {
            "body": "I'm getting into bird watching.",
            "personId": 7100,
            "typing": false
        },
        {
            "body": "Are there a lot of birds in the desert?",
            "personId": 7101,
            "typing": false
        },
        {
            "body": "Not sure.",
            "personId": 7100,
            "typing": false
        },
        {
            "body": "Probably.",
            "personId": 7100,
            "typing": false
        },
        {
            "body": "I'll bring them just in case.",
            "personId": 7100,
            "typing": false
        },
        {
            "body": "I'll bring the basket that I got from the women of Ghana.",
            "personId": 7101,
            "typing": false
        },
        {
            "body": "What will we use that for?",
            "personId": 7100,
            "typing": false
        },
        {
            "body": "You bought a basket from the women of Ghana?",
            "personId": 7100,
            "typing": false
        },
        {
            "body": "We can just put things in it.",
            "personId": 7101,
            "typing": false
        },
        {
            "body": "Yeah. It's a cool way for the women earn a living.",
            "personId": 7101,
            "typing": false
        },
        {
            "body": "That's nice of you.",
            "personId": 7100,
            "typing": false
        },
        {
            "body": "Yeah. It was $300.",
            "personId": 7101,
            "typing": false
        },
        {
            "body": "So I'm really helping them.",
            "personId": 7101,
            "typing": false
        },
        {
            "body": "Nice.",
            "personId": 7100,
            "typing": false
        },
        {
            "body": "I'll pick up some PBR and American Spirits.",
            "personId": 7100,
            "typing": false
        },
        {
            "body": "Cool.",
            "personId": 7101,
            "typing": false
        },
        {
            "body": "How many pair of skinny jeans do I need?",
            "personId": 7101,
            "typing": false
        },
        {
            "body": "How many days?",
            "personId": 7100,
            "typing": false
        },
        {
            "body": "Just the weekend.",
            "personId": 7101,
            "typing": false
        },
        {
            "body": "3",
            "personId": 7100,
            "typing": false
        },
        {
            "body": "How many flannels?",
            "personId": 7100,
            "typing": false
        },
        {
            "body": "I'd say at least 4. Maybe 5.",
            "personId": 7101,
            "typing": false
        },
        {
            "body": "Just in case.",
            "personId": 7101,
            "typing": false
        },
        {
            "body": "Don't bring your red one. I'm bringing mine.",
            "personId": 7101,
            "typing": false
        },
        {
            "body": "K.",
            "personId": 7100,
            "typing": false
        },
        {
            "body": "Should I bring some of my homemade pickled carrots?",
            "personId": 7101,
            "typing": false
        },
        {
            "body": "Definitely.",
            "personId": 7100,
            "typing": false
        },
        {
            "body": "The mason jars you put them in are so cool.",
            "personId": 7100,
            "typing": false
        },
        {
            "body": "Let's write a communal poem about the weekend.",
            "personId": 7100,
            "typing": false
        },
        {
            "body": "About whatever inspires us.",
            "personId": 7100,
            "typing": false
        },
        {
            "body": "Everyone can write a verse.",
            "personId": 7100,
            "typing": false
        },
        {
            "body": "For sure.",
            "personId": 7101,
            "typing": false
        },
        {
            "body": "I'll bring my ukulele.",
            "personId": 7101,
            "typing": false
        },
        {
            "body": "Sweet.",
            "personId": 7100,
            "typing": false
        },
        {
            "body": "I didn't know you played!",
            "personId": 7100,
            "typing": false
        },
        {
            "body": "I don't.",
            "personId": 7101,
            "typing": false
        },
        {
            "body": "We can learn.",
            "personId": 7101,
            "typing": false
        },
        {
            "body": "Just a bunch of pals learning about themselves, new hobbies and nature.",
            "personId": 7101,
            "typing": false
        },
        {
            "body": "Getting down to the basics.",
            "personId": 7100,
            "typing": false
        },
        {
            "body": "Back to our beginnings.",
            "personId": 7101,
            "typing": false
        },
        {
            "body": "Oh!",
            "personId": 7101,
            "typing": false
        },
        {
            "body": "Can you bring your Kiehl's face wash and night mask?",
            "personId": 7101,
            "typing": false
        },
        {
            "body": "I'm out.",
            "personId": 7101,
            "typing": false
        },
        {
            "body": "And Delilah's coming.",
            "personId": 7101,
            "typing": false
        },
        {
            "body": "Those are first on my packing list.",
            "personId": 7100,
            "typing": false
        },
        {
            "body": "Delilah likes a quaffed dude.",
            "personId": 7100,
            "typing": false
        },
        {
            "body": "Yeah. I've gotta look rugged, like I don't care.",
            "personId": 7101,
            "typing": false
        },
        {
            "body": "But I do care.",
            "personId": 7101,
            "typing": false
        },
        {
            "body": "That's a hard look to pull off.",
            "personId": 7100,
            "typing": false
        },
        {
            "body": "I'll bring my beard cream too.",
            "personId": 7100,
            "typing": false
        },
        {
            "body": "So good.",
            "personId": 7101,
            "typing": false
        }
    ],
    "number": 0,
    "people": [
        {
            "bubbleColor": "ebeff4",
            "id": 7100,
            "name": "Chadwick",
            "nameColor": "25aef4",
            "textColor": "000000cc"
        },
        {
            "bubbleColor": "f6ecec",
            "id": 7101,
            "name": "Randy",
            "nameColor": "ea5aa3",
            "textColor": "000000cc"
        }
    ],
    "storyId": 71
}