{
    "messages": [
        {
            "body": "the doctor said the pill will help",
            "personId": 6600,
            "typing": false
        },
        {
            "body": "we have to hope",
            "personId": 6600,
            "typing": false
        },
        {
            "body": "I hope. I'm headed upstairs to say goodnight.",
            "personId": 6601,
            "typing": false
        },
        {
            "body": "I just heard something in Jake's closet, I'm nervous.",
            "personId": 6601,
            "typing": false
        },
        {
            "body": "I'll be home soon, it's nothing.",
            "personId": 6600,
            "typing": false
        },
        {
            "body": "I hate this house...",
            "personId": 6601,
            "typing": false
        },
        {
            "body": "you're being weird",
            "personId": 6600,
            "typing": false
        },
        {
            "body": "I'm going to look in the closet..",
            "personId": 6601,
            "typing": false
        },
        {
            "body": "oh my god..",
            "personId": 6601,
            "typing": true
        },
        {
            "body": "it's Jake, he's shaking.",
            "personId": 6601,
            "typing": false
        },
        {
            "body": "what???",
            "personId": 6600,
            "typing": false
        },
        {
            "body": "he's saying something",
            "personId": 6601,
            "typing": false
        },
        {
            "personId": 6601,
            "typing": true
        },
        {
            "body": "what did he say??",
            "personId": 6600,
            "typing": false
        },
        {
            "body": ""there's someone in my bed"",
            "personId": 6601,
            "typing": false
        },
        {
            "body": "facetime me and turn on your flash light on your phone",
            "personId": 6600,
            "typing": false
        },
        {
            "body": "okay",
            "personId": 6601,
            "typing": false
        },
        {
            "body": "Facetime call ended",
            "fullscreen": 1,
            "image": "Mom I'm Scared.girl-fullscreen.jpg",
            "obscuredImage": "Mom I'm Scared.girl-fullscreen.jpg",
            "personId": 6601,
            "portrait": false,
            "typing": false,
            "video": "Mom I'm Scared.girl-fullscreen.mp4",
            "videoSmall": "Mom I'm Scared.girl-fullscreen.small.mp4"
        },
        {
            "body": "holy sh**t matt WTF",
            "personId": 6601,
            "typing": false
        },
        {
            "body": "don't move. turn off the light.",
            "personId": 6600,
            "typing": false
        },
        {
            "body": "I can hear her breathing",
            "personId": 6601,
            "typing": false
        },
        {
            "body": "WHERE ARE YOU?",
            "personId": 6601,
            "typing": false
        },
        {
            "body": "do not move or she will get mad",
            "personId": 6600,
            "typing": false
        },
        {
            "body": "she????",
            "personId": 6601,
            "typing": false
        },
        {
            "body": "....",
            "personId": 6600,
            "typing": false
        }
    ],
    "number": 0,
    "people": [
        {
            "bubbleColor": "ebeff4",
            "id": 6600,
            "name": "Matt",
            "nameColor": "25aef4",
            "textColor": "000000cc"
        },
        {
            "bubbleColor": "f6ecec",
            "id": 6601,
            "name": "Sarah",
            "nameColor": "ea5aa3",
            "textColor": "000000cc"
        }
    ],
    "storyId": 66
}