{
    "messages": [
        {
            "body": "Oh hey. I'm back",
            "personId": 10900,
            "typing": false
        },
        {
            "body": "It's been a while...",
            "personId": 10901,
            "typing": true
        },
        {
            "body": "I really don't think I can do this anymore.",
            "personId": 10901,
            "typing": false
        },
        {
            "body": "I know you paid the biggest price.",
            "personId": 10901,
            "typing": false
        },
        {
            "body": "but I'm not cut out for this.",
            "personId": 10901,
            "typing": false
        },
        {
            "body": "Can we let this whole thing go?",
            "personId": 10901,
            "typing": false
        },
        {
            "body": "I just got into a sorority!",
            "personId": 10901,
            "typing": false
        },
        {
            "body": "You would have pretended to hate it, but secretly you would have loved it.",
            "personId": 10901,
            "typing": false
        },
        {
            "body": "I wish you were here.",
            "personId": 10901,
            "typing": false
        },
        {
            "body": "I'm sorry about everything.",
            "personId": 10901,
            "typing": false
        },
        {
            "body": "You done?",
            "personId": 10900,
            "typing": false
        },
        {
            "body": "No.",
            "personId": 10901,
            "typing": false
        },
        {
            "body": "Every day I wonder when you're coming back.",
            "personId": 10901,
            "typing": false
        },
        {
            "body": "And you never show up.",
            "personId": 10901,
            "typing": false
        },
        {
            "body": "I can't take it anymore.",
            "personId": 10901,
            "typing": false
        },
        {
            "body": "You can't pop up out of nowhere.",
            "personId": 10901,
            "typing": false
        },
        {
            "body": "It's dragging on too long.",
            "personId": 10901,
            "typing": false
        },
        {
            "body": "Your death was over two years ago and I'm still dealing with your "revenge" plan.",
            "personId": 10901,
            "typing": false
        },
        {
            "body": "My murder.",
            "personId": 10900,
            "typing": false
        },
        {
            "body": "Can you show a little mercy. Please.",
            "personId": 10901,
            "typing": false
        },
        {
            "body": "Maybe you've had a change of heart...",
            "personId": 10901,
            "typing": false
        },
        {
            "body": "Lol",
            "personId": 10900,
            "typing": false
        },
        {
            "body": "Nope.",
            "personId": 10900,
            "typing": false
        },
        {
            "body": "Lea please! Please.",
            "personId": 10901,
            "typing": false
        },
        {
            "body": "Why are you dragging this on?",
            "personId": 10901,
            "typing": false
        },
        {
            "body": "Why can't you kill everyone at once?",
            "personId": 10901,
            "typing": false
        },
        {
            "body": "Well that wouldn't be any fun!",
            "personId": 10900,
            "typing": false
        },
        {
            "body": "Don't you remember?",
            "personId": 10900,
            "typing": false
        },
        {
            "body": "You get to live.",
            "personId": 10900,
            "typing": false
        },
        {
            "body": "But your life comes at a price.",
            "personId": 10900,
            "typing": false
        },
        {
            "body": "?",
            "personId": 10901,
            "typing": false
        },
        {
            "body": "From now until WHENEVER, you will remember what you did.",
            "personId": 10900,
            "typing": false
        },
        {
            "body": "Because I could show up at any time.",
            "personId": 10900,
            "typing": false
        },
        {
            "body": "And tell you to kill someone else.",
            "personId": 10900,
            "typing": false
        },
        {
            "body": "Lea! You were never like this before!",
            "personId": 10901,
            "typing": false
        },
        {
            "body": "I WAS ALIVE BEFORE.",
            "personId": 10900,
            "typing": false
        },
        {
            "body": "Being dead changes people.",
            "personId": 10900,
            "typing": false
        },
        {
            "body": "My soul is tormented.",
            "personId": 10900,
            "typing": false
        },
        {
            "body": "I never got to move past this",
            "personId": 10900,
            "typing": false
        },
        {
            "body": "So why should you?",
            "personId": 10900,
            "typing": false
        },
        {
            "body": "Because it was an accident!",
            "personId": 10901,
            "typing": false
        },
        {
            "body": "STOP SAYING THAT!",
            "personId": 10900,
            "typing": false
        },
        {
            "body": "IT WAS NOT AN ACCIDENT.",
            "personId": 10900,
            "typing": false
        },
        {
            "body": "I was murdered.",
            "personId": 10900,
            "typing": false
        },
        {
            "body": "It was covered up as a suicide.",
            "personId": 10900,
            "typing": false
        },
        {
            "body": "No one investigated it.",
            "personId": 10900,
            "typing": false
        },
        {
            "body": "What kind of a sick "friend" does that?",
            "personId": 10900,
            "typing": false
        },
        {
            "body": "My parents think I took my own life.",
            "personId": 10900,
            "typing": false
        },
        {
            "body": "My mom sleeps with my suicide note under her pillow.",
            "personId": 10900,
            "typing": false
        },
        {
            "body": "A NOTE I DID NOT WRITE.",
            "personId": 10900,
            "typing": false
        },
        {
            "body": "Maybe if you had stood up for me this wouldn't have happened.",
            "personId": 10900,
            "typing": false
        },
        {
            "body": "I did stick up for you!",
            "personId": 10901,
            "typing": false
        },
        {
            "body": "You didn't do the right thing.",
            "personId": 10900,
            "typing": false
        },
        {
            "body": "You could have made this right.",
            "personId": 10900,
            "typing": false
        },
        {
            "body": "You failed.",
            "personId": 10900,
            "typing": false
        },
        {
            "body": "AND THERE IS NO MOVING BEYOND THIS FOR YOU.",
            "personId": 10900,
            "typing": false
        },
        {
            "body": "NONE.",
            "personId": 10900,
            "typing": false
        },
        {
            "body": "Then just kill me!",
            "personId": 10901,
            "typing": false
        },
        {
            "body": "Get rid of me.",
            "personId": 10901,
            "typing": false
        },
        {
            "body": "I would rather die than deal with this.",
            "personId": 10901,
            "typing": false
        },
        {
            "body": "I have so much anxiety.",
            "personId": 10901,
            "typing": false
        },
        {
            "body": "And anytime I try to have fun, I stop myself.",
            "personId": 10901,
            "typing": false
        },
        {
            "body": "Poor baby.",
            "personId": 10900,
            "typing": false
        },
        {
            "body": "And no. You live.",
            "personId": 10900,
            "typing": false
        },
        {
            "body": "But since you're in such a rush to move on with things...",
            "personId": 10900,
            "typing": false
        },
        {
            "body": "You can kill our next two",
            "personId": 10900,
            "typing": false
        },
        {
            "body": "#5 & #6",
            "personId": 10900,
            "typing": false
        },
        {
            "body": "Trey VanGorder and Zander Kerns.",
            "personId": 10900,
            "typing": false
        },
        {
            "body": "I can't.",
            "personId": 10901,
            "typing": false
        },
        {
            "body": "Why?",
            "personId": 10900,
            "typing": false
        },
        {
            "body": "Because you have a crush on Zander.",
            "personId": 10900,
            "typing": false
        },
        {
            "body": "Lol.",
            "personId": 10900,
            "typing": false
        },
        {
            "body": "Please Lea.",
            "personId": 10901,
            "typing": false
        },
        {
            "body": "STOP SAYING PLEASE.",
            "personId": 10900,
            "typing": false
        },
        {
            "body": "STOP.",
            "personId": 10900,
            "typing": false
        },
        {
            "body": "JUST DO WHAT I SAY.",
            "personId": 10900,
            "typing": false
        },
        {
            "body": "JUST DO IT.",
            "personId": 10900,
            "typing": false
        },
        {
            "body": "DO IT, OR THINGS WILL GET MUCH WORSE FOR YOU.",
            "personId": 10900,
            "typing": false
        },
        {
            "body": "Being dead and angry really heightens things.",
            "personId": 10900,
            "typing": false
        },
        {
            "body": "I really don't care who I hurt.",
            "personId": 10900,
            "typing": false
        },
        {
            "body": "And hurting people YOU love has become a passion of mine.",
            "personId": 10900,
            "typing": false
        },
        {
            "body": "Don't tempt me.",
            "personId": 10900,
            "typing": false
        },
        {
            "body": "You're sick.",
            "personId": 10901,
            "typing": false
        },
        {
            "body": "No.",
            "personId": 10900,
            "typing": false
        },
        {
            "body": "I'm dead.",
            "personId": 10900,
            "typing": false
        },
        {
            "body": "Trey and Zander started a company.",
            "personId": 10901,
            "typing": false
        },
        {
            "body": "It's about to go public.",
            "personId": 10901,
            "typing": false
        },
        {
            "body": "It's an app.",
            "personId": 10900,
            "typing": false
        },
        {
            "body": "Who cares.",
            "personId": 10900,
            "typing": false
        },
        {
            "body": "It helps patients get medications faster.",
            "personId": 10901,
            "typing": false
        },
        {
            "body": "They're better off alive.",
            "personId": 10901,
            "typing": false
        },
        {
            "body": "The app is helping people.",
            "personId": 10901,
            "typing": false
        },
        {
            "body": "Does it do anything for dead people?",
            "personId": 10900,
            "typing": false
        },
        {
            "personId": 10901,
            "typing": true
        },
        {
            "body": "Then I don't care.",
            "personId": 10900,
            "typing": false
        },
        {
            "body": "Zander just got that black convertible.",
            "personId": 10900,
            "typing": false
        },
        {
            "body": "#lame.",
            "personId": 10900,
            "typing": false
        },
        {
            "body": "You guys should go for a ride.",
            "personId": 10900,
            "typing": false
        },
        {
            "body": "You.",
            "personId": 10900,
            "typing": false
        },
        {
            "body": "Zander.",
            "personId": 10900,
            "typing": false
        },
        {
            "body": "Trey.",
            "personId": 10900,
            "typing": false
        },
        {
            "body": "I can't do this.",
            "personId": 10901,
            "typing": false
        },
        {
            "body": "Zander washes that thing obsessively.",
            "personId": 10900,
            "typing": false
        },
        {
            "body": "I think you should go with them to get it washed.",
            "personId": 10900,
            "typing": false
        },
        {
            "body": "Lea, I'm really not cut out for this.",
            "personId": 10901,
            "typing": false
        },
        {
            "body": "I'll mess it up.",
            "personId": 10901,
            "typing": false
        },
        {
            "body": "Poor Avery and her lack of confidence.",
            "personId": 10900,
            "typing": false
        },
        {
            "body": "I'll make sure everything goes off without a hitch.",
            "personId": 10900,
            "typing": false
        },
        {
            "body": "Maybe we just start with Trey.",
            "personId": 10901,
            "typing": false
        },
        {
            "body": "Get a jump start and switch your status to "Single."",
            "personId": 10900,
            "typing": false
        },
        {
            "body": "I'm not doing it.",
            "personId": 10901,
            "typing": false
        },
        {
            "body": "Yeah.",
            "personId": 10900,
            "typing": false
        },
        {
            "body": "You are.",
            "personId": 10900,
            "typing": false
        },
        {
            "body": "NO I'M NOT.",
            "personId": 10901,
            "typing": false
        },
        {
            "body": "Lol.",
            "personId": 10900,
            "typing": false
        },
        {
            "body": "Ok.",
            "personId": 10900,
            "typing": false
        },
        {
            "body": "We'll see about that.",
            "personId": 10900,
            "typing": false
        }
    ],
    "number": 4,
    "people": [
        {
            "bubbleColor": "ebeff4",
            "id": 10900,
            "name": "Blocked",
            "nameColor": "25aef4",
            "textColor": "000000cc"
        },
        {
            "bubbleColor": "f6ecec",
            "id": 10901,
            "name": "Avery",
            "nameColor": "ea5aa3",
            "textColor": "000000cc"
        },
        {
            "bubbleColor": "eff4eb",
            "id": 10902,
            "name": "Laura",
            "nameColor": "7ed321",
            "textColor": "000000cc"
        },
        {
            "bubbleColor": "ecedf6",
            "id": 10903,
            "name": "Zander",
            "nameColor": "8c37e4",
            "textColor": "000000cc"
        },
        {
            "bubbleColor": "fbf9e0",
            "id": 100009,
            "name": "Valentina",
            "nameColor": "ffb112",
            "textColor": "000000cc"
        }
    ],
    "storyId": 109
}