{
    "messages": [
        {
            "body": "Is your room as creepy as ours?",
            "personId": 2403,
            "typing": false
        },
        {
            "body": "Ours has a canopy bed.",
            "personId": 2402,
            "typing": false
        },
        {
            "body": "Like we're sleeping in Barbie's dream house.",
            "personId": 2402,
            "typing": false
        },
        {
            "body": "NO! 🙀",
            "personId": 2400,
            "typing": false
        },
        {
            "body": "Jeff and I are in the "House of Dolls" room.",
            "personId": 2400,
            "typing": false
        },
        {
            "body": "No joke, just dolls.",
            "personId": 2400,
            "typing": false
        },
        {
            "body": "EVERYWHERE!!!",
            "personId": 2400,
            "typing": false
        },
        {
            "body": "I guess I'm not sleeping tonight!",
            "personId": 2400,
            "typing": false
        },
        {
            "body": "SO creepy! 👀",
            "personId": 2402,
            "typing": false
        },
        {
            "body": "Bo and I swear we heard a girl crying!",
            "personId": 2402,
            "typing": false
        },
        {
            "body": "WHAT?!!!",
            "personId": 2400,
            "typing": false
        },
        {
            "body": "Yeah, WHAT?!",
            "personId": 2403,
            "typing": false
        },
        {
            "body": "There was a moaning sound coming from outside the window!",
            "personId": 2402,
            "typing": false
        },
        {
            "body": "Bo just went to ask the old couple if there was someone else staying here.",
            "personId": 2402,
            "typing": false
        },
        {
            "body": "I didn't see any other cars outside.",
            "personId": 2403,
            "typing": false
        },
        {
            "body": "Maybe they have a house keeper or something?",
            "personId": 2403,
            "typing": false
        },
        {
            "body": "Doubtful. This place doesn't look like it's been cleaned in the last decade.",
            "personId": 2402,
            "typing": false
        },
        {
            "body": "This place is stuck in a time warp.",
            "personId": 2401,
            "typing": false
        },
        {
            "body": "They have a rotary phone!",
            "personId": 2401,
            "typing": false
        },
        {
            "body": "Like NO buttons!",
            "personId": 2401,
            "typing": false
        },
        {
            "body": "You spin the dial for every number!",
            "personId": 2401,
            "typing": false
        },
        {
            "body": "You're joking!",
            "personId": 2402,
            "typing": false
        },
        {
            "body": "I asked the Lady if she had an iphone charger and she looked at me like I had two heads.",
            "personId": 2401,
            "typing": false
        },
        {
            "body": "That sucks. My phone's only got 10%.",
            "personId": 2400,
            "typing": false
        },
        {
            "body": "So we only have a car charger?!",
            "personId": 2400,
            "typing": false
        },
        {
            "body": "Bo, did you talk to her? What did she say about the crying?!",
            "personId": 2402,
            "typing": false
        },
        {
            "body": "Yeah, who cares about the charger right now, what did she say about the moaning?!",
            "personId": 2403,
            "typing": false
        },
        {
            "body": "She said that old houses make noises like that.",
            "personId": 2401,
            "typing": false
        },
        {
            "body": "The creaking of the old infastucture or something?",
            "personId": 2401,
            "typing": false
        },
        {
            "body": "That kind of makes sense actually.",
            "personId": 2400,
            "typing": false
        },
        {
            "body": "My Aunt lives in an old house and it's super creaky.",
            "personId": 2400,
            "typing": false
        },
        {
            "body": "It didn't sound like a creak, it sounded like crying.",
            "personId": 2402,
            "typing": false
        },
        {
            "body": "We've been up for like 18 hours, I bet that has something to do with it.",
            "personId": 2400,
            "typing": false
        },
        {
            "body": "Yeah, we need sleep.",
            "personId": 2403,
            "typing": false
        },
        {
            "body": "...I just saw a sheet flap by the window.",
            "personId": 2403,
            "typing": false
        },
        {
            "body": "I just looked...nothing.",
            "personId": 2403,
            "typing": false
        },
        {
            "body": "We're all hallucinating.",
            "personId": 2400,
            "typing": false
        },
        {
            "body": "DUDE.",
            "personId": 2401,
            "typing": false
        },
        {
            "body": "Anyone else think all the young girl pics are weird?",
            "personId": 2401,
            "typing": false
        },
        {
            "body": "What pics?",
            "personId": 2403,
            "typing": false
        },
        {
            "body": "There are pictures everywhere of some young hottie.",
            "personId": 2401,
            "typing": false
        },
        {
            "body": "I think that's the old Lady when she was young.",
            "personId": 2400,
            "typing": false
        },
        {
            "body": "Or maybe it's her daughter?",
            "personId": 2400,
            "typing": false
        },
        {
            "body": "Did she say she had a daughter?",
            "personId": 2402,
            "typing": false
        },
        {
            "body": "I think the old man said something about a daughter being gone... or wait missing?",
            "personId": 2403,
            "typing": false
        },
        {
            "body": "Huh.",
            "personId": 2402,
            "typing": false
        },
        {
            "body": "SO creepy! 👀",
            "personId": 2400,
            "typing": false
        },
        {
            "body": "Did you guys hear that?!",
            "personId": 2403,
            "typing": false
        },
        {
            "body": "I'm loosing my mind.",
            "personId": 2403,
            "typing": false
        },
        {
            "body": "Let's all just try and get some sleep.",
            "personId": 2400,
            "typing": false
        },
        {
            "body": "We'll get out of here as soon as it's light out.",
            "personId": 2400,
            "typing": false
        },
        {
            "body": "Good call.",
            "personId": 2402,
            "typing": false
        },
        {
            "body": "I need some z's 😴",
            "personId": 2402,
            "typing": false
        },
        {
            "body": "I just saw the white sheet again!",
            "personId": 2403,
            "typing": false
        },
        {
            "body": "A random cloth just flew by the window! I swear!",
            "personId": 2403,
            "typing": false
        },
        {
            "body": "Go to sleep.",
            "personId": 2402,
            "typing": false
        },
        {
            "body": "Goodnight Jeffie!",
            "personId": 2401,
            "typing": false
        },
        {
            "body": "There is SOMETHING out there!",
            "personId": 2403,
            "typing": false
        },
        {
            "body": "OOOOHHH! 👻",
            "personId": 2401,
            "typing": false
        }
    ],
    "number": 2,
    "people": [
        {
            "bubbleColor": "ebeff4",
            "id": 2400,
            "name": "Rocky",
            "nameColor": "25aef4",
            "textColor": "000000cc"
        },
        {
            "bubbleColor": "f6ecec",
            "id": 2401,
            "name": "Bo",
            "nameColor": "ea5aa3",
            "textColor": "000000cc"
        },
        {
            "bubbleColor": "eff4eb",
            "id": 2402,
            "name": "Claire",
            "nameColor": "7ed321",
            "textColor": "000000cc"
        },
        {
            "bubbleColor": "ecedf6",
            "id": 2403,
            "name": "Jeff",
            "nameColor": "8c37e4",
            "textColor": "000000cc"
        }
    ],
    "storyId": 24
}