{
    "messages": [
        {
            "image": "y1AAYncQRwCKWcnJYbdm_1.hi-res.jpg",
            "obscuredImage": "y1AAYncQRwCKWcnJYbdm_1.obscured.jpg",
            "personId": 100018,
            "portrait": true,
            "typing": false
        },
        {
            "image": "SSh1p6sTTQy4xt6Jo6r7_2.hi-res.jpg",
            "obscuredImage": "SSh1p6sTTQy4xt6Jo6r7_2.obscured.jpg",
            "personId": 100019,
            "portrait": true,
            "typing": false
        },
        {
            "image": "KBrOBlKQeex3AJEPftEA_3.hi-res.jpg",
            "obscuredImage": "KBrOBlKQeex3AJEPftEA_3.obscured.jpg",
            "personId": 100018,
            "portrait": false,
            "typing": false
        },
        {
            "image": "uwlJfe4oQ3i4KCfsjP5Q_4.hi-res.jpg",
            "obscuredImage": "uwlJfe4oQ3i4KCfsjP5Q_4.obscured.jpg",
            "personId": 100019,
            "portrait": true,
            "typing": false
        },
        {
            "image": "Pp17XWFTfWY5W6Ea5KIo_5.hi-res.jpg",
            "obscuredImage": "Pp17XWFTfWY5W6Ea5KIo_5.obscured.jpg",
            "personId": 100018,
            "portrait": false,
            "typing": false
        },
        {
            "image": "48DnNAIWQ6eO2VhC6gUN_6.hi-res.jpg",
            "obscuredImage": "48DnNAIWQ6eO2VhC6gUN_6.obscured.jpg",
            "personId": 100019,
            "portrait": true,
            "typing": false
        },
        {
            "body": "jk",
            "personId": 100019,
            "typing": false
        },
        {
            "image": "RYUJWyuVR3CtA4z08uBu_7.hi-res.jpg",
            "obscuredImage": "RYUJWyuVR3CtA4z08uBu_7.obscured.jpg",
            "personId": 100019,
            "portrait": false,
            "typing": false
        },
        {
            "image": "JsZSS7yLTUKt0683CDGA_8.hi-res.jpg",
            "obscuredImage": "JsZSS7yLTUKt0683CDGA_8.obscured.jpg",
            "personId": 100018,
            "portrait": true,
            "typing": false
        },
        {
            "image": "BEDCA1zRQgibLzkkPzp6_9.hi-res.jpg",
            "obscuredImage": "BEDCA1zRQgibLzkkPzp6_9.obscured.jpg",
            "personId": 100019,
            "portrait": true,
            "typing": false
        },
        {
            "image": "wnlcaRQ4TTKCwiW5rGaW_10.hi-res.jpg",
            "obscuredImage": "wnlcaRQ4TTKCwiW5rGaW_10.obscured.jpg",
            "personId": 100018,
            "portrait": true,
            "typing": false
        },
        {
            "image": "oezMP3a1QPG9q2ncIejL_11.hi-res.jpg",
            "obscuredImage": "oezMP3a1QPG9q2ncIejL_11.obscured.jpg",
            "personId": 100019,
            "portrait": false,
            "typing": false
        },
        {
            "image": "qRTV6BVSZmq75XjXLdek_12.hi-res.jpg",
            "obscuredImage": "qRTV6BVSZmq75XjXLdek_12.obscured.jpg",
            "personId": 100018,
            "portrait": false,
            "typing": false
        },
        {
            "image": "EyOK1CnZReGuIQkqIyL4_13.hi-res.jpg",
            "obscuredImage": "EyOK1CnZReGuIQkqIyL4_13.obscured.jpg",
            "personId": 100018,
            "portrait": false,
            "typing": false
        },
        {
            "image": "w9E1OUwcSZCXN0XHxCql_14.hi-res.jpg",
            "obscuredImage": "w9E1OUwcSZCXN0XHxCql_14.obscured.jpg",
            "personId": 100019,
            "portrait": true,
            "typing": false
        },
        {
            "image": "nF3xhJ0tTfmMz9raIxC3_15.hi-res.jpg",
            "obscuredImage": "nF3xhJ0tTfmMz9raIxC3_15.obscured.jpg",
            "personId": 100018,
            "portrait": false,
            "typing": false
        },
        {
            "image": "2Wr7l5PkQda3lTHhawvC_16.hi-res.jpg",
            "obscuredImage": "2Wr7l5PkQda3lTHhawvC_16.obscured.jpg",
            "personId": 100019,
            "portrait": false,
            "typing": false
        },
        {
            "image": "okGm295TMyeLoO831WbA_17.hi-res.jpg",
            "obscuredImage": "okGm295TMyeLoO831WbA_17.obscured.jpg",
            "personId": 100018,
            "portrait": true,
            "typing": false
        },
        {
            "image": "6cqZJXZnSmSVvQwdYsdc_18.hi-res.jpg",
            "obscuredImage": "6cqZJXZnSmSVvQwdYsdc_18.obscured.jpg",
            "personId": 100019,
            "portrait": true,
            "typing": false
        },
        {
            "image": "UrPprY3hQVeQjlsKKvJF_19.hi-res.jpg",
            "obscuredImage": "UrPprY3hQVeQjlsKKvJF_19.obscured.jpg",
            "personId": 100018,
            "portrait": false,
            "typing": false
        },
        {
            "image": "GH4V0LeER4ynjLJpyYYl_20.hi-res.jpg",
            "obscuredImage": "GH4V0LeER4ynjLJpyYYl_20.obscured.jpg",
            "personId": 100019,
            "portrait": false,
            "typing": false
        },
        {
            "body": "We’re through.",
            "personId": 100018,
            "typing": false
        },
        {
            "image": "JOHp1nIIQWKIWxBzFiLy_23.hi-res.jpg",
            "obscuredImage": "JOHp1nIIQWKIWxBzFiLy_23.obscured.jpg",
            "personId": 100018,
            "portrait": false,
            "typing": false
        },
        {
            "image": "NgdFzuRLmbo4PS9N5MQw_24.hi-res.jpg",
            "obscuredImage": "NgdFzuRLmbo4PS9N5MQw_24.obscured.jpg",
            "personId": 100018,
            "portrait": true,
            "typing": false
        }
    ],
    "number": 0,
    "people": [
        {
            "bubbleColor": "f6ecec",
            "id": 100018,
            "name": "Paula",
            "nameColor": "ea5aa3",
            "textColor": "000000cc"
        },
        {
            "bubbleColor": "ebeff4",
            "id": 100019,
            "name": "Josh",
            "nameColor": "25aef4",
            "textColor": "000000cc"
        },
        {
            "bubbleColor": "ebeff4",
            "id": 100119,
            "name": "Jaz",
            "nameColor": "25aef4",
            "textColor": "000000cc"
        },
        {
            "bubbleColor": "eff4eb",
            "id": 100120,
            "name": "Mia",
            "nameColor": "7ed321",
            "textColor": "000000cc"
        }
    ],
    "storyId": 100007
}