{
    "messages": [
        {
            "body": "are you okay???",
            "personId": 3201,
            "typing": false
        },
        {
            "body": "what is happening?",
            "personId": 3201,
            "typing": false
        },
        {
            "body": "I hid my phone in my sock",
            "personId": 3200,
            "typing": false
        },
        {
            "body": "he took us to his van out front",
            "personId": 3200,
            "typing": false
        },
        {
            "body": "we are driving now",
            "personId": 3200,
            "typing": false
        },
        {
            "body": "I CALLED THE POLICE",
            "personId": 3201,
            "typing": false
        },
        {
            "body": "describe the vehicle",
            "personId": 3201,
            "typing": false
        },
        {
            "body": "and",
            "personId": 3201,
            "typing": false
        },
        {
            "body": "WHERE YOU ARE",
            "personId": 3201,
            "typing": false
        },
        {
            "body": "can I call you",
            "personId": 3200,
            "typing": false
        },
        {
            "body": "I’m scared",
            "personId": 3200,
            "typing": false
        },
        {
            "body": "I think there are other kids in here",
            "personId": 3200,
            "typing": false
        },
        {
            "body": "don't call me",
            "personId": 3201,
            "typing": false
        },
        {
            "body": "you can't have him catch you with your phone",
            "personId": 3201,
            "typing": false
        },
        {
            "body": "mom please",
            "personId": 3200,
            "typing": false
        },
        {
            "body": "where are you?",
            "personId": 3200,
            "typing": false
        },
        {
            "body": "we just passed the house",
            "personId": 3201,
            "typing": false
        },
        {
            "body": "retracing your steps",
            "personId": 3201,
            "typing": false
        },
        {
            "body": "did he take any turns?",
            "personId": 3201,
            "typing": false
        },
        {
            "body": "I don’t think so",
            "personId": 3200,
            "typing": false
        },
        {
            "body": "he blindfolded everyone",
            "personId": 3200,
            "typing": false
        },
        {
            "body": "I lifted mine barely to see the phone",
            "personId": 3200,
            "typing": false
        },
        {
            "body": "okay",
            "personId": 3201,
            "typing": false
        },
        {
            "body": "stay calm",
            "personId": 3201,
            "typing": false
        },
        {
            "body": "OMG",
            "personId": 3200,
            "typing": false
        },
        {
            "body": "He took a right",
            "personId": 3200,
            "typing": false
        },
        {
            "body": "then a left",
            "personId": 3200,
            "typing": false
        },
        {
            "body": "we are on a really bumpy road, with no street lights",
            "personId": 3200,
            "typing": false
        },
        {
            "body": "okay try to remember",
            "personId": 3201,
            "typing": false
        },
        {
            "body": "left then right",
            "personId": 3201,
            "typing": false
        },
        {
            "body": "we are slowing down!",
            "personId": 3200,
            "typing": false
        },
        {
            "personId": 3200,
            "typing": true
        }
    ],
    "number": 3,
    "people": [
        {
            "bubbleColor": "ebeff4",
            "id": 3200,
            "name": "Julia",
            "nameColor": "25aef4",
            "textColor": "000000cc"
        },
        {
            "bubbleColor": "f6ecec",
            "id": 3201,
            "name": "Mom",
            "nameColor": "ea5aa3",
            "textColor": "000000cc"
        }
    ],
    "storyId": 32
}