{
    "messages": [
        {
            "body": "did you come to a stop",
            "personId": 3201,
            "typing": false
        },
        {
            "body": "yes but nothing is happening",
            "personId": 3200,
            "typing": false
        },
        {
            "body": "OMG",
            "personId": 3200,
            "typing": false
        },
        {
            "body": "There are things moving next to me",
            "personId": 3200,
            "typing": false
        },
        {
            "body": "SOMETHING IS TOUCHING MY LEG",
            "personId": 3200,
            "typing": false
        },
        {
            "body": "is the man still there??",
            "personId": 3201,
            "typing": false
        },
        {
            "body": "i don’t think so",
            "personId": 3200,
            "typing": false
        },
        {
            "body": "okay take off your blindfold",
            "personId": 3201,
            "typing": false
        },
        {
            "body": "omg it’s another little girl",
            "personId": 3200,
            "typing": true
        },
        {
            "body": "her hand tore through the paw of the dog carcass",
            "personId": 3200,
            "typing": false
        },
        {
            "body": "she’s grabbing for me",
            "personId": 3200,
            "typing": false
        },
        {
            "body": "jesus. we are coming",
            "personId": 3201,
            "typing": false
        },
        {
            "body": "she needs my help",
            "personId": 3200,
            "typing": false
        },
        {
            "body": "i’m going to get her out of this carcass",
            "personId": 3200,
            "typing": false
        },
        {
            "body": "STAY PUT",
            "personId": 3201,
            "typing": false
        },
        {
            "body": "i need to do something",
            "personId": 3200,
            "typing": false
        },
        {
            "body": "she can hardly breathe",
            "personId": 3200,
            "typing": false
        },
        {
            "body": "i’m helping her",
            "personId": 3200,
            "typing": false
        },
        {
            "body": "Julia be careful",
            "personId": 3201,
            "typing": false
        },
        {
            "body": "she said run",
            "personId": 3200,
            "typing": true
        },
        {
            "body": "she said don’t go in there",
            "personId": 3200,
            "typing": false
        },
        {
            "body": "he will hurt you",
            "personId": 3200,
            "typing": false
        },
        {
            "body": "try the van door now!",
            "personId": 3201,
            "typing": false
        },
        {
            "body": "it’s locked",
            "personId": 3200,
            "typing": false
        },
        {
            "body": "he’s coming back",
            "personId": 3200,
            "typing": false
        },
        {
            "body": "hiding my phone",
            "personId": 3200,
            "typing": false
        }
    ],
    "number": 4,
    "people": [
        {
            "bubbleColor": "ebeff4",
            "id": 3200,
            "name": "Julia",
            "nameColor": "25aef4",
            "textColor": "000000cc"
        },
        {
            "bubbleColor": "f6ecec",
            "id": 3201,
            "name": "Mom",
            "nameColor": "ea5aa3",
            "textColor": "000000cc"
        }
    ],
    "storyId": 32
}