{
    "messages": [
        {
            "body": "If you don't answer me soon I'm blowing your cover.",
            "personId": 100042,
            "typing": false
        },
        {
            "body": "It's night.",
            "personId": 100042,
            "typing": false
        },
        {
            "body": "You should be in your bunk by now.",
            "personId": 100042,
            "typing": false
        },
        {
            "body": "It's worse than we thought.",
            "personId": 100043,
            "typing": false
        },
        {
            "body": "I put out the signal that I was looking to score.",
            "personId": 100043,
            "typing": false
        },
        {
            "body": "I could tell some of the girls were eyeing me.",
            "personId": 100043,
            "typing": false
        },
        {
            "body": "Everyone knows who uses and who doesn't in here.",
            "personId": 100043,
            "typing": false
        },
        {
            "body": "Half a day later",
            "personId": 100043,
            "typing": false
        },
        {
            "body": "I've got two guards pulling me through secured doors.",
            "personId": 100043,
            "typing": false
        },
        {
            "body": "To write you up?",
            "personId": 100042,
            "typing": false
        },
        {
            "body": "No. To deal. ",
            "personId": 100043,
            "typing": false
        },
        {
            "body": "So you were right.",
            "personId": 100042,
            "typing": false
        },
        {
            "body": "It's the guards.",
            "personId": 100042,
            "typing": false
        },
        {
            "body": "Yeah.",
            "personId": 100043,
            "typing": false
        },
        {
            "body": "I can't tell who's in charge though.",
            "personId": 100043,
            "typing": false
        },
        {
            "body": "You can be pulled out now.",
            "personId": 100042,
            "typing": false
        },
        {
            "body": "It goes deeper than that.",
            "personId": 100043,
            "typing": false
        },
        {
            "body": "If I don't figure out the actual source they could run.",
            "personId": 100043,
            "typing": false
        },
        {
            "body": "We can't let them know we're on to them.",
            "personId": 100043,
            "typing": false
        },
        {
            "body": "There are kids lives on the line.",
            "personId": 100043,
            "typing": false
        },
        {
            "body": "Who are the guards?",
            "personId": 100042,
            "typing": false
        },
        {
            "body": "Treon and Shutak.",
            "personId": 100043,
            "typing": false
        },
        {
            "body": "Treon is abusing the inmates too.",
            "personId": 100043,
            "typing": false
        },
        {
            "body": "He holds all the power.",
            "personId": 100043,
            "typing": false
        },
        {
            "body": "He's trading favors for family visits.",
            "personId": 100043,
            "typing": false
        },
        {
            "body": "And he's forcing girls to use.",
            "personId": 100043,
            "typing": false
        },
        {
            "body": "Why?",
            "personId": 100042,
            "typing": false
        },
        {
            "body": "They want them hooked.",
            "personId": 100043,
            "typing": false
        },
        {
            "body": "More customers.",
            "personId": 100043,
            "typing": false
        },
        {
            "body": "You can't stay in there.",
            "personId": 100042,
            "typing": false
        },
        {
            "body": "You're not excempt from abuse Jacobs.",
            "personId": 100042,
            "typing": false
        },
        {
            "body": "It's too dangerous.",
            "personId": 100042,
            "typing": false
        },
        {
            "body": "Not yet.",
            "personId": 100043,
            "typing": false
        },
        {
            "body": "I'm talking the the warden.",
            "personId": 100042,
            "typing": false
        },
        {
            "body": "You need someone in there watching your back.",
            "personId": 100042,
            "typing": false
        },
        {
            "body": "SHIT.",
            "personId": 100043,
            "typing": false
        },
        {
            "body": "??",
            "personId": 100042,
            "typing": false
        },
        {
            "body": "LOCK DOWN!",
            "personId": 100043,
            "typing": false
        },
        {
            "body": "They're opening up the cells and putting us all in the cafeteria.",
            "personId": 100043,
            "typing": false
        },
        {
            "body": "Why?",
            "personId": 100042,
            "typing": false
        },
        {
            "body": "Jacobs!",
            "personId": 100042,
            "typing": false
        },
        {
            "body": "WHY.",
            "personId": 100042,
            "typing": false
        },
        {
            "body": "Another girl OD'd.",
            "personId": 100043,
            "typing": false
        },
        {
            "body": "They're trying to pin it on the inmates.",
            "personId": 100043,
            "typing": false
        },
        {
            "body": "The girls are fighting back!",
            "personId": 100043,
            "typing": false
        },
        {
            "body": "I've got to get out of my cell",
            "personId": 100043,
            "typing": false
        },
        {
            "body": "I can hear the guards coming.",
            "personId": 100043,
            "typing": false
        },
        {
            "body": "And they can't find me with a cell.",
            "personId": 100043,
            "typing": false
        },
        {
            "body": "Alert the warden we need back up in here.",
            "personId": 100043,
            "typing": false
        },
        {
            "body": "BUT DON'T BLOW MY COVER!",
            "personId": 100043,
            "typing": false
        },
        {
            "body": "Hurry.",
            "personId": 100043,
            "typing": false
        }
    ],
    "number": 1,
    "people": [
        {
            "bubbleColor": "ebeff4",
            "id": 100042,
            "name": "Leon",
            "nameColor": "25aef4",
            "textColor": "000000cc"
        },
        {
            "bubbleColor": "f6ecec",
            "id": 100043,
            "name": "Jacobs",
            "nameColor": "ea5aa3",
            "textColor": "000000cc"
        }
    ],
    "storyId": 100018
}