{
    "messages": [
        {
            "body": "Calm down!",
            "personId": 12000,
            "typing": false
        },
        {
            "body": "Calm down?!",
            "personId": 12001,
            "typing": false
        },
        {
            "body": "Did you hear what they said?",
            "personId": 12001,
            "typing": false
        },
        {
            "body": "Were you even listening!",
            "personId": 12001,
            "typing": false
        },
        {
            "body": "Forfeit the body parts!!",
            "personId": 12001,
            "typing": false
        },
        {
            "body": "Is that even possible?!",
            "personId": 12001,
            "typing": false
        },
        {
            "body": "How can they do that to me?",
            "personId": 12001,
            "typing": false
        },
        {
            "body": "I can't just GIVE the parts back!!!",
            "personId": 12001,
            "typing": false
        },
        {
            "body": "That's admitting guilt.",
            "personId": 12001,
            "typing": false
        },
        {
            "body": "And I can't give them back, they're MINE!",
            "personId": 12001,
            "typing": false
        },
        {
            "body": "I need them, I'm almost finished!!!",
            "personId": 12001,
            "typing": false
        },
        {
            "body": "This is sick!",
            "personId": 12001,
            "typing": false
        },
        {
            "body": "That's what the prosecutors are saying.",
            "personId": 12000,
            "typing": false
        },
        {
            "body": "Not the judge.",
            "personId": 12000,
            "typing": false
        },
        {
            "body": "Not the courts.",
            "personId": 12000,
            "typing": false
        },
        {
            "body": "We're fine.",
            "personId": 12000,
            "typing": false
        },
        {
            "body": "They can not prove anything",
            "personId": 12000,
            "typing": false
        },
        {
            "body": "That's what you've been saying the whole time.",
            "personId": 12001,
            "typing": false
        },
        {
            "body": "And yet, here we are!",
            "personId": 12001,
            "typing": false
        },
        {
            "body": "About to go to trial for stealing human body parts!",
            "personId": 12001,
            "typing": false
        },
        {
            "body": "I can't go to JAIL!",
            "personId": 12001,
            "typing": false
        },
        {
            "body": "No one is going to jail!",
            "personId": 12000,
            "typing": false
        },
        {
            "body": "I would never let that happen.",
            "personId": 12000,
            "typing": false
        },
        {
            "body": "Don't you trust me.",
            "personId": 12000,
            "typing": false
        },
        {
            "personId": 12001,
            "typing": true
        },
        {
            "body": "Plus... I have a present for you.",
            "personId": 12000,
            "typing": false
        },
        {
            "body": "What?!",
            "personId": 12001,
            "typing": false
        },
        {
            "body": "You do?",
            "personId": 12001,
            "typing": false
        },
        {
            "image": "LveRiLoyR0KpHZpVTCd0_hair.hi-res.jpg",
            "obscuredImage": "LveRiLoyR0KpHZpVTCd0_hair.obscured.jpg",
            "personId": 12000,
            "portrait": true,
            "typing": false
        },
        {
            "body": "I have them.",
            "personId": 12000,
            "typing": false
        },
        {
            "body": "You will be complete!",
            "personId": 12000,
            "typing": false
        },
        {
            "body": "But...",
            "personId": 12001,
            "typing": false
        },
        {
            "body": "How did you do that?",
            "personId": 12001,
            "typing": false
        },
        {
            "body": "I thought she was sueing?",
            "personId": 12001,
            "typing": false
        },
        {
            "body": "Are those from someone else?",
            "personId": 12001,
            "typing": false
        },
        {
            "body": "You know I picked out the exact ones I wanted, Camille's.",
            "personId": 12001,
            "typing": false
        },
        {
            "body": "And if I can't have the ones I want then I don't want them at all!",
            "personId": 12001,
            "typing": false
        },
        {
            "body": "I will not settle for second best!",
            "personId": 12001,
            "typing": false
        },
        {
            "body": "Sweetheart, please.",
            "personId": 12000,
            "typing": false
        },
        {
            "body": "Don't you know me by now.",
            "personId": 12000,
            "typing": false
        },
        {
            "body": "Of course they’re Camille's.",
            "personId": 12000,
            "typing": false
        },
        {
            "body": "I would never get you a knock off!",
            "personId": 12000,
            "typing": false
        },
        {
            "body": "NEVER!!!",
            "personId": 12000,
            "typing": false
        },
        {
            "body": "Oh I'm so happy!",
            "personId": 12001,
            "typing": false
        },
        {
            "body": "I can't believe it!",
            "personId": 12001,
            "typing": false
        },
        {
            "body": "I will be perfect after all!!!",
            "personId": 12001,
            "typing": false
        },
        {
            "body": "How did you convince her to do the surgery?",
            "personId": 12001,
            "typing": false
        },
        {
            "body": "I was wondering why she wasn't in court today.",
            "personId": 12001,
            "typing": false
        },
        {
            "body": "She must be recovering.",
            "personId": 12001,
            "typing": false
        },
        {
            "body": "Not exactly.",
            "personId": 12000,
            "typing": false
        },
        {
            "body": "Let's just say we won't be having any more trouble from Camille.",
            "personId": 12000,
            "typing": false
        },
        {
            "body": "You didn't!!!",
            "personId": 12001,
            "typing": false
        },
        {
            "body": "Oh Edwin!",
            "personId": 12001,
            "typing": true
        },
        {
            "body": "You DO love me!",
            "personId": 12001,
            "typing": true
        },
        {
            "body": "But how? What about... the body?",
            "personId": 12001,
            "typing": false
        },
        {
            "body": "Don't you worry your pretty little head about that.",
            "personId": 12000,
            "typing": false
        },
        {
            "body": "I have my ways.",
            "personId": 12000,
            "typing": false
        },
        {
            "body": "Sometimes things get mixed in with the fat from the liposuctions I perform and end up in the toxic waste dump.",
            "personId": 12000,
            "typing": false
        },
        {
            "body": "It happens. 😉",
            "personId": 12000,
            "typing": false
        },
        {
            "body": "You're so bad.",
            "personId": 12001,
            "typing": false
        },
        {
            "body": "But what about the trial?",
            "personId": 12001,
            "typing": false
        },
        {
            "body": "I have a plan.",
            "personId": 12000,
            "typing": false
        },
        {
            "body": "When you get back to the house I need you to pack a bag.",
            "personId": 12000,
            "typing": false
        },
        {
            "body": "Just the basics.",
            "personId": 12000,
            "typing": false
        },
        {
            "body": "We need to lay low for a bit.",
            "personId": 12000,
            "typing": false
        },
        {
            "body": "Then I can finish you, and we can let the heat blow over.",
            "personId": 12000,
            "typing": false
        },
        {
            "body": "Don't ask anymore questions.",
            "personId": 12000,
            "typing": false
        },
        {
            "body": "Just be ready to leave in 2 hours.",
            "personId": 12000,
            "typing": false
        },
        {
            "body": "Understand.",
            "personId": 12000,
            "typing": false
        },
        {
            "body": "Yes.",
            "personId": 12001,
            "typing": false
        },
        {
            "body": "I love you.",
            "personId": 12001,
            "typing": false
        },
        {
            "body": "We're almost home free!!!",
            "personId": 12001,
            "typing": false
        },
        {
            "body": "Almost.",
            "personId": 12000,
            "typing": false
        },
        {
            "body": "And I love you too.",
            "personId": 12000,
            "typing": false
        }
    ],
    "number": 3,
    "people": [
        {
            "bubbleColor": "ebeff4",
            "id": 12000,
            "name": "Edwin Stark",
            "nameColor": "25aef4",
            "textColor": "000000cc"
        },
        {
            "bubbleColor": "f6ecec",
            "id": 12001,
            "name": "Lucinda Stark",
            "nameColor": "ea5aa3",
            "textColor": "000000cc"
        }
    ],
    "storyId": 120
}