{
    "messages": [
        {
            "body": "Welcome to the Yarn Weekly Calendar! New episodes and stories are added every day and we don't want you to miss out!",
            "personId": 100222,
            "typing": false
        },
        {
            "body": "Tap below to see this week's schedule of stories!",
            "typing": false
        },
        {
            "image": "RrljPzdhSYm58JVnKiwP_Monday.hi-res.jpg",
            "obscuredImage": "RrljPzdhSYm58JVnKiwP_Monday.obscured.jpg",
            "personId": 100222,
            "portrait": true,
            "typing": false
        },
        {
            "image": "DzQiiCxwRY6AwjKzxBCl_Tuesday.hi-res.jpg",
            "obscuredImage": "DzQiiCxwRY6AwjKzxBCl_Tuesday.obscured.jpg",
            "personId": 100222,
            "portrait": true,
            "typing": false
        },
        {
            "image": "WKccJ7VnQjeSmLK4wxsm_Wednesday.hi-res.jpg",
            "obscuredImage": "WKccJ7VnQjeSmLK4wxsm_Wednesday.obscured.jpg",
            "personId": 100222,
            "portrait": true,
            "typing": false
        },
        {
            "image": "pwUIrTOnSzGRn76rfLoq_Thursday.hi-res.jpg",
            "obscuredImage": "pwUIrTOnSzGRn76rfLoq_Thursday.obscured.jpg",
            "personId": 100222,
            "portrait": true,
            "typing": false
        },
        {
            "image": "teO0qUeDQJa5jRkf36BA_Friday.hi-res.jpg",
            "obscuredImage": "teO0qUeDQJa5jRkf36BA_Friday.obscured.jpg",
            "personId": 100222,
            "portrait": true,
            "typing": false
        },
        {
            "image": "IJbQQBkVTPevC7U7HnBS_Saturday.hi-res.jpg",
            "obscuredImage": "IJbQQBkVTPevC7U7HnBS_Saturday.obscured.jpg",
            "personId": 100222,
            "portrait": true,
            "typing": false
        },
        {
            "image": "1ZCW5eSuODy8pJ0kk9IQ_Sunday.hi-res.jpg",
            "obscuredImage": "1ZCW5eSuODy8pJ0kk9IQ_Sunday.obscured.jpg",
            "personId": 100222,
            "portrait": true,
            "typing": false
        },
        {
            "body": "Tune in every Sunday to find out what's next on the Yarn Calendar!",
            "typing": false
        }
    ],
    "number": 0,
    "people": [
        {
            "bubbleColor": "ebeff4",
            "id": 100222,
            "name": "Yarn",
            "nameColor": "25aef4",
            "textColor": "000000cc"
        }
    ],
    "storyId": 100076
}