{
    "messages": [
        {
            "body": "OMG OMG OMG",
            "personId": 100094,
            "typing": false
        },
        {
            "body": "What??!? ",
            "personId": 100154,
            "typing": false
        },
        {
            "body": "I’m sooooo stupid!!!",
            "personId": 100094,
            "typing": false
        },
        {
            "body": "What happened??!?",
            "personId": 100191,
            "typing": false
        },
        {
            "body": "You guys won’t believe this",
            "personId": 100094,
            "typing": false
        },
        {
            "body": "I’m seriously going to disappear and never come back",
            "personId": 100094,
            "typing": false
        },
        {
            "body": "😭",
            "personId": 100094,
            "typing": false
        },
        {
            "body": "WTF could you have done that’s that bad?",
            "personId": 100154,
            "typing": false
        },
        {
            "body": "So I meant to text you guys",
            "personId": 100094,
            "typing": false
        },
        {
            "body": "But I accidently texted Phillip, the guy from IG",
            "personId": 100094,
            "typing": false
        },
        {
            "body": "that I’ve been talking to for a while now",
            "personId": 100094,
            "typing": false
        },
        {
            "body": "Oh no. This can’t be good.",
            "personId": 100191,
            "typing": false
        },
        {
            "body": "It’s not. ",
            "personId": 100094,
            "typing": false
        },
        {
            "body": "What did you say???",
            "personId": 100154,
            "typing": false
        },
        {
            "body": "I was TRYING to text  u guys saying “I hope he’s not that short because you know what that means”",
            "personId": 100094,
            "typing": false
        },
        {
            "body": "and I just kept going",
            "personId": 100094,
            "typing": false
        },
        {
            "body": "and going",
            "personId": 100094,
            "typing": false
        },
        {
            "body": "about how he looks short",
            "personId": 100094,
            "typing": false
        },
        {
            "body": "and that i hope he’s not",
            "personId": 100094,
            "typing": false
        },
        {
            "body": "and all this other shallow stuff",
            "personId": 100094,
            "typing": false
        },
        {
            "body": "and yeah",
            "personId": 100094,
            "typing": false
        },
        {
            "body": "I'm dead lol",
            "personId": 100094,
            "typing": false
        },
        {
            "body": "OMGGGG LOL",
            "personId": 100154,
            "typing": false
        },
        {
            "body": "THAT’S HILARIOUS",
            "personId": 100154,
            "typing": false
        },
        {
            "body": "Oh nooooo",
            "personId": 100191,
            "typing": false
        },
        {
            "body": "Poor guy!",
            "personId": 100191,
            "typing": false
        },
        {
            "body": "I knowwww",
            "personId": 100094,
            "typing": false
        },
        {
            "body": "I feel so baddddd",
            "personId": 100094,
            "typing": false
        },
        {
            "body": "I mean i meant to send that to you guys lol",
            "personId": 100094,
            "typing": false
        },
        {
            "body": "I can’t believe i didn’t check! ",
            "personId": 100094,
            "typing": false
        },
        {
            "body": "This always happens to me",
            "personId": 100094,
            "typing": false
        },
        {
            "body": "What did he say?",
            "personId": 100191,
            "typing": false
        },
        {
            "body": "He hasn’t really said anything yet",
            "personId": 100094,
            "typing": false
        },
        {
            "body": "He just responded saying",
            "personId": 100094,
            "typing": false
        },
        {
            "body": "“Which means what Maxine?”",
            "personId": 100094,
            "typing": false
        },
        {
            "body": "when I was going on and on about what small feet mean lol",
            "personId": 100094,
            "typing": false
        },
        {
            "body": "Oh boy",
            "personId": 100191,
            "typing": false
        },
        {
            "body": "Are you still going to see him tonight?",
            "personId": 100191,
            "typing": false
        },
        {
            "body": "Yeah I don’t think so Caroline",
            "personId": 100154,
            "typing": false
        },
        {
            "body": "lol What kind of dude would want to see a girl after something like that?",
            "personId": 100154,
            "typing": false
        },
        {
            "body": "Yeah I don't think he’ll want to see me",
            "personId": 100094,
            "typing": false
        },
        {
            "body": "or ever talk to me again",
            "personId": 100094,
            "typing": false
        },
        {
            "body": "that crossed a whole other level",
            "personId": 100094,
            "typing": false
        },
        {
            "body": "Yeah it did lol",
            "personId": 100154,
            "typing": false
        },
        {
            "body": "Do you guys think he’ll be super upset?",
            "personId": 100094,
            "typing": false
        },
        {
            "body": "What should I say?",
            "personId": 100094,
            "typing": false
        },
        {
            "body": "I would just say sorry you didn’t mean it that way and wait until he texts you back",
            "personId": 100154,
            "typing": false
        },
        {
            "body": "see what he says",
            "personId": 100154,
            "typing": false
        },
        {
            "body": "Caroline, ask your hubby what he would do in a situation like this",
            "personId": 100094,
            "typing": false
        },
        {
            "body": "I need a guys opinion lol",
            "personId": 100094,
            "typing": false
        },
        {
            "body": "I know how insecure they are about their height",
            "personId": 100094,
            "typing": false
        },
        {
            "body": "poor guy probably already has a napoleonic complex",
            "personId": 100094,
            "typing": false
        },
        {
            "body": "and I just shat on it",
            "personId": 100094,
            "typing": false
        },
        {
            "body": "😂😂😂😂",
            "personId": 100154,
            "typing": false
        },
        {
            "body": "Hopefully he’s not some psycho guy that tries to get back at you for this lol",
            "personId": 100191,
            "typing": false
        },
        {
            "body": "I mean with my luck would you be surprised? ",
            "personId": 100094,
            "typing": false
        },
        {
            "body": "Not really",
            "personId": 100154,
            "typing": false
        },
        {
            "body": "Ugh ok..He hasn’t said anything",
            "personId": 100094,
            "typing": false
        },
        {
            "body": "I probably won’t see him tonight",
            "personId": 100094,
            "typing": false
        },
        {
            "body": "I’d be to scared to anyways ",
            "personId": 100094,
            "typing": false
        },
        {
            "body": "4:00 A.M. the next morning.",
            "typing": false
        },
        {
            "body": "WTFFFFFFF YOU GUYS",
            "personId": 100094,
            "typing": false
        },
        {
            "body": "Wake Up WAKE UP WSAKE WAKE UP OPMG",
            "personId": 100094,
            "typing": false
        },
        {
            "body": "Caroline you were right",
            "personId": 100094,
            "typing": false
        },
        {
            "body": "he’s psycho",
            "personId": 100094,
            "typing": false
        },
        {
            "body": "hE'S INSANE",
            "personId": 100094,
            "typing": false
        },
        {
            "body": "look what he did",
            "personId": 100094,
            "typing": false
        },
        {
            "personId": 100094,
            "typing": true
        }
    ],
    "number": 12,
    "people": [
        {
            "bubbleColor": "f6ecec",
            "id": 100094,
            "name": "Maxine",
            "nameColor": "ea5aa3",
            "textColor": "000000cc"
        },
        {
            "bubbleColor": "ebeff4",
            "id": 100095,
            "name": "Gary",
            "nameColor": "25aef4",
            "textColor": "000000cc"
        },
        {
            "bubbleColor": "ebeff4",
            "id": 100140,
            "name": "Whyatt",
            "nameColor": "25aef4",
            "textColor": "000000cc"
        },
        {
            "bubbleColor": "ebeff4",
            "id": 100154,
            "name": "Kyah",
            "nameColor": "25aef4",
            "textColor": "000000cc"
        },
        {
            "bubbleColor": "ebeff4",
            "id": 100173,
            "name": "Jason",
            "nameColor": "25aef4",
            "textColor": "000000cc"
        },
        {
            "bubbleColor": "eff4eb",
            "id": 100191,
            "name": "Caroline",
            "nameColor": "7ed321",
            "textColor": "000000cc"
        },
        {
            "bubbleColor": "ebeff4",
            "id": 100204,
            "name": "Darrel",
            "nameColor": "25aef4",
            "textColor": "000000cc"
        },
        {
            "bubbleColor": "eff4eb",
            "id": 100205,
            "name": "Phillip",
            "nameColor": "7ed321",
            "textColor": "000000cc"
        }
    ],
    "storyId": 100035
}