{
    "messages": [
        {
            "body": "Kyah, you won’t believe what happened last week. ",
            "personId": 100094,
            "typing": false
        },
        {
            "body": "???",
            "personId": 100154,
            "typing": false
        },
        {
            "body": "Not another one of your dating fails..",
            "personId": 100154,
            "typing": false
        },
        {
            "body": "🙄",
            "personId": 100154,
            "typing": false
        },
        {
            "body": "I mean, can you blame me!",
            "personId": 100094,
            "typing": false
        },
        {
            "body": "Everyone out there is a dirtbag",
            "personId": 100094,
            "typing": false
        },
        {
            "body": "And I may come off crazy, but it’s only because guys in LA right now make us crazy!",
            "personId": 100094,
            "typing": false
        },
        {
            "body": "Alright alright spill",
            "personId": 100154,
            "typing": false
        },
        {
            "body": "what happened this time?",
            "personId": 100154,
            "typing": false
        },
        {
            "body": "Married?",
            "personId": 100154,
            "typing": false
        },
        {
            "body": "Living with his ex-girlfriend?",
            "personId": 100154,
            "typing": false
        },
        {
            "body": "Obsessed with feet?",
            "personId": 100154,
            "typing": false
        },
        {
            "body": "Ugh, no worse!",
            "personId": 100094,
            "typing": false
        },
        {
            "body": "?????",
            "personId": 100154,
            "typing": false
        },
        {
            "body": "I saw him kissing another guy!!!!!!!!!!!!!",
            "personId": 100094,
            "typing": false
        },
        {
            "body": "Whoa!",
            "personId": 100154,
            "typing": false
        },
        {
            "body": "That’s bad.",
            "personId": 100154,
            "typing": false
        },
        {
            "body": "I mean, he had a reason…",
            "personId": 100094,
            "typing": false
        },
        {
            "body": "But still.",
            "personId": 100094,
            "typing": false
        },
        {
            "body": "A reason?",
            "personId": 100154,
            "typing": false
        },
        {
            "body": "Yeah, welllll…Remember when I told you he was an actor.",
            "personId": 100094,
            "typing": false
        },
        {
            "body": "He apparently was filming for a something called “Gay in LA”",
            "personId": 100094,
            "typing": false
        },
        {
            "body": "LOL",
            "personId": 100154,
            "typing": false
        },
        {
            "body": "So I kinda just saw that and flipped out",
            "personId": 100094,
            "typing": false
        },
        {
            "body": "I went off on him ",
            "personId": 100094,
            "typing": false
        },
        {
            "body": "Like more than that one time I went off on the guy that was sliding into my friends DM",
            "personId": 100094,
            "typing": false
        },
        {
            "body": "OMG what did you say??",
            "personId": 100154,
            "typing": false
        },
        {
            "body": "Poor guy!",
            "personId": 100154,
            "typing": false
        },
        {
            "body": "Poor guy?!?? ",
            "personId": 100094,
            "typing": false
        },
        {
            "body": "Poor me!",
            "personId": 100094,
            "typing": false
        },
        {
            "body": "He could have you know mentioned it before!!!",
            "personId": 100094,
            "typing": false
        },
        {
            "body": "Babe, it’s his job. ",
            "personId": 100154,
            "typing": false
        },
        {
            "body": "Ugh whatever. I’m done with him",
            "personId": 100094,
            "typing": false
        },
        {
            "body": "Anyways…",
            "personId": 100094,
            "typing": false
        },
        {
            "body": "Did I tell you about that cute guy I met at the bar last night?",
            "personId": 100094,
            "typing": false
        },
        {
            "body": "LOL",
            "personId": 100154,
            "typing": false
        },
        {
            "body": "no",
            "personId": 100154,
            "typing": false
        },
        {
            "body": "Always on to the next one gurlll",
            "personId": 100154,
            "typing": false
        },
        {
            "body": "#youdoyoubooboo",
            "personId": 100154,
            "typing": false
        },
        {
            "body": "No i’m serious.",
            "personId": 100094,
            "typing": false
        },
        {
            "body": "This guy was perfect.",
            "personId": 100094,
            "typing": false
        },
        {
            "body": "I totally think he’s the one",
            "personId": 100094,
            "typing": false
        },
        {
            "body": "Why do you say that?",
            "personId": 100154,
            "typing": false
        },
        {
            "body": "He was just different.",
            "personId": 100094,
            "typing": false
        },
        {
            "body": "So real.",
            "personId": 100094,
            "typing": false
        },
        {
            "body": "Wasn’t trying to play any games.",
            "personId": 100094,
            "typing": false
        },
        {
            "body": "He literally came up to me and said..",
            "personId": 100094,
            "typing": false
        },
        {
            "body": "“Hey, I’m going to be straight forward here. I’ve been staring at you for the past hour and I can’t get over how beautiful you are.”",
            "personId": 100094,
            "typing": false
        },
        {
            "body": "Whoa! That’s pretty up front",
            "personId": 100154,
            "typing": false
        },
        {
            "body": "No dude does that any more",
            "personId": 100154,
            "typing": false
        },
        {
            "body": "EXACTLY!",
            "personId": 100094,
            "typing": false
        },
        {
            "body": "and then he asked me if I was in a relationship because he didn’t want to be rude. ",
            "personId": 100094,
            "typing": false
        },
        {
            "body": "Obviously I played it cool and said",
            "personId": 100094,
            "typing": false
        },
        {
            "body": "“My Job is my boyfriend” ",
            "personId": 100094,
            "typing": false
        },
        {
            "body": "He liked that..",
            "personId": 100094,
            "typing": false
        },
        {
            "body": "Do you have a picture????",
            "personId": 100154,
            "typing": false
        },
        {
            "body": "Ugh no!",
            "personId": 100094,
            "typing": false
        },
        {
            "body": "I spent the entire night stalking him on IG, Facebook and Twitter and couldn’t find a thing!",
            "personId": 100094,
            "typing": false
        },
        {
            "body": "He said he doesn’t use social media though",
            "personId": 100094,
            "typing": false
        },
        {
            "body": "So makes sense",
            "personId": 100094,
            "typing": false
        },
        {
            "body": "I’m still going to do some digging ",
            "personId": 100094,
            "typing": false
        },
        {
            "body": "Hmm, no social media???",
            "personId": 100154,
            "typing": false
        },
        {
            "body": "How old is he 5 or 50?",
            "personId": 100154,
            "typing": false
        },
        {
            "body": "😂",
            "personId": 100154,
            "typing": false
        },
        {
            "body": "Stopppp",
            "personId": 100094,
            "typing": false
        },
        {
            "body": "I actually think it’s cute",
            "personId": 100094,
            "typing": false
        },
        {
            "body": "He’s not obsessed with what other people think",
            "personId": 100094,
            "typing": false
        },
        {
            "body": "mmmhmmmm",
            "personId": 100154,
            "typing": false
        },
        {
            "body": "Anyways, I’m seeing him tonight. ",
            "personId": 100094,
            "typing": false
        },
        {
            "body": "Need help picking an outfit..",
            "personId": 100094,
            "typing": false
        },
        {
            "body": "Wear the red dress..",
            "personId": 100154,
            "typing": false
        },
        {
            "body": "Always go with the red dress.",
            "personId": 100154,
            "typing": false
        },
        {
            "body": "You don’t think it’s too revealing for wifey material? ",
            "personId": 100094,
            "typing": false
        },
        {
            "body": "Gurrlll sexy is wifey material and that dress exudes sex. ",
            "personId": 100154,
            "typing": false
        },
        {
            "body": "Ok Ok. ",
            "personId": 100094,
            "typing": false
        },
        {
            "body": "Red dress it is!",
            "personId": 100094,
            "typing": false
        },
        {
            "body": "💃🏼",
            "personId": 100094,
            "typing": false
        },
        {
            "body": "🙌🔥🙆",
            "personId": 100154,
            "typing": false
        },
        {
            "body": "Ok ok he’s here. I’ll FaceTime you after the date.",
            "personId": 100094,
            "typing": false
        },
        {
            "body": "Stay tuned!",
            "personId": 100094,
            "typing": false
        },
        {
            "body": "Can’t wait to hear about it! Have fun",
            "personId": 100154,
            "typing": false
        },
        {
            "body": "Want to see the FaceTime call after her date? Stay tuned every Monday & Wednesday for new episodes of “Modern Dating”",
            "typing": false
        }
    ],
    "number": 5,
    "people": [
        {
            "bubbleColor": "f6ecec",
            "id": 100094,
            "name": "Maxine",
            "nameColor": "ea5aa3",
            "textColor": "000000cc"
        },
        {
            "bubbleColor": "ebeff4",
            "id": 100095,
            "name": "Gary",
            "nameColor": "25aef4",
            "textColor": "000000cc"
        },
        {
            "bubbleColor": "ebeff4",
            "id": 100140,
            "name": "Whyatt",
            "nameColor": "25aef4",
            "textColor": "000000cc"
        },
        {
            "bubbleColor": "ebeff4",
            "id": 100154,
            "name": "Kyah",
            "nameColor": "25aef4",
            "textColor": "000000cc"
        },
        {
            "bubbleColor": "ebeff4",
            "id": 100173,
            "name": "Jason",
            "nameColor": "25aef4",
            "textColor": "000000cc"
        },
        {
            "bubbleColor": "eff4eb",
            "id": 100191,
            "name": "Caroline",
            "nameColor": "7ed321",
            "textColor": "000000cc"
        },
        {
            "bubbleColor": "ebeff4",
            "id": 100204,
            "name": "Darrel",
            "nameColor": "25aef4",
            "textColor": "000000cc"
        },
        {
            "bubbleColor": "eff4eb",
            "id": 100205,
            "name": "Phillip",
            "nameColor": "7ed321",
            "textColor": "000000cc"
        }
    ],
    "storyId": 100035
}