{
    "messages": [
        {
            "body": "Yeah I’ll be there in a few minutes.",
            "personId": 100094,
            "typing": false
        },
        {
            "body": "??",
            "personId": 100173,
            "typing": true
        },
        {
            "body": "Omg! LOL",
            "personId": 100094,
            "typing": false
        },
        {
            "body": "Whoops! Meant to send that to my  friend Jane",
            "personId": 100094,
            "typing": false
        },
        {
            "body": "must have quickly typed and accidently selected your name",
            "personId": 100094,
            "typing": false
        },
        {
            "body": "Sorry!",
            "personId": 100094,
            "typing": false
        },
        {
            "body": "Ah..Gotchya.",
            "personId": 100173,
            "typing": false
        },
        {
            "body": "How’s it going? ",
            "personId": 100094,
            "typing": false
        },
        {
            "body": "How's your day?",
            "personId": 100094,
            "typing": false
        },
        {
            "body": "Going well.",
            "personId": 100173,
            "typing": false
        },
        {
            "body": "Super busy past couple days huh? ",
            "personId": 100094,
            "typing": false
        },
        {
            "body": "Not really. It’s been a pretty calm one at work this week. ",
            "personId": 100173,
            "typing": false
        },
        {
            "body": "Oh",
            "personId": 100094,
            "typing": false
        },
        {
            "body": "Yeah",
            "personId": 100094,
            "typing": false
        },
        {
            "body": "Same here..",
            "personId": 100094,
            "typing": false
        },
        {
            "body": "30 minutes of Maxine typing and deleting texts later.",
            "typing": false
        },
        {
            "body": "Omg, you know what I just remembered.",
            "personId": 100094,
            "typing": false
        },
        {
            "body": "Remember when we spilled all that wine on the carpet ",
            "personId": 100094,
            "typing": false
        },
        {
            "body": "the other night when you came over",
            "personId": 100094,
            "typing": false
        },
        {
            "body": "yeah.",
            "personId": 100173,
            "typing": false
        },
        {
            "body": "the stain is still there",
            "personId": 100094,
            "typing": false
        },
        {
            "body": "🙈",
            "personId": 100094,
            "typing": false
        },
        {
            "body": "that sucks.",
            "personId": 100173,
            "typing": false
        },
        {
            "body": "Yeah",
            "personId": 100094,
            "typing": false
        },
        {
            "body": "Hey, you seem busy.",
            "personId": 100094,
            "typing": false
        },
        {
            "body": "Want to call me later?",
            "personId": 100094,
            "typing": false
        },
        {
            "body": "Yeah, sure.",
            "personId": 100173,
            "typing": false
        },
        {
            "body": "Hours Later",
            "typing": false
        },
        {
            "body": "Jason receives 3 missed calls from Maxine.",
            "typing": false
        },
        {
            "body": "Hey",
            "personId": 100094,
            "typing": false
        },
        {
            "body": "I just called you",
            "personId": 100094,
            "typing": false
        },
        {
            "body": "Not sure if they’re going through ",
            "personId": 100094,
            "typing": false
        },
        {
            "body": "The rings were being weird",
            "personId": 100094,
            "typing": false
        },
        {
            "body": "Whats up?!",
            "personId": 100094,
            "typing": false
        },
        {
            "body": "Did you have a nice day?",
            "personId": 100094,
            "typing": false
        },
        {
            "body": "1 hour later",
            "typing": false
        },
        {
            "body": "Hey",
            "personId": 100173,
            "typing": false
        },
        {
            "body": "Hey!!",
            "personId": 100094,
            "typing": false
        },
        {
            "body": "Sorry, I was napping",
            "personId": 100173,
            "typing": false
        },
        {
            "body": "No worries! ",
            "personId": 100094,
            "typing": false
        },
        {
            "body": "Any fun plans for tonight?",
            "personId": 100094,
            "typing": false
        },
        {
            "body": "Not sure yet.",
            "personId": 100173,
            "typing": false
        },
        {
            "body": "Might take it easy.",
            "personId": 100173,
            "typing": false
        },
        {
            "body": "Well I’m going to the Bungalow if you want to join. ",
            "personId": 100094,
            "typing": false
        },
        {
            "body": "It’s my favorite spot.",
            "personId": 100094,
            "typing": false
        },
        {
            "body": "Nice.",
            "personId": 100173,
            "typing": false
        },
        {
            "body": "I’ll think about it. ",
            "personId": 100173,
            "typing": false
        },
        {
            "body": "Maybe we can continue from where we left off the other night after some drinks..",
            "personId": 100094,
            "typing": false
        },
        {
            "body": "😉",
            "personId": 100094,
            "typing": false
        },
        {
            "body": "mmmm",
            "personId": 100173,
            "typing": false
        },
        {
            "body": "What did you have in mind?",
            "personId": 100173,
            "typing": false
        },
        {
            "body": "Why don’t you come meet me at Bungalow and we can see where that takes us.",
            "personId": 100094,
            "typing": false
        },
        {
            "body": "How about I come over first.",
            "personId": 100173,
            "typing": false
        },
        {
            "body": "Get some pre-game in ;) ",
            "personId": 100173,
            "typing": false
        },
        {
            "body": "Then we can go out.",
            "personId": 100173,
            "typing": false
        },
        {
            "body": "You know where I live!",
            "personId": 100094,
            "typing": false
        },
        {
            "body": "See you soon",
            "personId": 100094,
            "typing": false
        },
        {
            "body": "The next morning.",
            "typing": false
        },
        {
            "body": "YOU’RE SUCH A F*CKEN DICK",
            "personId": 100094,
            "typing": false
        },
        {
            "body": "Didn’t expect this from you. ",
            "personId": 100094,
            "typing": false
        },
        {
            "body": "But honestly",
            "personId": 100094,
            "typing": false
        },
        {
            "body": "I feel bad for you.",
            "personId": 100094,
            "typing": false
        },
        {
            "body": "You’ll never find true love or happiness",
            "personId": 100094,
            "typing": false
        },
        {
            "body": "because you’re so rotten inside",
            "personId": 100094,
            "typing": false
        },
        {
            "body": "I really told my friends you were different. ",
            "personId": 100094,
            "typing": false
        },
        {
            "body": "But they were right",
            "personId": 100094,
            "typing": false
        },
        {
            "body": "You’re just like every other tool out there",
            "personId": 100094,
            "typing": false
        },
        {
            "body": "even worse",
            "personId": 100094,
            "typing": false
        },
        {
            "body": "Hope you and your hand live happily ever after in eternity. ",
            "personId": 100094,
            "typing": false
        },
        {
            "body": "Jerk",
            "personId": 100094,
            "typing": false
        },
        {
            "body": "Tune in every Monday & Wednesday for more Modern Dating.",
            "typing": false
        }
    ],
    "number": 8,
    "people": [
        {
            "bubbleColor": "f6ecec",
            "id": 100094,
            "name": "Maxine",
            "nameColor": "ea5aa3",
            "textColor": "000000cc"
        },
        {
            "bubbleColor": "ebeff4",
            "id": 100095,
            "name": "Gary",
            "nameColor": "25aef4",
            "textColor": "000000cc"
        },
        {
            "bubbleColor": "ebeff4",
            "id": 100140,
            "name": "Whyatt",
            "nameColor": "25aef4",
            "textColor": "000000cc"
        },
        {
            "bubbleColor": "ebeff4",
            "id": 100154,
            "name": "Kyah",
            "nameColor": "25aef4",
            "textColor": "000000cc"
        },
        {
            "bubbleColor": "ebeff4",
            "id": 100173,
            "name": "Jason",
            "nameColor": "25aef4",
            "textColor": "000000cc"
        },
        {
            "bubbleColor": "eff4eb",
            "id": 100191,
            "name": "Caroline",
            "nameColor": "7ed321",
            "textColor": "000000cc"
        },
        {
            "bubbleColor": "ebeff4",
            "id": 100204,
            "name": "Darrel",
            "nameColor": "25aef4",
            "textColor": "000000cc"
        },
        {
            "bubbleColor": "eff4eb",
            "id": 100205,
            "name": "Phillip",
            "nameColor": "7ed321",
            "textColor": "000000cc"
        }
    ],
    "storyId": 100035
}