{
    "messages": [
        {
            "body": "MOM!",
            "personId": 100170,
            "typing": false
        },
        {
            "body": "HELP!!",
            "personId": 100170,
            "typing": false
        },
        {
            "body": "I don't know where I am!",
            "personId": 100170,
            "typing": false
        },
        {
            "image": "OeBAicoaSamntLIS5Qpo_woods.hi-res.jpg",
            "obscuredImage": "OeBAicoaSamntLIS5Qpo_woods.obscured.jpg",
            "personId": 100170,
            "portrait": true,
            "typing": false
        },
        {
            "body": "MOM!",
            "personId": 100170,
            "typing": false
        },
        {
            "body": "Noah!",
            "personId": 100171,
            "typing": false
        },
        {
            "body": "Oh my GOD!",
            "personId": 100171,
            "typing": false
        },
        {
            "body": "What happened?!",
            "personId": 100171,
            "typing": false
        },
        {
            "body": "Where are you? Are you ok?",
            "personId": 100171,
            "typing": false
        },
        {
            "body": "We've been going crazy!!",
            "personId": 100171,
            "typing": false
        },
        {
            "body": "Why aren't you answering your phone?!",
            "personId": 100171,
            "typing": false
        },
        {
            "body": "I can't Mom. He's out there in the woods somewhere.",
            "personId": 100170,
            "typing": false
        },
        {
            "body": "He's chasing me, I don't want him to hear me.",
            "personId": 100170,
            "typing": false
        },
        {
            "body": "Who's chasing you?!",
            "personId": 100171,
            "typing": false
        },
        {
            "body": "Oh Noah, what's happening.",
            "personId": 100171,
            "typing": false
        },
        {
            "body": "We've been looking for you for 3 days.",
            "personId": 100171,
            "typing": false
        },
        {
            "body": "The sheriff, it's been on the news.",
            "personId": 100171,
            "typing": false
        },
        {
            "body": "WHO'S chasing you?!",
            "personId": 100171,
            "typing": false
        },
        {
            "body": "I don't know.",
            "personId": 100170,
            "typing": false
        },
        {
            "body": "What do you mean!",
            "personId": 100171,
            "typing": false
        },
        {
            "body": "Noah, sweetie what's going on?",
            "personId": 100171,
            "typing": false
        },
        {
            "body": "Are you hurt? Did someone hurt you.",
            "personId": 100171,
            "typing": false
        },
        {
            "body": "I don't know.",
            "personId": 100170,
            "typing": false
        },
        {
            "body": "I can't really tell. I was in a house. Or a cabin. Somewhere in the woods.",
            "personId": 100170,
            "typing": false
        },
        {
            "body": "I don't know where I am, or how to get out.",
            "personId": 100170,
            "typing": false
        },
        {
            "body": "It took me.",
            "personId": 100170,
            "typing": false
        },
        {
            "body": "Who, a man? What does he look like.",
            "personId": 100171,
            "typing": false
        },
        {
            "body": "Not a man. I mean, he might be a man. He's so big.",
            "personId": 100170,
            "typing": false
        },
        {
            "body": "So tall, like a basketball player. But he doesn't really look like a man.",
            "personId": 100170,
            "typing": false
        },
        {
            "body": "I don't understand.",
            "personId": 100171,
            "typing": false
        },
        {
            "body": "Didn't you see him? Does he look a man or not.",
            "personId": 100171,
            "typing": false
        },
        {
            "body": "I don't know!",
            "personId": 100170,
            "typing": false
        },
        {
            "body": "He doesn't really have a face.",
            "personId": 100170,
            "typing": false
        },
        {
            "body": "It's not there.",
            "personId": 100170,
            "typing": false
        },
        {
            "body": "You are really scaring me, how can he not have a face.",
            "personId": 100171,
            "typing": false
        },
        {
            "body": "It's just not there.",
            "personId": 100170,
            "typing": false
        },
        {
            "body": "He doesn't have one. ",
            "personId": 100170,
            "typing": false
        },
        {
            "body": "It's covered, or he had a mask on or something.",
            "personId": 100170,
            "typing": false
        },
        {
            "body": "Mom hurry, I think I hear him!",
            "personId": 100170,
            "typing": false
        },
        {
            "body": "He can't get me again. I don't want to go back there.",
            "personId": 100170,
            "typing": false
        },
        {
            "body": "I couldn't feel anything.",
            "personId": 100170,
            "typing": false
        },
        {
            "body": "It was all fuzzy.",
            "personId": 100170,
            "typing": false
        },
        {
            "body": "Your Father is tracking your phone, just keep texting me.",
            "personId": 100171,
            "typing": false
        },
        {
            "body": "What was fuzzy?",
            "personId": 100171,
            "typing": false
        },
        {
            "body": "My head.",
            "personId": 100170,
            "typing": false
        },
        {
            "body": "I couldn't think straight, or see clearly.",
            "personId": 100170,
            "typing": false
        },
        {
            "body": "Everything sounded like it was underwater.",
            "personId": 100170,
            "typing": false
        },
        {
            "body": "My body felt like it was made out of cement.",
            "personId": 100170,
            "typing": false
        },
        {
            "body": "I was moving through glue.",
            "personId": 100170,
            "typing": false
        },
        {
            "body": "You were drugged!!!",
            "personId": 100171,
            "typing": false
        },
        {
            "body": "What else.",
            "personId": 100171,
            "typing": false
        },
        {
            "body": "There were others there Mom. I got away, but there were others.",
            "personId": 100170,
            "typing": false
        },
        {
            "body": "Maybe a lot. I don't know.",
            "personId": 100170,
            "typing": false
        },
        {
            "body": "He kept calling us the ones. He kept telling me that I was selected.",
            "personId": 100170,
            "typing": false
        },
        {
            "body": "He wanted me to do things for him.",
            "personId": 100170,
            "typing": false
        },
        {
            "body": "Something like that. He had missions for me. I don't know.",
            "personId": 100170,
            "typing": false
        },
        {
            "body": "I couldn't understand all the words. Some of the words were weird.",
            "personId": 100170,
            "typing": false
        },
        {
            "body": "You need to go north. You're right by the highway in the woods near the old church.",
            "personId": 100171,
            "typing": false
        },
        {
            "body": "Use the compass on your phone and go north.",
            "personId": 100171,
            "typing": false
        },
        {
            "body": "Your father and the police are on their way.",
            "personId": 100171,
            "typing": false
        },
        {
            "body": "They'll be there in 10 mins.",
            "personId": 100171,
            "typing": false
        },
        {
            "body": "Noah?!",
            "personId": 100171,
            "typing": false
        },
        {
            "body": "He's here!!!",
            "personId": 100170,
            "typing": false
        },
        {
            "image": "GmkPWJyEQqyMCqcieoPH_man.hi-res.jpg",
            "obscuredImage": "GmkPWJyEQqyMCqcieoPH_man.obscured.jpg",
            "personId": 100170,
            "portrait": true,
            "typing": false
        },
        {
            "body": "GET OUT OF THERE!!!",
            "personId": 100171,
            "typing": false
        },
        {
            "body": "Go north!",
            "personId": 100171,
            "typing": false
        },
        {
            "body": "Run to the highway, you are so close.",
            "personId": 100171,
            "typing": false
        },
        {
            "body": "RUN!!!",
            "personId": 100171,
            "typing": false
        },
        {
            "body": "3 minutes later",
            "typing": false
        },
        {
            "body": "Noah?!",
            "personId": 100171,
            "typing": false
        },
        {
            "body": "NOAH?!!",
            "personId": 100171,
            "typing": false
        }
    ],
    "number": 0,
    "people": [
        {
            "bubbleColor": "ffffff19",
            "id": 100170,
            "name": "Noah",
            "nameColor": "1ffffd",
            "textColor": "ffffff"
        },
        {
            "bubbleColor": "ffffff26",
            "id": 100171,
            "name": "Mom",
            "nameColor": "ff0022",
            "textColor": "ffffff"
        },
        {
            "bubbleColor": "ffffff19",
            "id": 100174,
            "name": "Unknown",
            "nameColor": "1ffffd",
            "textColor": "ffffff"
        },
        {
            "bubbleColor": "ffffff26",
            "id": 100175,
            "name": "Beth",
            "nameColor": "ff0022",
            "textColor": "ffffff"
        },
        {
            "bubbleColor": "ffffff19",
            "id": 100192,
            "name": "Stickman",
            "nameColor": "1ffffd",
            "textColor": "ffffff"
        },
        {
            "bubbleColor": "ffffff19",
            "id": 100206,
            "name": "Cathy Vaughn",
            "nameColor": "1ffffd",
            "textColor": "ffffff"
        },
        {
            "bubbleColor": "ffffff26",
            "id": 100207,
            "name": "Miranda Sparks",
            "nameColor": "ff0022",
            "textColor": "ffffff"
        }
    ],
    "storyId": 100059
}