{
    "messages": [
        {
            "body": "Miranda I am beside myself, please tell me you've heard something.",
            "personId": 100206,
            "typing": false
        },
        {
            "body": "Please tell me they've found our boys.",
            "personId": 100206,
            "typing": false
        },
        {
            "body": "Nothing!",
            "personId": 100207,
            "typing": false
        },
        {
            "body": "It's been 24hrs, I'm losing my mind!",
            "personId": 100207,
            "typing": false
        },
        {
            "body": "Jake says the police have searched the whole area and they can't find anything.",
            "personId": 100207,
            "typing": false
        },
        {
            "body": "Not even a finger print.",
            "personId": 100207,
            "typing": false
        },
        {
            "body": "All they have is that weird pentagram stick thing that was on Tim's bed.",
            "personId": 100207,
            "typing": false
        },
        {
            "body": "This is terrifying.",
            "personId": 100206,
            "typing": false
        },
        {
            "body": "Where could they be?!",
            "personId": 100206,
            "typing": false
        },
        {
            "body": "First my Beth goes missing and now Aaron... I don't know what to do.",
            "personId": 100206,
            "typing": false
        },
        {
            "body": "The police keep telling me just to stay home in case they call but I'm going nuts!",
            "personId": 100206,
            "typing": false
        },
        {
            "body": "Me too!!",
            "personId": 100207,
            "typing": false
        },
        {
            "body": "How am I suppossed to just sit here with my poor little boy gone?!",
            "personId": 100207,
            "typing": false
        },
        {
            "body": "I don't want to say it, but",
            "personId": 100206,
            "typing": false
        },
        {
            "personId": 100206,
            "typing": true
        },
        {
            "body": "What?!",
            "personId": 100207,
            "typing": false
        },
        {
            "body": "WHAT?!",
            "personId": 100207,
            "typing": false
        },
        {
            "body": "I just keep imaging that this has something to do with that cult man thing.",
            "personId": 100206,
            "typing": false
        },
        {
            "body": "The killings in the woods in the town over, Billingston?",
            "personId": 100206,
            "typing": false
        },
        {
            "body": "I was thinking that!",
            "personId": 100207,
            "typing": false
        },
        {
            "body": "Oh God!",
            "personId": 100207,
            "typing": false
        },
        {
            "body": "The skinny man thing.",
            "personId": 100207,
            "typing": false
        },
        {
            "body": "YES",
            "personId": 100206,
            "typing": false
        },
        {
            "body": "The stickman. ",
            "personId": 100206,
            "typing": false
        },
        {
            "body": "How he got those girls to kill their siblings and other kids too.",
            "personId": 100206,
            "typing": false
        },
        {
            "body": "Out in the woods somewhere.",
            "personId": 100206,
            "typing": false
        },
        {
            "body": "I remember when they interviewed them on TV.",
            "personId": 100206,
            "typing": false
        },
        {
            "body": "The girls were all brainwashed from this mysterious man.",
            "personId": 100206,
            "typing": false
        },
        {
            "body": "They were following his orders or something like that.",
            "personId": 100206,
            "typing": false
        },
        {
            "body": "I remember.",
            "personId": 100207,
            "typing": false
        },
        {
            "body": "It gave me the chills.",
            "personId": 100207,
            "typing": false
        },
        {
            "body": "That can't be it right?!",
            "personId": 100207,
            "typing": true
        },
        {
            "body": "That can't be happening to us.",
            "personId": 100207,
            "typing": false
        },
        {
            "body": "I don't know Miranda.",
            "personId": 100206,
            "typing": false
        },
        {
            "body": "I have the worst feeling.",
            "personId": 100206,
            "typing": false
        },
        {
            "body": "I know Beth has always been a little different.",
            "personId": 100206,
            "typing": false
        },
        {
            "body": "Sort of an outcast.",
            "personId": 100206,
            "typing": false
        },
        {
            "body": "She would be such an easy target for someone like that.",
            "personId": 100206,
            "typing": false
        },
        {
            "body": "I'm so scared.",
            "personId": 100206,
            "typing": false
        },
        {
            "body": "Don't get yourself all crazy, we don't know anything yet.",
            "personId": 100207,
            "typing": false
        },
        {
            "body": "Maybe they're just playing a prank.",
            "personId": 100207,
            "typing": false
        },
        {
            "body": "Kids do stupid things.",
            "personId": 100207,
            "typing": false
        },
        {
            "body": "Plus Beth is a sweetheart.",
            "personId": 100207,
            "typing": false
        },
        {
            "body": "She babysits Tim all the time and he just loves her.",
            "personId": 100207,
            "typing": false
        },
        {
            "body": "Really, she is a gentle soul, she wouldn't hurt a fly!",
            "personId": 100207,
            "typing": false
        },
        {
            "body": "No. I guess you're right.",
            "personId": 100206,
            "typing": false
        },
        {
            "body": "I just hope that they haven't been hurt.",
            "personId": 100206,
            "typing": false
        },
        {
            "body": "I keep imagining the absolute worst case scenarios.",
            "personId": 100206,
            "typing": false
        },
        {
            "body": "I know, me too.",
            "personId": 100207,
            "typing": false
        },
        {
            "body": "Maybe you should come over.",
            "personId": 100207,
            "typing": false
        },
        {
            "body": "No sense in us both driving ourselves crazy.",
            "personId": 100207,
            "typing": false
        },
        {
            "body": "That's a good idea.",
            "personId": 100206,
            "typing": false
        },
        {
            "body": "What if there's a call here though.",
            "personId": 100206,
            "typing": false
        },
        {
            "body": "I wouldn't want to miss it.",
            "personId": 100206,
            "typing": false
        },
        {
            "body": "You're right. ",
            "personId": 100207,
            "typing": false
        },
        {
            "body": "We'll just have to keep checking in.",
            "personId": 100207,
            "typing": false
        },
        {
            "body": "ivhd",
            "personId": 100206,
            "typing": true
        },
        {
            "body": "What?",
            "personId": 100207,
            "typing": false
        },
        {
            "body": "Don't move. I'm on my way.",
            "personId": 100207,
            "typing": false
        }
    ],
    "number": 4,
    "people": [
        {
            "bubbleColor": "ffffff19",
            "id": 100170,
            "name": "Noah",
            "nameColor": "1ffffd",
            "textColor": "ffffff"
        },
        {
            "bubbleColor": "ffffff26",
            "id": 100171,
            "name": "Mom",
            "nameColor": "ff0022",
            "textColor": "ffffff"
        },
        {
            "bubbleColor": "ffffff19",
            "id": 100174,
            "name": "Unknown",
            "nameColor": "1ffffd",
            "textColor": "ffffff"
        },
        {
            "bubbleColor": "ffffff26",
            "id": 100175,
            "name": "Beth",
            "nameColor": "ff0022",
            "textColor": "ffffff"
        },
        {
            "bubbleColor": "ffffff19",
            "id": 100192,
            "name": "Stickman",
            "nameColor": "1ffffd",
            "textColor": "ffffff"
        },
        {
            "bubbleColor": "ffffff19",
            "id": 100206,
            "name": "Cathy Vaughn",
            "nameColor": "1ffffd",
            "textColor": "ffffff"
        },
        {
            "bubbleColor": "ffffff26",
            "id": 100207,
            "name": "Miranda Sparks",
            "nameColor": "ff0022",
            "textColor": "ffffff"
        }
    ],
    "storyId": 100059
}