{
    "messages": [
        {
            "body": "Hi Ms. Barnes, I got stuck in Lab with Mr. Coates, so I'm running late.",
            "personId": 2100,
            "typing": false
        },
        {
            "body": "Ok, thank you for letting me know.",
            "personId": 2101,
            "typing": false
        },
        {
            "body": "I'm not free again until 4pm.",
            "personId": 2101,
            "typing": false
        },
        {
            "body": "Ok, cool. I'm so sorry.",
            "personId": 2100,
            "typing": false
        },
        {
            "body": "That's quite alright, see you shortly.",
            "personId": 2101,
            "typing": false
        },
        {
            "body": "I really hate being late for you.",
            "personId": 2100,
            "typing": false
        },
        {
            "body": "I understand.",
            "personId": 2101,
            "typing": false
        },
        {
            "body": "Mr. Coates is the worst, he goes on and on.",
            "personId": 2100,
            "typing": false
        },
        {
            "body": "He's not engaging like you.",
            "personId": 2100,
            "typing": false
        },
        {
            "body": "Every teacher has their own style, Adam.",
            "personId": 2101,
            "typing": false
        },
        {
            "body": "Right, but some teachers really know how to grab you.",
            "personId": 2100,
            "typing": false
        },
        {
            "body": "Like you.",
            "personId": 2100,
            "typing": false
        },
        {
            "body": "Well, thank you.",
            "personId": 2101,
            "typing": false
        },
        {
            "body": "I hope you're not driving and texting.",
            "personId": 2101,
            "typing": false
        },
        {
            "body": "I'm on the shuttle.",
            "personId": 2100,
            "typing": false
        },
        {
            "body": "Oh good, I wouldn't approve of that.",
            "personId": 2101,
            "typing": false
        },
        {
            "body": "Would you approve of me telling you that you're my favorite professor?",
            "personId": 2100,
            "typing": false
        },
        {
            "body": "I appreciate that.",
            "personId": 2101,
            "typing": false
        },
        {
            "body": "By a long shot.",
            "personId": 2100,
            "typing": false
        },
        {
            "body": "You really know how to grab a guy's... attention.",
            "personId": 2100,
            "typing": false
        },
        {
            "body": "And it doesn't hurt that you're easy on the eyes. 😉",
            "personId": 2100,
            "typing": false
        },
        {
            "body": "Adam. We've talked about this.",
            "personId": 2101,
            "typing": false
        },
        {
            "body": "About what, how hot you are?",
            "personId": 2100,
            "typing": false
        },
        {
            "body": "No. That I only give out my cell for class related issues.",
            "personId": 2101,
            "typing": false
        },
        {
            "body": "Isn't this a class related issue? I'm having a hard time concentrating.",
            "personId": 2100,
            "typing": false
        },
        {
            "body": "Then I would make a stop off at the University clinic.",
            "personId": 2101,
            "typing": false
        },
        {
            "body": "And as a reminder...",
            "personId": 2101,
            "typing": false
        },
        {
            "body": "Office hours are specifically set aside to discuss student's papers, not professor hotness.",
            "personId": 2101,
            "typing": false
        },
        {
            "body": "I'm still on the shuttle, so technically office hours haven't started yet.",
            "personId": 2100,
            "typing": false
        },
        {
            "body": "Can't we get a little small talk in?",
            "personId": 2100,
            "typing": false
        },
        {
            "body": "I'm not interested in small talk, especially when it's inappropriate.",
            "personId": 2101,
            "typing": false
        },
        {
            "body": "What are you interested in?",
            "personId": 2100,
            "typing": false
        },
        {
            "body": "Adam.",
            "personId": 2101,
            "typing": false
        },
        {
            "body": "I KNEW it! I knew you were interested in me!",
            "personId": 2100,
            "typing": false
        },
        {
            "body": "You know that's not what I meant.",
            "personId": 2101,
            "typing": false
        },
        {
            "body": "What did you mean?",
            "personId": 2100,
            "typing": false
        },
        {
            "body": "I thought you were suppossed to be one of my smart students.",
            "personId": 2101,
            "typing": false
        },
        {
            "body": "Humor me.",
            "personId": 2100,
            "typing": false
        },
        {
            "body": "I don't want to humor you.",
            "personId": 2101,
            "typing": false
        },
        {
            "body": "What do you want to do to me?",
            "personId": 2100,
            "typing": false
        },
        {
            "body": "I want to talk about your midterms.",
            "personId": 2101,
            "typing": false
        },
        {
            "body": "Is that all?",
            "personId": 2100,
            "typing": false
        },
        {
            "body": "Yes.",
            "personId": 2101,
            "typing": false
        },
        {
            "body": "I'm your professor and you're a 22 year old college student.",
            "personId": 2101,
            "typing": false
        },
        {
            "body": "You could totally pass for a 22 year old, and I'm mature for my age.",
            "personId": 2100,
            "typing": false
        },
        {
            "body": "Are you?",
            "personId": 2101,
            "typing": false
        },
        {
            "body": "Yes.",
            "personId": 2100,
            "typing": false
        },
        {
            "body": "We'll see about that.",
            "personId": 2101,
            "typing": false
        },
        {
            "body": "Are you testing me?",
            "personId": 2100,
            "typing": false
        },
        {
            "body": "Ms. Barnes?",
            "personId": 2100,
            "typing": false
        },
        {
            "body": "Where'd you go, are you mad?",
            "personId": 2100,
            "typing": false
        },
        {
            "body": "Are you going to fail me?!",
            "personId": 2100,
            "typing": false
        },
        {
            "body": "I'm going to do something to you.",
            "personId": 2101,
            "typing": false
        }
    ],
    "number": 0,
    "people": [
        {
            "bubbleColor": "ebeff4",
            "id": 2100,
            "name": "Adam",
            "nameColor": "25aef4",
            "textColor": "000000cc"
        },
        {
            "bubbleColor": "f6ecec",
            "id": 2101,
            "name": "Lydia",
            "nameColor": "ea5aa3",
            "textColor": "000000cc"
        }
    ],
    "storyId": 21
}