{
    "messages": [
        {
            "body": "Are you up?",
            "personId": 100055,
            "typing": false
        },
        {
            "body": "Yeah...why?",
            "personId": 100056,
            "typing": false
        },
        {
            "body": "I can't sleep after what we just did..",
            "personId": 100055,
            "typing": false
        },
        {
            "body": "Oh, don't be a wuss. It's a game. ",
            "personId": 100056,
            "typing": false
        },
        {
            "body": "Yeah, but you saw what the board said.",
            "personId": 100055,
            "typing": false
        },
        {
            "body": "So? ",
            "personId": 100056,
            "typing": false
        },
        {
            "body": "It said I was going to die Webb! ",
            "personId": 100055,
            "typing": false
        },
        {
            "body": "How can you not take this seriously! ",
            "personId": 100055,
            "typing": false
        },
        {
            "body": "Because it's a game Amelia. ",
            "personId": 100056,
            "typing": false
        },
        {
            "body": "You're probably right.",
            "personId": 100055,
            "typing": false
        },
        {
            "body": "I'm just going to try to go to sleep.",
            "personId": 100055,
            "typing": false
        },
        {
            "body": "Goodnight.",
            "personId": 100055,
            "typing": false
        },
        {
            "body": "😘 See you tomorrow.",
            "personId": 100056,
            "typing": false
        },
        {
            "body": "1 hour later",
            "typing": false
        },
        {
            "body": "OMG",
            "personId": 100055,
            "typing": true
        },
        {
            "body": "OMG WHAT THE FCKKKKK",
            "personId": 100055,
            "typing": false
        },
        {
            "body": "I'm freaking outttt",
            "personId": 100055,
            "typing": false
        },
        {
            "body": "What the hell is going on.",
            "personId": 100056,
            "typing": false
        },
        {
            "body": "There’s a handprint on my wall.",
            "personId": 100055,
            "typing": false
        },
        {
            "body": "A bloody freaking handprint",
            "personId": 100055,
            "typing": false
        },
        {
            "body": "It wasn't there before.",
            "personId": 100055,
            "typing": false
        },
        {
            "body": "lol babe, you probably just had a nightmare. ",
            "personId": 100056,
            "typing": false
        },
        {
            "body": "NO",
            "personId": 100055,
            "typing": false
        },
        {
            "body": "I'm serious",
            "personId": 100055,
            "typing": false
        },
        {
            "body": "LOOK",
            "personId": 100055,
            "typing": false
        },
        {
            "image": "dLdXt8IwTriJYaQI0blE_bloodyhand.hi-res.jpg",
            "obscuredImage": "dLdXt8IwTriJYaQI0blE_bloodyhand.obscured.jpg",
            "personId": 100055,
            "portrait": true,
            "typing": false
        },
        {
            "body": "WTF is that?!? ",
            "personId": 100056,
            "typing": false
        },
        {
            "body": "You sure your brother’s not playing a prank on you after tonight? ",
            "personId": 100056,
            "typing": false
        },
        {
            "body": "HE’S NOT HOME!",
            "personId": 100055,
            "typing": false
        },
        {
            "body": "No one is home!",
            "personId": 100055,
            "typing": false
        },
        {
            "body": "I'm going to die Webb",
            "personId": 100055,
            "typing": false
        },
        {
            "body": "The board said it",
            "personId": 100055,
            "typing": false
        },
        {
            "body": "Please help me",
            "personId": 100055,
            "typing": false
        },
        {
            "body": "Something weird is going to happen I feel it. ",
            "personId": 100055,
            "typing": false
        },
        {
            "body": "Calm down, i’m coming over.",
            "personId": 100056,
            "typing": false
        },
        {
            "body": "HURRY!!!",
            "personId": 100055,
            "typing": false
        },
        {
            "body": "Amelia’s bedroom door shuts with a loud bang, no one is in the room but her. ",
            "typing": false
        },
        {
            "body": "Webb! I’m locked in my room. The door shut out of nowhere and I can’t get out. ",
            "personId": 100055,
            "typing": false
        },
        {
            "body": "There's something in this room. ",
            "personId": 100055,
            "typing": false
        },
        {
            "body": "We messed with the wrong spirits",
            "personId": 100055,
            "typing": false
        },
        {
            "body": "I'm almost there.",
            "personId": 100056,
            "typing": false
        },
        {
            "body": "Can you open the window?",
            "personId": 100056,
            "typing": false
        },
        {
            "body": "No, that’s locked shut too!",
            "personId": 100055,
            "typing": false
        },
        {
            "body": "Something weird is happening. ",
            "personId": 100055,
            "typing": false
        },
        {
            "body": "I'm so scared. ",
            "personId": 100055,
            "typing": false
        },
        {
            "body": "I told you ghosts are real",
            "personId": 100055,
            "typing": false
        },
        {
            "body": "We shouldn’t have played that stupid stupid game",
            "personId": 100055,
            "typing": false
        },
        {
            "body": "You're going to be ok ",
            "personId": 100056,
            "typing": false
        },
        {
            "body": "Keep texting me",
            "personId": 100056,
            "typing": false
        },
        {
            "body": "Don’t stop ",
            "personId": 100056,
            "typing": false
        },
        {
            "body": "How can you be so calm right now?",
            "personId": 100055,
            "typing": false
        },
        {
            "body": "I MIGHT DIE",
            "personId": 100055,
            "typing": false
        },
        {
            "body": "There's a bloody hand on my wall",
            "personId": 100055,
            "typing": false
        },
        {
            "body": "And a freakin ghost ",
            "personId": 100055,
            "typing": false
        },
        {
            "body": "and all you can say is stay calm?!?!?!",
            "personId": 100055,
            "typing": false
        },
        {
            "body": "Ok listen.",
            "personId": 100056,
            "typing": false
        },
        {
            "body": " I need you to listen to me very carefully. ",
            "personId": 100056,
            "typing": false
        },
        {
            "body": "I didn’t tell you this before, because I knew you’d freak out. ",
            "personId": 100056,
            "typing": false
        },
        {
            "body": "But I know what’s going on. ",
            "personId": 100056,
            "typing": false
        },
        {
            "body": "It happened to my last girlfriend, Eva",
            "personId": 100056,
            "typing": false
        },
        {
            "body": "and if you want to get out of this alive, you’re going to have to listen to everything i say. ",
            "personId": 100056,
            "typing": false
        },
        {
            "personId": 100056,
            "typing": true
        }
    ],
    "number": 0,
    "people": [
        {
            "bubbleColor": "ffffff19",
            "id": 100055,
            "name": "Amelia",
            "nameColor": "1ffffd",
            "textColor": "ffffff"
        },
        {
            "bubbleColor": "ffffff26",
            "id": 100056,
            "name": "Webb",
            "nameColor": "ff0022",
            "textColor": "ffffff"
        },
        {
            "bubbleColor": "ffffff33",
            "id": 100208,
            "name": "Harper",
            "nameColor": "6fe70f",
            "textColor": "ffffff"
        }
    ],
    "storyId": 100021
}