{
    "messages": [
        {
            "body": "where u at",
            "personId": 100027,
            "typing": false
        },
        {
            "body": "hello..",
            "personId": 100027,
            "typing": false
        },
        {
            "body": "hey, where are you?",
            "personId": 100027,
            "typing": false
        },
        {
            "body": "laying on the couch",
            "personId": 100028,
            "typing": false
        },
        {
            "body": "seriously, where you at",
            "personId": 100027,
            "typing": false
        },
        {
            "body": "I’m in the living room, where are you",
            "personId": 100028,
            "typing": false
        },
        {
            "body": "nice try assh*le",
            "personId": 100027,
            "typing": false
        },
        {
            "body": "I’M in the living room.",
            "personId": 100027,
            "typing": false
        },
        {
            "body": "seriously get home when u can, something is weird",
            "personId": 100027,
            "typing": false
        },
        {
            "body": "Jill - confused takes a look around the living room. No one is there.",
            "typing": false
        },
        {
            "body": "what’s weird",
            "personId": 100028,
            "typing": false
        },
        {
            "body": "it’s quiet, like freaky quiet. and where is Jasper?",
            "personId": 100027,
            "typing": false
        },
        {
            "body": "Jill looks over at the recliner and sees their dog Jasper asleep",
            "typing": false
        },
        {
            "body": "are u trying to scare me? Jasper’s sitting on the recliner",
            "personId": 100028,
            "typing": false
        },
        {
            "body": "wtf are you talking about? I’m sitting in the recliner right now",
            "personId": 100027,
            "typing": false
        },
        {
            "body": "just stop already, I’m on the couch looking at the chair. where are you really? You at Emily’s?",
            "personId": 100028,
            "typing": false
        },
        {
            "body": "I was, I left her place about an hour ago. This nasty rainstorm made the drive take forever.",
            "personId": 100027,
            "typing": false
        },
        {
            "body": "What are you talking about? It’s sunny and bright outside. ",
            "personId": 100028,
            "typing": false
        },
        {
            "body": "What rainstorm?",
            "personId": 100028,
            "typing": false
        },
        {
            "body": "the one that’s going on outside. Its like Noah’s Ark shit out there man. How are you not seeing it?",
            "personId": 100027,
            "typing": false
        },
        {
            "body": "what the hell, my phone won’t charge",
            "personId": 100027,
            "typing": false
        },
        {
            "body": "I’ve tried every outlet in the house",
            "personId": 100027,
            "typing": false
        },
        {
            "body": "nothing will turn on, did the power go out?",
            "personId": 100027,
            "typing": false
        },
        {
            "body": "what the hell is that noise? It’s like grinding metal?",
            "personId": 100027,
            "typing": false
        },
        {
            "body": "hey, seriously, come home, I’m freaking the fuck out.",
            "personId": 100027,
            "typing": false
        },
        {
            "body": "the rain will not stop, I can barely see outside",
            "personId": 100027,
            "typing": false
        },
        {
            "body": "I keep getting a dial tone every time I call you",
            "personId": 100027,
            "typing": false
        },
        {
            "body": "Ugh. my battery is down to 5% and it won’t take a charge. The house phone is down too.",
            "personId": 100027,
            "typing": false
        },
        {
            "body": "please come home. Seriously!",
            "personId": 100027,
            "typing": false
        },
        {
            "body": "that noise is getting louder, please tell me you are doing it!",
            "personId": 100027,
            "typing": false
        },
        {
            "body": "I texted mom and dad. They aren’t answering me. They must be at the movies still.",
            "personId": 100027,
            "typing": false
        },
        {
            "body": "okay, you win, I’m terrified. You win, you win, you win. Now get home please!!!!!!",
            "personId": 100027,
            "typing": false
        },
        {
            "body": "JILL, FUCKING TEXT ME BACK!",
            "personId": 100027,
            "typing": false
        },
        {
            "personId": 100027,
            "typing": true
        }
    ],
    "number": 0,
    "people": [
        {
            "bubbleColor": "ebeff4",
            "id": 100027,
            "name": "Jake",
            "nameColor": "25aef4",
            "textColor": "000000cc"
        },
        {
            "bubbleColor": "f6ecec",
            "id": 100028,
            "name": "Jill",
            "nameColor": "ea5aa3",
            "textColor": "000000cc"
        },
        {
            "bubbleColor": "ecedf6",
            "id": 100033,
            "name": "Emily",
            "nameColor": "8c37e4",
            "textColor": "000000cc"
        },
        {
            "bubbleColor": "eff4eb",
            "id": 100034,
            "name": "Psychic",
            "nameColor": "7ed321",
            "textColor": "000000cc"
        }
    ],
    "storyId": 100012
}