{
    "messages": [
        {
            "body": "You were supposed to be home by 4!",
            "personId": 11900,
            "typing": false
        },
        {
            "body": "It's 4:03!!",
            "personId": 11900,
            "typing": false
        },
        {
            "body": "Where are you?!",
            "personId": 11900,
            "typing": false
        },
        {
            "body": "talking to the pharmacist.",
            "personId": 11901,
            "typing": false
        },
        {
            "body": "she has questions about all the different meds.",
            "personId": 11901,
            "typing": false
        },
        {
            "body": "NO strangers!",
            "personId": 11900,
            "typing": false
        },
        {
            "body": "Did you learn nothing from last time!",
            "personId": 11900,
            "typing": false
        },
        {
            "body": "They almost took me away!",
            "personId": 11900,
            "typing": false
        },
        {
            "body": "As if I would poison my own children Insane!",
            "personId": 11900,
            "typing": false
        },
        {
            "body": "We have rats! They have to be poisoned!",
            "personId": 11900,
            "typing": false
        },
        {
            "body": "I had to show them all the medical records just to get them off my back!",
            "personId": 11900,
            "typing": false
        },
        {
            "body": "i know mother.",
            "personId": 11901,
            "typing": false
        },
        {
            "body": "the pharmacist keeps asking me questions.",
            "personId": 11901,
            "typing": false
        },
        {
            "body": "You know the rules!",
            "personId": 11900,
            "typing": false
        },
        {
            "body": "No strangers! No exceptions!",
            "personId": 11900,
            "typing": false
        },
        {
            "body": "And you're too weak to be out for this long!",
            "personId": 11900,
            "typing": false
        },
        {
            "body": "i'm hurrying!",
            "personId": 11901,
            "typing": false
        },
        {
            "body": "I feel fine.",
            "personId": 11901,
            "typing": false
        },
        {
            "body": "You are not fine!",
            "personId": 11900,
            "typing": false
        },
        {
            "body": "You and your brother just got back from the hosptial. You're sick.",
            "personId": 11900,
            "typing": false
        },
        {
            "body": "i don't feel sick.",
            "personId": 11901,
            "typing": false
        },
        {
            "body": "You're in denial! You'll need to nap the rest of the day!",
            "personId": 11900,
            "typing": false
        },
        {
            "body": "As soon as you get home, drop the meds and get in bed!",
            "personId": 11900,
            "typing": false
        },
        {
            "body": "Don't worry!! I'll take care of you!",
            "personId": 11900,
            "typing": false
        },
        {
            "body": "yes mother.",
            "personId": 11901,
            "typing": false
        },
        {
            "body": "10 minutes",
            "typing": false
        },
        {
            "body": "You got me the wrong mask!",
            "personId": 11900,
            "typing": false
        },
        {
            "body": "How hard is it to pick up a full face mask?!",
            "personId": 11900,
            "typing": false
        },
        {
            "body": "I don't want to breathe in this filthy air!",
            "personId": 11900,
            "typing": false
        },
        {
            "body": "i'm sorry mother. that was all that had.",
            "personId": 11901,
            "typing": false
        },
        {
            "body": "Are you TRYING to kill me?!",
            "personId": 11900,
            "typing": false
        },
        {
            "body": "no mother.",
            "personId": 11901,
            "typing": false
        },
        {
            "body": "I don't know what I'm going to do with you!",
            "personId": 11900,
            "typing": false
        },
        {
            "body": "After all I do, the sacrifices, the long nights!",
            "personId": 11900,
            "typing": false
        },
        {
            "body": "Do you think it's easy to care for two VERY ILL children?!",
            "personId": 11900,
            "typing": false
        },
        {
            "body": "i don't feel sick.",
            "personId": 11901,
            "typing": false
        },
        {
            "body": "maybe i could stop taking all of these medications.",
            "personId": 11901,
            "typing": false
        },
        {
            "body": "NO!",
            "personId": 11900,
            "typing": false
        },
        {
            "body": "Mother knows best!",
            "personId": 11900,
            "typing": false
        },
        {
            "body": "1 minute",
            "typing": false
        },
        {
            "body": "WHY ARE YOU NOT WEARING YOUR NEW LEG BRACES?",
            "personId": 11900,
            "typing": false
        },
        {
            "body": "my legs don't hurt.",
            "personId": 11901,
            "typing": false
        },
        {
            "body": "i don't think i need them.",
            "personId": 11901,
            "typing": false
        },
        {
            "body": "couldn't i try to go outside and make some friends?",
            "personId": 11901,
            "typing": false
        },
        {
            "body": "AND BRING HOME NEW DISEASES? NO.",
            "personId": 11900,
            "typing": false
        },
        {
            "body": "What has gotten into you today?!",
            "personId": 11900,
            "typing": false
        },
        {
            "body": "This rebellious streak ends now!!!",
            "personId": 11900,
            "typing": false
        },
        {
            "body": "Your spine is a MESS!",
            "personId": 11900,
            "typing": false
        },
        {
            "body": "If you don't wear those braces you will have a hunchback by the time you're 25.",
            "personId": 11900,
            "typing": false
        },
        {
            "body": "Is that what you want!",
            "personId": 11900,
            "typing": false
        },
        {
            "body": "Wear the braces, like the doctor said!",
            "personId": 11900,
            "typing": false
        },
        {
            "body": "which doctor?",
            "personId": 11901,
            "typing": false
        },
        {
            "body": "there are so many.",
            "personId": 11901,
            "typing": false
        },
        {
            "body": "Don't smart mouth me!!",
            "personId": 11900,
            "typing": false
        },
        {
            "body": "Put on your braces!",
            "personId": 11900,
            "typing": false
        },
        {
            "body": "Your healing oatmeal is next to your door!",
            "personId": 11900,
            "typing": false
        },
        {
            "body": "Eat it ASAP!",
            "personId": 11900,
            "typing": false
        },
        {
            "body": "It will get rid of all the germs you picked up at the pharmacy!",
            "personId": 11900,
            "typing": false
        },
        {
            "body": "ok",
            "personId": 11901,
            "typing": false
        },
        {
            "body": "Excuse me!",
            "personId": 11900,
            "typing": false
        },
        {
            "body": "yes mother.",
            "personId": 11901,
            "typing": false
        }
    ],
    "number": 1,
    "people": [
        {
            "bubbleColor": "ebeff4",
            "id": 11900,
            "name": "Mom",
            "nameColor": "25aef4",
            "textColor": "000000cc"
        },
        {
            "bubbleColor": "f6ecec",
            "id": 11901,
            "name": "CeCe",
            "nameColor": "ea5aa3",
            "textColor": "000000cc"
        }
    ],
    "storyId": 119
}