{
    "messages": [
        {
            "body": "Hey! How's the tour going?",
            "personId": 100097,
            "typing": false
        },
        {
            "body": "Can't get enough of it.",
            "personId": 100096,
            "typing": false
        },
        {
            "body": "Loving the crowd's energy man.",
            "personId": 100096,
            "typing": false
        },
        {
            "body": "How are they liking the new track?",
            "personId": 100097,
            "typing": false
        },
        {
            "body": "They go wild when we play One Night Only.",
            "personId": 100096,
            "typing": false
        },
        {
            "body": "Which is crazy since we just released it.",
            "personId": 100096,
            "typing": false
        },
        {
            "body": "Awesome, that's one of my favorites!",
            "personId": 100097,
            "typing": false
        },
        {
            "body": "It means a lot too since the song is basically about the fans.",
            "personId": 100096,
            "typing": false
        },
        {
            "body": "What do you mean?",
            "personId": 100097,
            "typing": false
        },
        {
            "body": "Well the song is about the relationship between a performer and his/her audience.",
            "personId": 100096,
            "typing": false
        },
        {
            "body": "After all the touring thoughout the states",
            "personId": 100096,
            "typing": false
        },
        {
            "body": "I've developed a strong relationship with our audience",
            "personId": 100096,
            "typing": false
        },
        {
            "body": "and started to feel more of a responsibility to them",
            "personId": 100096,
            "typing": false
        },
        {
            "body": "What kind of responsibility?",
            "personId": 100097,
            "typing": false
        },
        {
            "body": "Mainly to give a great show every night",
            "personId": 100096,
            "typing": false
        },
        {
            "body": "It's a special and unique situation we're in, ",
            "personId": 100096,
            "typing": false
        },
        {
            "body": "having our own audience that hangs on every word.",
            "personId": 100096,
            "typing": false
        },
        {
            "body": "Definitely.",
            "personId": 100097,
            "typing": false
        },
        {
            "body": "The Struts fans are like no other.",
            "personId": 100097,
            "typing": false
        },
        {
            "body": "They get so into each performance.",
            "personId": 100097,
            "typing": false
        },
        {
            "body": "You can really feel it when you're in the crowd.",
            "personId": 100097,
            "typing": false
        },
        {
            "body": "That's what I really wanted to capture with this song.",
            "personId": 100096,
            "typing": false
        },
        {
            "body": "And why I feel most artists and performers will be able to identify with it.",
            "personId": 100096,
            "typing": false
        },
        {
            "body": "It's for sure one of the more ambitious songs you guys have done.",
            "personId": 100097,
            "typing": false
        },
        {
            "body": "Yeah, it does have a lot of theatrical moments.",
            "personId": 100096,
            "typing": false
        },
        {
            "body": "But the aim is to keep the listeners on the edge of their seats.",
            "personId": 100096,
            "typing": false
        },
        {
            "body": "And to take them on a journey.",
            "personId": 100096,
            "typing": false
        },
        {
            "body": "I can hear the influence in the song now that you point it out!",
            "personId": 100097,
            "typing": false
        },
        {
            "body": "I hope the fans hear it as well.",
            "personId": 100096,
            "typing": false
        },
        {
            "body": "In a lot ways this song captures everything the band is about.",
            "personId": 100096,
            "typing": false
        },
        {
            "body": "Wish I was there to be a part of it!",
            "personId": 100097,
            "typing": false
        },
        {
            "body": "I can't describe the feeling I get everytime I perform this song",
            "personId": 100096,
            "typing": false
        },
        {
            "body": "and hear them respond back to me",
            "personId": 100096,
            "typing": false
        },
        {
            "body": "It's magnetic.",
            "personId": 100096,
            "typing": false
        },
        {
            "body": "Hard thing to get used to!",
            "personId": 100097,
            "typing": false
        },
        {
            "image": "iEvOKfOvQrl1OdQdz47k_photo.hi-res.jpg",
            "obscuredImage": "iEvOKfOvQrl1OdQdz47k_photo.obscured.jpg",
            "personId": 100096,
            "portrait": false,
            "typing": false
        },
        {
            "body": "The crowd was absolutely amazing.",
            "personId": 100096,
            "typing": false
        },
        {
            "body": "Wow! That's one of our biggest crowds!",
            "personId": 100097,
            "typing": false
        },
        {
            "body": "The biggest with 80,000.",
            "personId": 100096,
            "typing": false
        },
        {
            "body": "Still can't believe it.",
            "personId": 100096,
            "typing": false
        },
        {
            "body": "Whoa! Did you get nervous at all?",
            "personId": 100097,
            "typing": false
        },
        {
            "body": "When we first got on stage a little bit.",
            "personId": 100096,
            "typing": false
        },
        {
            "body": "Once I heard them singing with me though, all I felt was the music.",
            "personId": 100096,
            "typing": false
        },
        {
            "body": "🙌",
            "personId": 100097,
            "typing": false
        },
        {
            "body": "So excited for what's coming up next. ",
            "personId": 100097,
            "typing": false
        },
        {
            "body": "The fans are going to lose it.",
            "personId": 100097,
            "typing": false
        },
        {
            "personId": 100096,
            "typing": true
        }
    ],
    "number": 0,
    "people": [
        {
            "bubbleColor": "ebeff4",
            "id": 100096,
            "name": "Luke",
            "nameColor": "25aef4",
            "textColor": "000000cc"
        },
        {
            "bubbleColor": "eff4eb",
            "id": 100097,
            "name": "Rome",
            "nameColor": "7ed321",
            "textColor": "000000cc"
        }
    ],
    "storyId": 100036
}