{
    "messages": [
        {
            "body": "Did you buy a new camera?",
            "personId": 7300,
            "typing": false
        },
        {
            "body": "No, why?",
            "personId": 7301,
            "typing": false
        },
        {
            "body": "There's a camera in my room",
            "personId": 7300,
            "typing": false
        },
        {
            "body": "and it’s not mine",
            "personId": 7300,
            "typing": false
        },
        {
            "body": "could it be your brothers?",
            "personId": 7301,
            "typing": false
        },
        {
            "body": "No, he let someone borrow that",
            "personId": 7300,
            "typing": false
        },
        {
            "body": "It was hidden behind my jewelry box",
            "personId": 7300,
            "typing": false
        },
        {
            "body": "the light is blinking",
            "personId": 7300,
            "typing": false
        },
        {
            "body": "I think it’s recording",
            "personId": 7300,
            "typing": false
        },
        {
            "body": "Someone probably just forgot it",
            "personId": 7301,
            "typing": false
        },
        {
            "body": "Mom…",
            "personId": 7300,
            "typing": false
        },
        {
            "body": "I think someone has been watching me.",
            "personId": 7300,
            "typing": false
        },
        {
            "body": "OMG!",
            "personId": 7300,
            "typing": true
        },
        {
            "body": "What?",
            "personId": 7301,
            "typing": false
        },
        {
            "body": "There's someone outside",
            "personId": 7300,
            "typing": false
        },
        {
            "body": "Neigbors?",
            "personId": 7301,
            "typing": false
        },
        {
            "body": "NO it’s some creepy old guy in a coat and he's staring into my window",
            "personId": 7300,
            "typing": false
        },
        {
            "body": "Mom he's saying my name!!",
            "personId": 7300,
            "typing": false
        },
        {
            "body": "HE KNOWS MY NAME",
            "personId": 7300,
            "typing": false
        },
        {
            "body": "Lock the doors and turn on the alarm I'm on my way",
            "personId": 7301,
            "typing": false
        },
        {
            "body": "He said he wants his camera back",
            "personId": 7300,
            "typing": false
        },
        {
            "body": "Mom, what do i do?",
            "personId": 7300,
            "typing": false
        },
        {
            "personId": 7300,
            "typing": true
        },
        {
            "body": "Close the blinds and wait for me",
            "personId": 7301,
            "typing": false
        },
        {
            "body": "Sally? Hello?",
            "personId": 7301,
            "typing": false
        },
        {
            "body": "Are you okay??",
            "personId": 7301,
            "typing": false
        },
        {
            "body": "HE HAS A KEY!",
            "personId": 7300,
            "typing": false
        },
        {
            "body": "HE’S IN THE HOUSE!",
            "personId": 7300,
            "typing": false
        },
        {
            "body": "what??????? Call the police!",
            "personId": 7301,
            "typing": false
        },
        {
            "body": "I locked myself in the bathroom",
            "personId": 7300,
            "typing": false
        },
        {
            "body": "OMG there’s a camera in here too!",
            "personId": 7300,
            "typing": false
        },
        {
            "body": "I think he's been spying on us since we moved in",
            "personId": 7300,
            "typing": false
        },
        {
            "body": "I’M CALLING 911",
            "personId": 7301,
            "typing": false
        },
        {
            "body": "He said I remind him of his daughter.",
            "personId": 7300,
            "typing": false
        },
        {
            "body": "Who died when she was my age",
            "personId": 7300,
            "typing": false
        },
        {
            "body": "SALLY",
            "personId": 7301,
            "typing": false
        },
        {
            "body": "He says I have to go with him",
            "personId": 7300,
            "typing": false
        },
        {
            "body": "I'm his daughter now",
            "personId": 7300,
            "typing": false
        },
        {
            "body": "Mom I have to go I love you",
            "personId": 7300,
            "typing": false
        },
        {
            "body": "NO SALLY",
            "personId": 7301,
            "typing": false
        },
        {
            "body": "THE POLICE ARE ARRIVING",
            "personId": 7301,
            "typing": false
        },
        {
            "body": "We have to go..",
            "personId": 7300,
            "typing": false
        },
        {
            "body": "Stall him!!!!!!!!",
            "personId": 7301,
            "typing": false
        },
        {
            "personId": 7300,
            "typing": true
        }
    ],
    "number": 0,
    "people": [
        {
            "bubbleColor": "ebeff4",
            "id": 7300,
            "name": "Sally",
            "nameColor": "25aef4",
            "textColor": "000000cc"
        },
        {
            "bubbleColor": "f6ecec",
            "id": 7301,
            "name": "Mom",
            "nameColor": "ea5aa3",
            "textColor": "000000cc"
        }
    ],
    "storyId": 73
}