{
    "messages": [
        {
            "body": "Maya",
            "personId": 7003,
            "typing": false
        },
        {
            "body": "It's me.",
            "personId": 7003,
            "typing": false
        },
        {
            "body": "What?!",
            "personId": 7000,
            "typing": false
        },
        {
            "body": "Me who?",
            "personId": 7000,
            "typing": false
        },
        {
            "body": "Aditi.",
            "personId": 7003,
            "typing": false
        },
        {
            "body": "It's a burner cell",
            "personId": 7003,
            "typing": false
        },
        {
            "body": "Aditi!!!",
            "personId": 7000,
            "typing": false
        },
        {
            "body": "Where are you?!",
            "personId": 7000,
            "typing": false
        },
        {
            "body": "You're ok!!!",
            "personId": 7000,
            "typing": false
        },
        {
            "body": "I can't believe it.",
            "personId": 7000,
            "typing": false
        },
        {
            "body": "Your Parents have been freaking out!",
            "personId": 7000,
            "typing": false
        },
        {
            "body": "And there's been media EVERYWHERE!",
            "personId": 7000,
            "typing": false
        },
        {
            "body": "I got interviewed!",
            "personId": 7000,
            "typing": false
        },
        {
            "body": "ME!!!",
            "personId": 7000,
            "typing": false
        },
        {
            "body": "That's great, listen I don't have much time.",
            "personId": 7003,
            "typing": false
        },
        {
            "body": "I have to get off the grid before they pick up my signal.",
            "personId": 7003,
            "typing": false
        },
        {
            "body": "Oh, crap sorry!",
            "personId": 7000,
            "typing": false
        },
        {
            "body": "I need you to do something for me.",
            "personId": 7003,
            "typing": false
        },
        {
            "body": "Anything!",
            "personId": 7000,
            "typing": false
        },
        {
            "body": "I need you to tell my parents that I'm ok.",
            "personId": 7003,
            "typing": false
        },
        {
            "body": "I'm safe.",
            "personId": 7003,
            "typing": false
        },
        {
            "body": "I have to go away for a little while, but I'm in good hands, and I am ok.",
            "personId": 7003,
            "typing": false
        },
        {
            "body": "Wait, where?",
            "personId": 7000,
            "typing": false
        },
        {
            "body": "Where are you going?",
            "personId": 7000,
            "typing": false
        },
        {
            "body": "I can't tell you that.",
            "personId": 7003,
            "typing": false
        },
        {
            "body": "And you need to delete this text chain as soon as we sign off.",
            "personId": 7003,
            "typing": false
        },
        {
            "body": "But...",
            "personId": 7000,
            "typing": false
        },
        {
            "body": "Maya just do it!",
            "personId": 7003,
            "typing": false
        },
        {
            "body": "I found something big.",
            "personId": 7003,
            "typing": false
        },
        {
            "body": "Something really scary and unjust and I can't let it go.",
            "personId": 7003,
            "typing": false
        },
        {
            "body": "I can't just do nothing.",
            "personId": 7003,
            "typing": false
        },
        {
            "body": "I'm with someone who knows what he's doing and who has done it before.",
            "personId": 7003,
            "typing": false
        },
        {
            "body": "That rogue agent dude?!",
            "personId": 7000,
            "typing": false
        },
        {
            "body": "Yes.",
            "personId": 7003,
            "typing": true
        },
        {
            "body": "But Addy they say he's dangerous!",
            "personId": 7000,
            "typing": false
        },
        {
            "body": "They say he's a killer!!!",
            "personId": 7000,
            "typing": false
        },
        {
            "body": "That's because they want people to turn him in.",
            "personId": 7003,
            "typing": false
        },
        {
            "body": "He worked for them and he saw too much and now they're after him.",
            "personId": 7003,
            "typing": false
        },
        {
            "body": "Because he knows what they're doing is wrong.",
            "personId": 7003,
            "typing": false
        },
        {
            "body": "Because he's trying to stop them.",
            "personId": 7003,
            "typing": false
        },
        {
            "body": "And I want to stop them too.",
            "personId": 7003,
            "typing": false
        },
        {
            "body": "How are you going to do that?!",
            "personId": 7000,
            "typing": false
        },
        {
            "body": "He knows people.",
            "personId": 7003,
            "typing": false
        },
        {
            "body": "People who want to help.",
            "personId": 7003,
            "typing": false
        },
        {
            "body": "We got asylum overseas, I can't tell you where yet.",
            "personId": 7003,
            "typing": false
        },
        {
            "body": "But once we're safe you will understand.",
            "personId": 7003,
            "typing": false
        },
        {
            "body": "I promise.",
            "personId": 7003,
            "typing": false
        },
        {
            "body": "Why can't you just give him the intell and come home?",
            "personId": 7000,
            "typing": false
        },
        {
            "body": "This is CRAZY!",
            "personId": 7000,
            "typing": false
        },
        {
            "body": "You're just a kid.",
            "personId": 7000,
            "typing": false
        },
        {
            "body": "I can't do that.",
            "personId": 7003,
            "typing": false
        },
        {
            "body": "I have to help, I can't explain it except...",
            "personId": 7003,
            "typing": false
        },
        {
            "body": "It's bigger than me. It's important.",
            "personId": 7003,
            "typing": false
        },
        {
            "body": "I understand.",
            "personId": 7000,
            "typing": true
        },
        {
            "body": "I'll help however I can.",
            "personId": 7000,
            "typing": false
        },
        {
            "body": "You're a good friend.",
            "personId": 7003,
            "typing": false
        },
        {
            "body": "I have to go.",
            "personId": 7003,
            "typing": false
        },
        {
            "body": "I ❤️ U goofball.",
            "personId": 7003,
            "typing": false
        },
        {
            "body": "I ❤️ U back Drama Queen.",
            "personId": 7000,
            "typing": false
        },
        {
            "body": "no connection",
            "typing": false
        }
    ],
    "number": 2,
    "people": [
        {
            "bubbleColor": "ebeff4",
            "id": 7000,
            "name": "Maya",
            "nameColor": "25aef4",
            "textColor": "000000cc"
        },
        {
            "bubbleColor": "f6ecec",
            "id": 7001,
            "name": "Aditi",
            "nameColor": "ea5aa3",
            "textColor": "000000cc"
        },
        {
            "bubbleColor": "eff4eb",
            "id": 7002,
            "name": "Agent C.",
            "nameColor": "7ed321",
            "textColor": "000000cc"
        },
        {
            "bubbleColor": "fbf9e0",
            "id": 7003,
            "name": "Unknown Number",
            "nameColor": "ffb112",
            "textColor": "000000cc"
        }
    ],
    "storyId": 70
}