{
    "messages": [
        {
            "body": "🍆",
            "personId": 11403,
            "typing": false
        },
        {
            "body": "🙄",
            "personId": 11400,
            "typing": false
        },
        {
            "image": "PDhJav5fTD2FrBUU8H10_eggplant2.hi-res.jpg",
            "obscuredImage": "PDhJav5fTD2FrBUU8H10_eggplant2.obscured.jpg",
            "personId": 11400,
            "portrait": true,
            "typing": false
        },
        {
            "body": "Nice.",
            "personId": 11403,
            "typing": false
        },
        {
            "body": "How about a booty shot?",
            "personId": 11403,
            "typing": false
        },
        {
            "body": "I'm a butt guy…",
            "personId": 11403,
            "typing": false
        },
        {
            "body": "Oh C’mon!",
            "personId": 11400,
            "typing": false
        },
        {
            "body": "I never do this, and I’ve already sent you a boob selfie. 🙈",
            "personId": 11400,
            "typing": false
        },
        {
            "body": "I’m sure you already have a hot booty shot on your phone. ",
            "personId": 11403,
            "typing": false
        },
        {
            "body": "You’re too freaky not too.",
            "personId": 11403,
            "typing": false
        },
        {
            "body": "😉",
            "personId": 11403,
            "typing": false
        },
        {
            "body": "Err. Not really!",
            "personId": 11400,
            "typing": false
        },
        {
            "body": "Like I said, I don’t usually send guys photos like this!",
            "personId": 11400,
            "typing": false
        },
        {
            "body": "Then why now?",
            "personId": 11403,
            "typing": false
        },
        {
            "body": "Good question.",
            "personId": 11400,
            "typing": false
        },
        {
            "body": "I don’t know.",
            "personId": 11400,
            "typing": false
        },
        {
            "body": "I feel comfortable with you.",
            "personId": 11400,
            "typing": false
        },
        {
            "body": "Plus..",
            "personId": 11400,
            "typing": false
        },
        {
            "body": "You’re really cute and I had a lot of fun the other night. ",
            "personId": 11400,
            "typing": false
        },
        {
            "body": "😳🙊",
            "personId": 11400,
            "typing": false
        },
        {
            "body": "I had fun too.",
            "personId": 11403,
            "typing": false
        },
        {
            "body": "Sooooo…",
            "personId": 11403,
            "typing": false
        },
        {
            "body": "You gonna send me a booty shot or what? 😉",
            "personId": 11403,
            "typing": false
        },
        {
            "body": "Ugh. Ok, hold on. ",
            "personId": 11400,
            "typing": false
        },
        {
            "body": "You better not share this with anyone. 🙈",
            "personId": 11400,
            "typing": false
        },
        {
            "image": "CrUB4kdKSGiMEquk3PqY_eggplant4.hi-res.jpg",
            "obscuredImage": "CrUB4kdKSGiMEquk3PqY_eggplant4.obscured.jpg",
            "personId": 11400,
            "portrait": true,
            "typing": false
        },
        {
            "body": "Nice shot.",
            "personId": 11403,
            "typing": false
        },
        {
            "body": "🙄",
            "personId": 11400,
            "typing": false
        },
        {
            "body": "That’s all?",
            "personId": 11400,
            "typing": false
        },
        {
            "body": "?",
            "personId": 11403,
            "typing": false
        },
        {
            "body": "I mean, I just sent you nudes with the risk of you posting them all over the place and all you have to say is “Nice shot.”",
            "personId": 11400,
            "typing": false
        },
        {
            "body": "Whoa. Look chica, you’re sending me PG shots. What you want me to say? ",
            "personId": 11403,
            "typing": false
        },
        {
            "body": "I had girls sending me that shit in grade school. ",
            "personId": 11403,
            "typing": false
        }
    ],
    "number": 2,
    "people": [
        {
            "bubbleColor": "ebeff4",
            "id": 11400,
            "name": "Niki",
            "nameColor": "25aef4",
            "textColor": "000000cc"
        },
        {
            "bubbleColor": "f6ecec",
            "id": 11401,
            "name": "Chanel",
            "nameColor": "ea5aa3",
            "textColor": "000000cc"
        },
        {
            "bubbleColor": "eff4eb",
            "id": 11402,
            "name": "Jane",
            "nameColor": "7ed321",
            "textColor": "000000cc"
        },
        {
            "bubbleColor": "0d86f7",
            "id": 11403,
            "name": "Hot Spanish Guy",
            "nameColor": "ffffffb2",
            "textColor": "ffffff"
        }
    ],
    "storyId": 114
}