{
    "messages": [
        {
            "body": "Please hurry!",
            "personId": 6201,
            "typing": false
        },
        {
            "body": "He's outside!",
            "personId": 6201,
            "typing": false
        },
        {
            "body": "He's trying to kill me!!!",
            "personId": 6201,
            "typing": false
        },
        {
            "body": "Stay calm!",
            "personId": 6202,
            "typing": false
        },
        {
            "body": "We're tracing the call right now!",
            "personId": 6202,
            "typing": false
        },
        {
            "body": "Everything will be fine, I promise.",
            "personId": 6202,
            "typing": false
        },
        {
            "body": "Mr. Stone is one of my oldest friends. There's no way I'll let anything happen to his family.",
            "personId": 6202,
            "typing": false
        },
        {
            "body": "I'm so glad you texted back.",
            "personId": 6201,
            "typing": false
        },
        {
            "body": "I was affraid to use the land line in case I needed to run out.",
            "personId": 6201,
            "typing": false
        },
        {
            "body": "You did the right thing.",
            "personId": 6202,
            "typing": false
        },
        {
            "body": "I have a unit on the way right now.",
            "personId": 6202,
            "typing": false
        },
        {
            "body": "They should be there in 5 minutes.",
            "personId": 6202,
            "typing": false
        },
        {
            "body": "10 tops!",
            "personId": 6202,
            "typing": false
        },
        {
            "body": "Oh God!",
            "personId": 6201,
            "typing": false
        },
        {
            "body": "What?!",
            "personId": 6202,
            "typing": false
        },
        {
            "body": "He just texted again!",
            "personId": 6201,
            "typing": false
        },
        {
            "body": "What is he saying?!",
            "personId": 6202,
            "typing": false
        },
        {
            "body": "OMG!",
            "personId": 6201,
            "typing": false
        },
        {
            "body": "He just keeps telling me to check on the children.",
            "personId": 6201,
            "typing": false
        },
        {
            "body": "What do I do?!",
            "personId": 6201,
            "typing": false
        },
        {
            "body": "Hang tight.",
            "personId": 6202,
            "typing": false
        },
        {
            "body": "Remember what I said.",
            "personId": 6202,
            "typing": false
        },
        {
            "body": "Stay away from the windows.",
            "personId": 6202,
            "typing": false
        },
        {
            "body": "We silently triggered the alarm - all hands are on deck!",
            "personId": 6202,
            "typing": false
        },
        {
            "body": "Just stay hidden.",
            "personId": 6202,
            "typing": false
        },
        {
            "body": "Ok.",
            "personId": 6201,
            "typing": false
        },
        {
            "body": "Where are the children?",
            "personId": 6202,
            "typing": false
        },
        {
            "body": "Are they safe?",
            "personId": 6202,
            "typing": false
        },
        {
            "body": "Yeah.",
            "personId": 6201,
            "typing": false
        },
        {
            "body": "I mean, I think so.",
            "personId": 6201,
            "typing": false
        },
        {
            "body": "They're upstairs in bed.",
            "personId": 6201,
            "typing": false
        },
        {
            "body": "And you haven't gone up there to check on them?",
            "personId": 6202,
            "typing": false
        },
        {
            "body": "No.",
            "personId": 6201,
            "typing": false
        },
        {
            "body": "They always just go straight to sleep.",
            "personId": 6201,
            "typing": false
        },
        {
            "body": "I never hear a peep from them.",
            "personId": 6201,
            "typing": false
        },
        {
            "body": "They're such great kids.",
            "personId": 6201,
            "typing": false
        },
        {
            "body": "Ok.",
            "personId": 6202,
            "typing": false
        },
        {
            "body": "As soon as the trace comes in I'll know where the texts are coming from.",
            "personId": 6202,
            "typing": false
        },
        {
            "body": "For now, just keep texting with him.",
            "personId": 6202,
            "typing": false
        },
        {
            "body": "We need you to keep up communication.",
            "personId": 6202,
            "typing": false
        },
        {
            "body": "He just sent me a bunch of knife emoji's!!!",
            "personId": 6201,
            "typing": false
        },
        {
            "body": "I'm really scared.",
            "personId": 6201,
            "typing": false
        },
        {
            "body": "I know.",
            "personId": 6202,
            "typing": false
        },
        {
            "body": "Be brave, it's probably just a prank.",
            "personId": 6202,
            "typing": false
        },
        {
            "body": "Try not to panic.",
            "personId": 6202,
            "typing": false
        },
        {
            "body": "We're getting the trace now.",
            "personId": 6202,
            "typing": false
        },
        {
            "body": "Oh thank God!!!",
            "personId": 6201,
            "typing": false
        },
        {
            "body": "1 minute later",
            "typing": false
        },
        {
            "body": "Officer?",
            "personId": 6201,
            "typing": false
        },
        {
            "body": "1 minute later",
            "typing": false
        },
        {
            "body": "What's going on?!",
            "personId": 6201,
            "typing": false
        },
        {
            "body": "The trace came in! He's in the house!",
            "personId": 6202,
            "typing": false
        },
        {
            "body": "You have to get out of there NOW!",
            "personId": 6202,
            "typing": false
        },
        {
            "body": "Get the children and GET OUT OF THE HOUSE!!!",
            "personId": 6202,
            "typing": false
        },
        {
            "body": "Polly?!",
            "personId": 6202,
            "typing": false
        },
        {
            "body": "POLLY?!",
            "personId": 6202,
            "typing": false
        },
        {
            "body": "We're almost there, just grab the kids and run to the neighbors house.",
            "personId": 6202,
            "typing": false
        },
        {
            "body": "Whoever's home.",
            "personId": 6202,
            "typing": false
        },
        {
            "body": "Polly isn't available.",
            "personId": 6201,
            "typing": false
        },
        {
            "body": "What?!",
            "personId": 6202,
            "typing": false
        },
        {
            "body": "Who is this?!",
            "personId": 6202,
            "typing": false
        },
        {
            "body": "What did you DO?!",
            "personId": 6202,
            "typing": false
        },
        {
            "body": "What happened to Polly?!",
            "personId": 6202,
            "typing": false
        },
        {
            "body": "She finally checked on the children...",
            "personId": 6201,
            "typing": false
        }
    ],
    "number": 1,
    "people": [
        {
            "bubbleColor": "ebeff4",
            "id": 6200,
            "name": "Unknown Caller",
            "nameColor": "25aef4",
            "textColor": "000000cc"
        },
        {
            "bubbleColor": "f6ecec",
            "id": 6201,
            "name": "Polly",
            "nameColor": "ea5aa3",
            "textColor": "000000cc"
        },
        {
            "bubbleColor": "eff4eb",
            "id": 6202,
            "name": "Officer Ramirez",
            "nameColor": "7ed321",
            "textColor": "000000cc"
        }
    ],
    "storyId": 62
}