{
    "messages": [
        {
            "body": "COME BACK HERE!",
            "personId": 10001,
            "typing": false
        },
        {
            "body": "She's DEAD!!!",
            "personId": 10000,
            "typing": false
        },
        {
            "body": "You killed her!",
            "personId": 10000,
            "typing": false
        },
        {
            "body": "Your disgusting trash house killed her!!!",
            "personId": 10000,
            "typing": false
        },
        {
            "body": "I'm never coming back!!",
            "personId": 10000,
            "typing": false
        },
        {
            "body": "Carmen I'm warning you!",
            "personId": 10001,
            "typing": false
        },
        {
            "body": "Come home NOW!!!",
            "personId": 10001,
            "typing": false
        },
        {
            "body": "Or what?!",
            "personId": 10000,
            "typing": false
        },
        {
            "body": "I'll end up like Mom?!",
            "personId": 10000,
            "typing": false
        },
        {
            "body": "Crushed to death by a mountain of junk!!",
            "personId": 10000,
            "typing": false
        },
        {
            "body": "You're upsetting the dogs!",
            "personId": 10001,
            "typing": false
        },
        {
            "body": "Your big scene got them hysterical!",
            "personId": 10001,
            "typing": false
        },
        {
            "body": "They're barking and whining like crazy, the neighbors are going to complain!",
            "personId": 10001,
            "typing": false
        },
        {
            "body": "I don't care!",
            "personId": 10000,
            "typing": false
        },
        {
            "body": "I hate the neighbors, and the gross dogs, and YOU!!!",
            "personId": 10000,
            "typing": false
        },
        {
            "body": "You love those dogs more than your own child!",
            "personId": 10000,
            "typing": false
        },
        {
            "body": "More than your wife!!",
            "personId": 10000,
            "typing": false
        },
        {
            "body": "I bet you wish we WERE dogs!!!",
            "personId": 10000,
            "typing": false
        },
        {
            "body": "Where are you going?!",
            "personId": 10001,
            "typing": false
        },
        {
            "body": "You're not going to the police?!",
            "personId": 10001,
            "typing": false
        },
        {
            "body": "They can't come to the house sweetie!",
            "personId": 10001,
            "typing": false
        },
        {
            "body": "They'll lock me up.",
            "personId": 10001,
            "typing": false
        },
        {
            "body": "Do you want to loose BOTH your parents in one day?!",
            "personId": 10001,
            "typing": false
        },
        {
            "body": "Do you want to be an orphan?",
            "personId": 10001,
            "typing": false
        },
        {
            "body": "Just come back here and talk to me.",
            "personId": 10001,
            "typing": false
        },
        {
            "body": "PLEASE!!!",
            "personId": 10001,
            "typing": false
        },
        {
            "body": "I don't know what to do.",
            "personId": 10000,
            "typing": true
        },
        {
            "body": "Just come home.",
            "personId": 10001,
            "typing": false
        },
        {
            "body": "I'll take of everything sweet pea.",
            "personId": 10001,
            "typing": false
        },
        {
            "body": "We can sort this out.",
            "personId": 10001,
            "typing": false
        },
        {
            "body": "I promise.",
            "personId": 10001,
            "typing": false
        },
        {
            "body": "I hate you.",
            "personId": 10000,
            "typing": false
        },
        {
            "body": "What about Mom?",
            "personId": 10000,
            "typing": false
        },
        {
            "body": "What are we going to do about Mom?",
            "personId": 10000,
            "typing": false
        },
        {
            "body": "I can't believe she's dead.",
            "personId": 10000,
            "typing": false
        },
        {
            "body": "Cheetah's dead too.",
            "personId": 10001,
            "typing": false
        },
        {
            "body": "She was under the pile with her.",
            "personId": 10001,
            "typing": false
        },
        {
            "body": "Your mother loved that dog.",
            "personId": 10001,
            "typing": false
        },
        {
            "body": "I don't care about the stupid DOG!!!!",
            "personId": 10000,
            "typing": false
        },
        {
            "body": "DON'T say that!!!",
            "personId": 10001,
            "typing": false
        },
        {
            "body": "Don't ever say that about your brother!",
            "personId": 10001,
            "typing": false
        },
        {
            "body": "He's NOT my brother!!!",
            "personId": 10000,
            "typing": false
        },
        {
            "body": "I don't have any brothers or sisters!!!",
            "personId": 10000,
            "typing": false
        },
        {
            "body": "They're not people!",
            "personId": 10000,
            "typing": false
        },
        {
            "body": "They're DOGS!!!",
            "personId": 10000,
            "typing": false
        },
        {
            "body": "YOU SHUT YOUR MOUTH!!!",
            "personId": 10001,
            "typing": false
        },
        {
            "body": "You better get back here, or you'll be sorry.",
            "personId": 10001,
            "typing": false
        },
        {
            "body": "I MEAN it!!!",
            "personId": 10001,
            "typing": false
        },
        {
            "body": "Don't make me come looking for you.",
            "personId": 10001,
            "typing": false
        },
        {
            "personId": 10000,
            "typing": true
        }
    ],
    "number": 1,
    "people": [
        {
            "bubbleColor": "ebeff4",
            "id": 10000,
            "name": "Carmen",
            "nameColor": "25aef4",
            "textColor": "000000cc"
        },
        {
            "bubbleColor": "f6ecec",
            "id": 10001,
            "name": "Bruce",
            "nameColor": "ea5aa3",
            "textColor": "000000cc"
        }
    ],
    "storyId": 100
}