{
    "messages": [
        {
            "body": "hey",
            "personId": 100157,
            "typing": false
        },
        {
            "body": "well look who it is",
            "personId": 100158,
            "typing": false
        },
        {
            "body": "what does that mean??",
            "personId": 100157,
            "typing": false
        },
        {
            "body": "I figured you would text me",
            "personId": 100158,
            "typing": false
        },
        {
            "body": "lol shut up",
            "personId": 100157,
            "typing": false
        },
        {
            "body": "you asked for my number",
            "personId": 100157,
            "typing": false
        },
        {
            "body": "well what’s up",
            "personId": 100158,
            "typing": false
        },
        {
            "body": "what’s on your mind Rach ;)",
            "personId": 100158,
            "typing": false
        },
        {
            "body": "I'm stuck at school right now waiting to get extra help for a class",
            "personId": 100157,
            "typing": false
        },
        {
            "body": "it’s like 9 though?",
            "personId": 100158,
            "typing": false
        },
        {
            "body": "yeah Mr. Mathis always does this",
            "personId": 100157,
            "typing": false
        },
        {
            "body": "weirdd….didn’t one of his students go missing last yr",
            "personId": 100158,
            "typing": false
        },
        {
            "body": "yeah he's also kinda strange",
            "personId": 100157,
            "typing": false
        },
        {
            "body": "he always has like an awkward amount of hair on his desk",
            "personId": 100157,
            "typing": false
        },
        {
            "body": "wtf hair?",
            "personId": 100158,
            "typing": false
        },
        {
            "body": "yeah it’s really weird",
            "personId": 100157,
            "typing": false
        },
        {
            "image": "FpTtwgSSOAeqT3rR1bwQ_hair.hi-res.jpg",
            "obscuredImage": "FpTtwgSSOAeqT3rR1bwQ_hair.obscured.jpg",
            "personId": 100157,
            "portrait": true,
            "typing": false
        },
        {
            "body": "why r u in his office..",
            "personId": 100158,
            "typing": false
        },
        {
            "body": "waiting for him.",
            "personId": 100157,
            "typing": false
        },
        {
            "body": "wait",
            "personId": 100158,
            "typing": false
        },
        {
            "body": "what's in that envelope by the hair?",
            "personId": 100158,
            "typing": false
        },
        {
            "body": "Open it.",
            "personId": 100158,
            "typing": false
        },
        {
            "body": "WTF are u crazy what if he walks in",
            "personId": 100157,
            "typing": false
        },
        {
            "body": "do it quickly! Before he sees",
            "personId": 100158,
            "typing": false
        },
        {
            "body": "omg",
            "personId": 100157,
            "typing": false
        },
        {
            "body": "WTF",
            "personId": 100157,
            "typing": false
        },
        {
            "body": "what is it??",
            "personId": 100158,
            "typing": false
        },
        {
            "personId": 100157,
            "typing": true
        },
        {
            "body": "????",
            "personId": 100158,
            "typing": false
        },
        {
            "image": "RUeWq4Tz2UAiTiRnDjxw_drawing.hi-res.jpg",
            "obscuredImage": "RUeWq4Tz2UAiTiRnDjxw_drawing.obscured.jpg",
            "personId": 100157,
            "portrait": true,
            "typing": false
        },
        {
            "body": "it's a drawing of me",
            "personId": 100157,
            "typing": false
        },
        {
            "body": "oh my god",
            "personId": 100158,
            "typing": false
        },
        {
            "body": "you need to get out of there.",
            "personId": 100158,
            "typing": false
        },
        {
            "body": "I hear someone coming.",
            "personId": 100157,
            "typing": false
        },
        {
            "body": "Rachel RUN",
            "personId": 100158,
            "typing": false
        },
        {
            "personId": 100157,
            "typing": true
        },
        {
            "body": "rachel?",
            "personId": 100158,
            "typing": false
        },
        {
            "body": "hey",
            "personId": 100157,
            "typing": false
        },
        {
            "body": "WTF is happening",
            "personId": 100158,
            "typing": false
        },
        {
            "body": "sorry he walked in",
            "personId": 100157,
            "typing": false
        },
        {
            "body": "we are just going through the homework right now",
            "personId": 100157,
            "typing": false
        },
        {
            "body": "ok…",
            "personId": 100158,
            "typing": false
        },
        {
            "body": "he’s sitting really close to me",
            "personId": 100157,
            "typing": false
        },
        {
            "body": "I am pretending to use the calculator on my phone",
            "personId": 100157,
            "typing": false
        },
        {
            "body": "you need to get up and leave",
            "personId": 100158,
            "typing": false
        },
        {
            "body": "it’s not safe",
            "personId": 100158,
            "typing": false
        },
        {
            "body": "he’s sitting like REALLY close to me",
            "personId": 100157,
            "typing": false
        },
        {
            "body": "his hand is really close to my leg",
            "personId": 100157,
            "typing": false
        },
        {
            "body": "WTF",
            "personId": 100158,
            "typing": false
        },
        {
            "body": "oh my god",
            "personId": 100157,
            "typing": false
        },
        {
            "body": "he’s touching my leg",
            "personId": 100157,
            "typing": false
        },
        {
            "body": "uh….did he say sorry",
            "personId": 100158,
            "typing": false
        },
        {
            "body": "he’s not saying anything",
            "personId": 100157,
            "typing": false
        },
        {
            "body": "im scared to say anything",
            "personId": 100157,
            "typing": false
        },
        {
            "body": "Rachel. You NEED to leave",
            "personId": 100158,
            "typing": false
        },
        {
            "body": "i’m scared to do anything",
            "personId": 100157,
            "typing": false
        },
        {
            "body": "he’s like rubbing my leg",
            "personId": 100157,
            "typing": false
        },
        {
            "body": "while we go through math problems",
            "personId": 100157,
            "typing": false
        },
        {
            "body": "WTF",
            "personId": 100158,
            "typing": false
        },
        {
            "body": "he’s not saying anything?",
            "personId": 100158,
            "typing": false
        },
        {
            "body": "nope he’s doing harder though",
            "personId": 100157,
            "typing": false
        },
        {
            "body": "starting to squeeze",
            "personId": 100157,
            "typing": false
        },
        {
            "body": "ok",
            "personId": 100158,
            "typing": false
        },
        {
            "body": "that’s it. I’m coming now",
            "personId": 100158,
            "typing": false
        },
        {
            "body": "keep me updated",
            "personId": 100158,
            "typing": false
        },
        {
            "body": "okay I will",
            "personId": 100157,
            "typing": false
        },
        {
            "body": "JESUS",
            "personId": 100157,
            "typing": false
        },
        {
            "body": "what???",
            "personId": 100158,
            "typing": false
        }
    ],
    "number": 0,
    "people": [
        {
            "bubbleColor": "f6ecec",
            "id": 100157,
            "name": "Rachel",
            "nameColor": "ea5aa3",
            "textColor": "000000cc"
        },
        {
            "bubbleColor": "ebeff4",
            "id": 100158,
            "name": "Joe",
            "nameColor": "25aef4",
            "textColor": "000000cc"
        }
    ],
    "storyId": 100055
}