{
    "messages": [
        {
            "body": "Like my outfit? 😉 ",
            "personId": 100035,
            "typing": false
        },
        {
            "image": "tgm8LFuRo2buuicNAlab_girl2.hi-res.jpg",
            "obscuredImage": "tgm8LFuRo2buuicNAlab_girl2.obscured.jpg",
            "personId": 100035,
            "portrait": true,
            "typing": false
        },
        {
            "body": "Housesitting this mansion is way more fun than I thought",
            "personId": 100035,
            "typing": false
        },
        {
            "body": "WOW 🔥😵 ",
            "personId": 100036,
            "typing": false
        },
        {
            "body": "I'm almost there baby!",
            "personId": 100036,
            "typing": false
        },
        {
            "body": "Come play house with me, but the naughty version 💋",
            "personId": 100035,
            "typing": false
        },
        {
            "body": "Oooh I like that!",
            "personId": 100036,
            "typing": false
        },
        {
            "body": "Danielle’s Mom Calls Her - In Panic",
            "typing": false
        },
        {
            "body": ""Honey! Are you ok??!"",
            "personId": 100037,
            "typing": false
        },
        {
            "body": "Yes! Why?! I'm prepping dinner for Tyler",
            "personId": 100035,
            "typing": false
        },
        {
            "body": "I just saw something awful on the news",
            "personId": 100037,
            "typing": false
        },
        {
            "body": "There is a psycho killer on the loose",
            "personId": 100037,
            "typing": false
        },
        {
            "body": "That sucks. ",
            "personId": 100035,
            "typing": false
        },
        {
            "body": "But I'm really busy, can I hang up now?",
            "personId": 100035,
            "typing": false
        },
        {
            "body": "NO! Listen to me!",
            "personId": 100037,
            "typing": false
        },
        {
            "body": "They're in the neighborhood where you are housesitting!!!!!",
            "personId": 100037,
            "typing": false
        },
        {
            "body": "There was a murder 1 block away from you, honey!",
            "personId": 100037,
            "typing": false
        },
        {
            "body": "Don't be so dismissive!! This is a serious matter",
            "personId": 100037,
            "typing": false
        },
        {
            "body": "The police are asking residents to clear the area",
            "personId": 100037,
            "typing": false
        },
        {
            "body": "Here is the murderer's photo from the news ",
            "personId": 100037,
            "typing": false
        },
        {
            "image": "BJaXDVpXRKK3sxl2F9CG_guy.hi-res.jpg",
            "obscuredImage": "BJaXDVpXRKK3sxl2F9CG_guy.obscured.jpg",
            "personId": 100037,
            "portrait": true,
            "typing": false
        },
        {
            "body": "Mom, that's crazy talk!",
            "personId": 100035,
            "typing": false
        },
        {
            "body": "Tyler and I have been waiting to chill here alone for months now. ",
            "personId": 100035,
            "typing": false
        },
        {
            "body": "Be very careful baby, leave the house!!!",
            "personId": 100037,
            "typing": false
        },
        {
            "body": "I'm not leaving! Tyler will be here soon!",
            "personId": 100035,
            "typing": false
        },
        {
            "body": "Danielle texts Tyler back.",
            "typing": false
        },
        {
            "body": "Tyler, hurry up! It's getting late",
            "personId": 100035,
            "typing": false
        },
        {
            "body": "My mom is sending me pix of a creepy murderer 🙈",
            "personId": 100035,
            "typing": false
        },
        {
            "body": "I'm grabbing one last thing babe!",
            "personId": 100036,
            "typing": false
        },
        {
            "body": "Be there soon! ",
            "personId": 100036,
            "typing": false
        },
        {
            "body": "I can't wait!!! ",
            "personId": 100036,
            "typing": false
        },
        {
            "image": "R0ecYRm7Te2aaSDyxz5f_girl.hi-res.jpg",
            "obscuredImage": "R0ecYRm7Te2aaSDyxz5f_girl.obscured.jpg",
            "personId": 100035,
            "portrait": true,
            "typing": false
        },
        {
            "body": "Babe.... 😠",
            "personId": 100036,
            "typing": false
        },
        {
            "body": "Who is the dude behind the window?",
            "personId": 100036,
            "typing": false
        },
        {
            "personId": 100035,
            "typing": true
        }
    ],
    "number": 0,
    "people": [
        {
            "bubbleColor": "ebeff4",
            "id": 100035,
            "name": "Danielle",
            "nameColor": "25aef4",
            "textColor": "000000cc"
        },
        {
            "bubbleColor": "f6ecec",
            "id": 100036,
            "name": "Tyler",
            "nameColor": "ea5aa3",
            "textColor": "000000cc"
        },
        {
            "bubbleColor": "eff4eb",
            "id": 100037,
            "name": "Mom",
            "nameColor": "7ed321",
            "textColor": "000000cc"
        }
    ],
    "storyId": 100015
}