{
    "messages": [
        {
            "body": "I'm sorry to keep you holding for an hour.",
            "personId": 4900,
            "typing": false
        },
        {
            "body": "What were you saying?",
            "personId": 4900,
            "typing": false
        },
        {
            "body": "I was saying that I was physically assaulted and dragged off a UA flight because I would not give up the seat that I paid for.",
            "personId": 4901,
            "typing": false
        },
        {
            "body": "Don't you think that was your fault?",
            "personId": 4900,
            "typing": false
        },
        {
            "body": "I'm sorry?",
            "personId": 4901,
            "typing": false
        },
        {
            "body": "How was that my fault?",
            "personId": 4901,
            "typing": false
        },
        {
            "body": "It sounds like you were being rowdy.",
            "personId": 4900,
            "typing": false
        },
        {
            "body": "I was politely seated and buckled in.",
            "personId": 4901,
            "typing": false
        },
        {
            "body": "Were there any marks from this incident?",
            "personId": 4900,
            "typing": false
        },
        {
            "body": "Yes! I had blood running down my face.",
            "personId": 4901,
            "typing": false
        },
        {
            "body": "I was dragged off the flight with my shirt half way up my stomach.",
            "personId": 4901,
            "typing": false
        },
        {
            "body": "Well I hope you've been hitting the gym if your stomach was showing!",
            "personId": 4900,
            "typing": false
        },
        {
            "body": "I'm kidding.",
            "personId": 4900,
            "typing": false
        },
        {
            "body": "I'm sorry to hear that.",
            "personId": 4900,
            "typing": false
        },
        {
            "body": "I'd like to offer you a free United flight pin.",
            "personId": 4900,
            "typing": false
        },
        {
            "body": "As a token of our appreciation of your continued patronage.",
            "personId": 4900,
            "typing": false
        },
        {
            "body": "A pin?",
            "personId": 4901,
            "typing": false
        },
        {
            "body": "No! That is TOTALLY UNACCEPTABLE!",
            "personId": 4901,
            "typing": false
        },
        {
            "body": "Are you sure?",
            "personId": 4900,
            "typing": false
        },
        {
            "body": "The pin is pretty adorable.",
            "personId": 4900,
            "typing": false
        },
        {
            "body": "No.",
            "personId": 4901,
            "typing": false
        },
        {
            "body": "I paid for my seat!",
            "personId": 4901,
            "typing": false
        },
        {
            "body": "I should not have had to give it up!",
            "personId": 4901,
            "typing": false
        },
        {
            "body": "I should not have been dragged off the flight.",
            "personId": 4901,
            "typing": false
        },
        {
            "body": "I want a refund (at a minimum) AND a real apology.",
            "personId": 4901,
            "typing": false
        },
        {
            "body": "We don't issue refunds to rowdy passengers.",
            "personId": 4900,
            "typing": false
        },
        {
            "body": "I'm sorry you were uncomfortable.",
            "personId": 4900,
            "typing": false
        },
        {
            "body": "UNCOMFORTABLE?!",
            "personId": 4901,
            "typing": false
        },
        {
            "body": "I WASN'T ROWDY.",
            "personId": 4901,
            "typing": false
        },
        {
            "body": "You sound pretty rowdy right now.",
            "personId": 4900,
            "typing": false
        },
        {
            "body": "It sounds like you're an "emotional person."",
            "personId": 4900,
            "typing": false
        },
        {
            "body": "I am emotional. I was ASSAULTED.",
            "personId": 4901,
            "typing": false
        },
        {
            "body": "Uh huh.",
            "personId": 4900,
            "typing": false
        },
        {
            "body": "Would you like a free drink voucher on your next UA flight?",
            "personId": 4900,
            "typing": false
        },
        {
            "body": "No I would not!",
            "personId": 4901,
            "typing": false
        },
        {
            "body": "I will not be going on another United flight.",
            "personId": 4901,
            "typing": false
        },
        {
            "body": "But I had to get my supervisor to approve the drink.",
            "personId": 4900,
            "typing": false
        },
        {
            "body": "This is our way of saying thank you, and we are happy to serve you.",
            "personId": 4900,
            "typing": false
        },
        {
            "body": "I WAS A TICKETED PASSENGER.",
            "personId": 4901,
            "typing": false
        },
        {
            "body": "YOU OVER BOOKED YOUR FLIGHT.",
            "personId": 4901,
            "typing": false
        },
        {
            "body": "YOU DRAGGED ME OFF THE PLANE.",
            "personId": 4901,
            "typing": false
        },
        {
            "body": "I HAD BLOOD RUNNING DOWN MY FACE.",
            "personId": 4901,
            "typing": false
        },
        {
            "body": "Ok.",
            "personId": 4900,
            "typing": false
        },
        {
            "body": "Let me check on that.",
            "personId": 4900,
            "typing": false
        },
        {
            "body": "What are you checking on?",
            "personId": 4901,
            "typing": false
        },
        {
            "body": "Hold please.",
            "personId": 4900,
            "typing": false
        },
        {
            "body": "45 minutes later",
            "typing": false
        },
        {
            "body": "Sorry about that. I'm back from lunch.",
            "personId": 4900,
            "typing": false
        },
        {
            "body": "I mean from checking on your situation.",
            "personId": 4900,
            "typing": false
        },
        {
            "body": "YOU'RE SORRY?!",
            "personId": 4901,
            "typing": false
        },
        {
            "body": "I MISSED MY CONNECTION.",
            "personId": 4901,
            "typing": false
        },
        {
            "body": "AND AS A RESULT MY DAUGHTERS BIRTHDAY.",
            "personId": 4901,
            "typing": false
        },
        {
            "body": "I HAVE A BROKEN NOSE.",
            "personId": 4901,
            "typing": false
        },
        {
            "body": "ANDDDD I'VE BEEN ON THE PHONE WITH YOU FOR 2 HOURS AND ACCOMPLISHED NOTHING!",
            "personId": 4901,
            "typing": false
        },
        {
            "body": "I ONLY WANT A REFUND FOR THE FLIGHT I DIDN'T TAKE.",
            "personId": 4901,
            "typing": false
        },
        {
            "body": "I WILL NEVER FLY WITH YOU AGAIN.",
            "personId": 4901,
            "typing": false
        },
        {
            "body": "I'm sorry sir.",
            "personId": 4900,
            "typing": false
        },
        {
            "body": "You'll need to stop being so hostile.",
            "personId": 4900,
            "typing": false
        },
        {
            "body": "We politely asked for volunteers and you didn't volunteer.",
            "personId": 4900,
            "typing": false
        },
        {
            "body": "Do you know what the definition of a volunteer is?",
            "personId": 4901,
            "typing": false
        },
        {
            "body": "We use "volunteer" as more of a theory. Less of a reality.",
            "personId": 4900,
            "typing": false
        },
        {
            "body": "Just like I'd like you to volunteer to hang up now.",
            "personId": 4900,
            "typing": false
        },
        {
            "body": "I'll be sending you a drink voucher and the UA pin in the mail!",
            "personId": 4900,
            "typing": false
        },
        {
            "body": "Fly the friendly skies!",
            "personId": 4900,
            "typing": false
        },
        {
            "body": "You'll be hearing from my attorney.",
            "personId": 4901,
            "typing": false
        }
    ],
    "number": 0,
    "people": [
        {
            "bubbleColor": "ebeff4",
            "id": 4900,
            "name": "United Support",
            "nameColor": "25aef4",
            "textColor": "000000cc"
        },
        {
            "bubbleColor": "f6ecec",
            "id": 4901,
            "name": "Customer",
            "nameColor": "ea5aa3",
            "textColor": "000000cc"
        }
    ],
    "storyId": 49
}