{
    "messages": [
        {
            "body": "Joey it's just a game!",
            "personId": 7201,
            "typing": false
        },
        {
            "body": "Come on dude.",
            "personId": 7201,
            "typing": false
        },
        {
            "body": "You're going soft on me!",
            "personId": 7201,
            "typing": false
        },
        {
            "body": "No, man I'm not messing around.",
            "personId": 7200,
            "typing": false
        },
        {
            "body": "I think people really are getting killed off!",
            "personId": 7200,
            "typing": false
        },
        {
            "body": "It's a GAME SHOW!",
            "personId": 7201,
            "typing": false
        },
        {
            "body": "A reality game show!",
            "personId": 7201,
            "typing": false
        },
        {
            "body": "On TV!!!",
            "personId": 7201,
            "typing": false
        },
        {
            "body": "You really think they could get away with something like that?!",
            "personId": 7201,
            "typing": false
        },
        {
            "body": "Where's Melissa?!",
            "personId": 7200,
            "typing": false
        },
        {
            "body": "What happened to her?!",
            "personId": 7200,
            "typing": false
        },
        {
            "body": "The paramedics took her after she fell off the rock wall and NO ONE's seen her since!",
            "personId": 7200,
            "typing": false
        },
        {
            "body": "We were suppossed to have a stunt lady doing that climb.",
            "personId": 7200,
            "typing": false
        },
        {
            "body": "WHY would they let some 26 year old hair stylist climb a rock wall that high?",
            "personId": 7200,
            "typing": false
        },
        {
            "body": "There was NO NET!",
            "personId": 7200,
            "typing": false
        },
        {
            "body": "No safety wires! I could see her fall from my camera angle.",
            "personId": 7200,
            "typing": false
        },
        {
            "body": "She HIT the ground!!!",
            "personId": 7200,
            "typing": false
        },
        {
            "body": "Look I know it looks real, but that's just cause this production team is top of the line!",
            "personId": 7201,
            "typing": false
        },
        {
            "body": "They're pros!",
            "personId": 7201,
            "typing": false
        },
        {
            "body": "They know what they're doing.",
            "personId": 7201,
            "typing": false
        },
        {
            "body": "Mitch. Think about it.",
            "personId": 7200,
            "typing": false
        },
        {
            "body": "Did they give you any camera tracking instructions when Bruce and Amir did the poisonous snake pit?",
            "personId": 7200,
            "typing": false
        },
        {
            "body": "I mean...",
            "personId": 7201,
            "typing": false
        },
        {
            "body": "No.",
            "personId": 7201,
            "typing": false
        },
        {
            "body": "Shouldn't they have told you to pan up so that they could cut in a fake snake bite?",
            "personId": 7200,
            "typing": false
        },
        {
            "body": "Remember road warriors?!",
            "personId": 7200,
            "typing": false
        },
        {
            "body": "That's ALL we did on that show! Fake camera pans.",
            "personId": 7200,
            "typing": false
        },
        {
            "body": "Close-up after close-up to cheat the action for safety!!!",
            "personId": 7200,
            "typing": false
        },
        {
            "body": "NONE of that here!!!",
            "personId": 7200,
            "typing": false
        },
        {
            "body": "Plus...",
            "personId": 7200,
            "typing": false
        },
        {
            "image": "Real Life Hunger Games.knives.jpg",
            "obscuredImage": "Real Life Hunger Games.knives.obscured.jpg",
            "personId": 7200,
            "portrait": true,
            "typing": false
        },
        {
            "body": "I just checked the "prop" knives...",
            "personId": 7200,
            "typing": false
        },
        {
            "body": "NOT props!",
            "personId": 7200,
            "typing": false
        },
        {
            "body": "They're real.",
            "personId": 7200,
            "typing": false
        },
        {
            "body": "The knives for the knife throwing challenge are REAL!!!",
            "personId": 7200,
            "typing": false
        },
        {
            "body": "Those are just for the top of the show.",
            "personId": 7201,
            "typing": false
        },
        {
            "body": "So the contestants can check them and have authentic reactions.",
            "personId": 7201,
            "typing": false
        },
        {
            "body": "No!",
            "personId": 7200,
            "typing": false
        },
        {
            "body": "It has to be!",
            "personId": 7201,
            "typing": false
        },
        {
            "body": "They switch those out, Joey!!!",
            "personId": 7201,
            "typing": false
        },
        {
            "body": "NO THEY DON'T!",
            "personId": 7200,
            "typing": false
        },
        {
            "body": "I checked with the prop master... NO knives!",
            "personId": 7200,
            "typing": false
        },
        {
            "body": "We have to do something Mitch!",
            "personId": 7200,
            "typing": false
        },
        {
            "body": "We have to stop this!",
            "personId": 7200,
            "typing": false
        },
        {
            "body": "Ok. Calm down.",
            "personId": 7201,
            "typing": false
        },
        {
            "body": "Where are you?",
            "personId": 7201,
            "typing": false
        },
        {
            "body": "Let's talk about this in person.",
            "personId": 7201,
            "typing": false
        },
        {
            "body": "I'm at the back of the camp.",
            "personId": 7200,
            "typing": false
        },
        {
            "body": "Right by the makeup trailer.",
            "personId": 7200,
            "typing": false
        },
        {
            "body": "Ok, meet me by crafty.",
            "personId": 7201,
            "typing": false
        },
        {
            "body": "1 minute later",
            "typing": false
        },
        {
            "body": "Joe?",
            "personId": 7201,
            "typing": false
        },
        {
            "body": "2 minutes later",
            "typing": false
        },
        {
            "body": "Holy SHIT!!!",
            "personId": 7200,
            "typing": false
        },
        {
            "body": "What?!",
            "personId": 7201,
            "typing": false
        },
        {
            "body": "Did you read today's shooting script?!",
            "personId": 7200,
            "typing": false
        },
        {
            "body": "Not yet.",
            "personId": 7201,
            "typing": false
        },
        {
            "body": "I'm just the steady shot (camera 3), I never read the shooting script.",
            "personId": 7201,
            "typing": false
        },
        {
            "body": "Why?!",
            "personId": 7201,
            "typing": false
        },
        {
            "body": "It says…”throwing knife misses target and stabs camera three operator in the heart.",
            "personId": 7200,
            "typing": false
        },
        {
            "body": "What?!!",
            "personId": 7201,
            "typing": false
        },
        {
            "personId": 7201,
            "typing": true
        },
        {
            "body": "MITCH!",
            "personId": 7200,
            "typing": false
        },
        {
            "body": "What are you doing?!",
            "personId": 7200,
            "typing": false
        },
        {
            "body": "You have to get out of there!",
            "personId": 7200,
            "typing": false
        },
        {
            "body": "They're going to KILL you!!!",
            "personId": 7200,
            "typing": false
        },
        {
            "body": "Joey ENOUGH!!!",
            "personId": 7201,
            "typing": false
        },
        {
            "body": "This is all in your head.",
            "personId": 7201,
            "typing": false
        },
        {
            "body": "I have a job to do.",
            "personId": 7201,
            "typing": false
        },
        {
            "body": "I'm not getting fired because you're paranoid!",
            "personId": 7201,
            "typing": false
        },
        {
            "body": "What?!",
            "personId": 7200,
            "typing": false
        },
        {
            "body": "I showed you the script!",
            "personId": 7200,
            "typing": false
        },
        {
            "body": "You saw it!",
            "personId": 7200,
            "typing": false
        },
        {
            "body": "I checked my script, it's not on there.",
            "personId": 7201,
            "typing": false
        },
        {
            "body": "You showed me some piece of paper that YOU probably typed up.",
            "personId": 7201,
            "typing": false
        },
        {
            "body": "You think I don't see what's going on here?",
            "personId": 7201,
            "typing": false
        },
        {
            "body": "NO! You don't!",
            "personId": 7200,
            "typing": false
        },
        {
            "body": "People are dying!",
            "personId": 7200,
            "typing": false
        },
        {
            "body": "They're being killed for entertainment and you don't seem to be concerned!",
            "personId": 7200,
            "typing": false
        },
        {
            "body": "No, you are trying to snag my job!",
            "personId": 7201,
            "typing": false
        },
        {
            "body": "AND in a pretty sick way if you ask me.",
            "personId": 7201,
            "typing": false
        },
        {
            "body": "I've been 1st Camera on our last 3 jobs and you just can't take it.",
            "personId": 7201,
            "typing": false
        },
        {
            "body": "If you want to move ahead you have to work hard Joe.",
            "personId": 7201,
            "typing": false
        },
        {
            "body": "Not try and trick people into being fired!!!",
            "personId": 7201,
            "typing": false
        },
        {
            "body": "Mitch, please listen to me man, that's not what I'm doing.",
            "personId": 7200,
            "typing": false
        },
        {
            "body": "I'm looking out for you!",
            "personId": 7200,
            "typing": false
        },
        {
            "body": "You're my mentor.",
            "personId": 7200,
            "typing": false
        },
        {
            "body": "Just do your job!",
            "personId": 7201,
            "typing": false
        },
        {
            "body": "Stop messing with me and...",
            "personId": 7201,
            "typing": false
        },
        {
            "body": "DO.",
            "personId": 7201,
            "typing": false
        },
        {
            "body": "YOUR",
            "personId": 7201,
            "typing": false
        },
        {
            "body": "JOB.",
            "personId": 7201,
            "typing": false
        },
        {
            "body": "Mitch, get away from the camera.",
            "personId": 7200,
            "typing": false
        },
        {
            "body": "Please!",
            "personId": 7200,
            "typing": false
        },
        {
            "body": "Stop ignoring my texts. I'm trying to help you!",
            "personId": 7200,
            "typing": false
        },
        {
            "body": "MITCH!!!",
            "personId": 7200,
            "typing": false
        },
        {
            "body": "I can't make it over to you, I'm stuck on the overhead camera rig!",
            "personId": 7200,
            "typing": false
        },
        {
            "body": "I can't get down.",
            "personId": 7200,
            "typing": false
        },
        {
            "body": "You have to get out of there before George's turn.",
            "personId": 7200,
            "typing": false
        },
        {
            "body": "He's the one that misses.",
            "personId": 7200,
            "typing": false
        },
        {
            "body": "He's the one that kills you!",
            "personId": 7200,
            "typing": false
        },
        {
            "body": "There's still time.",
            "personId": 7200,
            "typing": false
        },
        {
            "body": "But you have to hurry.",
            "personId": 7200,
            "typing": false
        },
        {
            "body": "He's NEXT.",
            "personId": 7200,
            "typing": false
        },
        {
            "body": "MITCH!",
            "personId": 7200,
            "typing": false
        },
        {
            "body": "MITCH!!!",
            "personId": 7200,
            "typing": false
        },
        {
            "body": "2 minutes later",
            "typing": false
        },
        {
            "body": "Don't be scared.",
            "typing": false
        },
        {
            "body": "I'm on my way.",
            "typing": false
        },
        {
            "body": "I'll get you to a hospital.",
            "typing": false
        },
        {
            "body": "Hurry.",
            "personId": 7201,
            "typing": false
        },
        {
            "body": "I don't want to die like this.",
            "personId": 7201,
            "typing": false
        }
    ],
    "number": 0,
    "people": [
        {
            "bubbleColor": "ebeff4",
            "id": 7200,
            "name": "Joey",
            "nameColor": "25aef4",
            "textColor": "000000cc"
        },
        {
            "bubbleColor": "f6ecec",
            "id": 7201,
            "name": "Mitch",
            "nameColor": "ea5aa3",
            "textColor": "000000cc"
        }
    ],
    "storyId": 72
}