{
    "messages": [
        {
            "body": "HOW COULD YOU DO THAT TO ME?",
            "personId": 100002,
            "typing": false
        },
        {
            "body": "This is bad. Even for you.",
            "personId": 100002,
            "typing": false
        },
        {
            "body": "easy crazy. do what?",
            "personId": 100004,
            "typing": false
        },
        {
            "body": "I never thought you'd go this far.",
            "personId": 100002,
            "typing": false
        },
        {
            "body": "lol",
            "personId": 100004,
            "typing": false
        },
        {
            "body": "I'm serious.",
            "personId": 100002,
            "typing": false
        },
        {
            "body": "I really liked Kurt. ",
            "personId": 100002,
            "typing": false
        },
        {
            "body": "Can't anything be just mine?",
            "personId": 100002,
            "typing": false
        },
        {
            "body": "oh please. lol.",
            "personId": 100004,
            "typing": false
        },
        {
            "body": "miss goody two shoes.",
            "personId": 100004,
            "typing": false
        },
        {
            "body": "it's not like you were ever gonna hook up with him.",
            "personId": 100004,
            "typing": false
        },
        {
            "body": "It's not all about hooking up!",
            "personId": 100002,
            "typing": false
        },
        {
            "body": "I liked him liked him.",
            "personId": 100002,
            "typing": false
        },
        {
            "body": "We had something real.",
            "personId": 100002,
            "typing": false
        },
        {
            "body": "well you can have him.",
            "personId": 100004,
            "typing": false
        },
        {
            "body": "he's a snooze fest in the bedroom.",
            "personId": 100004,
            "typing": false
        },
        {
            "body": "He wasn't even into you!",
            "personId": 100002,
            "typing": false
        },
        {
            "body": "I don't understand.",
            "personId": 100002,
            "typing": false
        },
        {
            "body": "all men are into me.",
            "personId": 100004,
            "typing": false
        },
        {
            "body": "all men are into women. period.",
            "personId": 100004,
            "typing": false
        },
        {
            "body": "you've got a lot to learn.",
            "personId": 100004,
            "typing": false
        },
        {
            "body": "anyway, it's good to get out there and have new experiences.",
            "personId": 100004,
            "typing": false
        },
        {
            "body": "NOT WITH MY CRUSH.",
            "personId": 100002,
            "typing": false
        },
        {
            "body": "and...",
            "personId": 100002,
            "typing": false
        },
        {
            "body": "and what?",
            "personId": 100004,
            "typing": false
        },
        {
            "body": "I'm just in a lot of pain.",
            "personId": 100002,
            "typing": false
        },
        {
            "body": "Didn't you think about how this would affect me?",
            "personId": 100002,
            "typing": false
        },
        {
            "body": "lol",
            "personId": 100004,
            "typing": false
        },
        {
            "body": "I hear it gets less painful. not that i know.",
            "personId": 100004,
            "typing": false
        },
        {
            "body": "more fun.",
            "personId": 100004,
            "typing": false
        },
        {
            "body": "Am i still a virgin?",
            "personId": 100002,
            "typing": false
        },
        {
            "body": "i mean, yah.",
            "personId": 100004,
            "typing": false
        },
        {
            "body": "you're lame with a capital L.",
            "personId": 100004,
            "typing": false
        },
        {
            "body": "but...",
            "personId": 100002,
            "typing": false
        },
        {
            "body": "chill out.",
            "personId": 100004,
            "typing": false
        },
        {
            "body": "you may feel what i'm supposed feel ",
            "personId": 100004,
            "typing": false
        },
        {
            "body": "but you didn't actually DO anything",
            "personId": 100004,
            "typing": false
        },
        {
            "body": "so you can still be miss priss for as long as you want.",
            "personId": 100004,
            "typing": false
        },
        {
            "body": "I hate you.",
            "personId": 100002,
            "typing": false
        },
        {
            "body": "I really do.",
            "personId": 100002,
            "typing": false
        },
        {
            "body": "I can't wait to get away from you.",
            "personId": 100002,
            "typing": false
        },
        {
            "body": "yeah.",
            "personId": 100004,
            "typing": false
        },
        {
            "body": "same.",
            "personId": 100004,
            "typing": false
        },
        {
            "body": "graduation can't come soon enough.",
            "personId": 100004,
            "typing": false
        },
        {
            "body": "maybe this bullshit situation won't exist with distance.",
            "personId": 100004,
            "typing": false
        },
        {
            "body": "You mean the bullshit situation I have?",
            "personId": 100002,
            "typing": false
        },
        {
            "body": "it's my situation too.",
            "personId": 100004,
            "typing": false
        },
        {
            "body": "You don't feel any pain!",
            "personId": 100002,
            "typing": false
        },
        {
            "body": "I feel all the pain!",
            "personId": 100002,
            "typing": false
        },
        {
            "body": "I feel everything, for BOTH of us.",
            "personId": 100002,
            "typing": false
        },
        {
            "body": "I feel EVERYTHING you do. ",
            "personId": 100002,
            "typing": false
        },
        {
            "body": "Better than feeling nothing.",
            "personId": 100004,
            "typing": false
        },
        {
            "body": "Like me. ",
            "personId": 100004,
            "typing": false
        }
    ],
    "number": 1,
    "people": [
        {
            "bubbleColor": "ebeff4",
            "id": 100002,
            "name": "Julia",
            "nameColor": "25aef4",
            "textColor": "000000cc"
        },
        {
            "bubbleColor": "f6ecec",
            "id": 100004,
            "name": "Jada",
            "nameColor": "ea5aa3",
            "textColor": "000000cc"
        }
    ],
    "storyId": 100001
}