{
    "messages": [
        {
            "body": "WHERE ARE YOU MAMA?!",
            "personId": 6500,
            "typing": false
        },
        {
            "body": "DONDE?!",
            "personId": 6500,
            "typing": false
        },
        {
            "body": "I'm so scared.",
            "personId": 6500,
            "typing": false
        },
        {
            "body": "Immigration is screaming at Mr. Kantor.",
            "personId": 6500,
            "typing": false
        },
        {
            "body": "I think they're looking for you.",
            "personId": 6500,
            "typing": false
        },
        {
            "body": "MAMA!",
            "personId": 6500,
            "typing": false
        },
        {
            "body": "I'm ok, Carolina. I left the Kantors when you texted.",
            "personId": 6501,
            "typing": false
        },
        {
            "body": "I've worked for them for 15 years, I didn't think they would report me.",
            "personId": 6501,
            "typing": false
        },
        {
            "body": "I'm at your uncle's house.",
            "personId": 6501,
            "typing": false
        },
        {
            "body": "He didn't!",
            "personId": 6500,
            "typing": false
        },
        {
            "body": "I think Madie and Cara did.",
            "personId": 6500,
            "typing": false
        },
        {
            "body": "Mr. Kantor has been screaming at them.",
            "personId": 6500,
            "typing": false
        },
        {
            "body": "The authorities are still at the house.",
            "personId": 6500,
            "typing": false
        },
        {
            "body": "Where are YOU?",
            "personId": 6501,
            "typing": false
        },
        {
            "body": "I'm hiding outside.",
            "personId": 6500,
            "typing": false
        },
        {
            "body": "Do I need to be worried?",
            "personId": 6500,
            "typing": false
        },
        {
            "body": "What do I do?",
            "personId": 6500,
            "typing": false
        },
        {
            "body": "No, mi amada.",
            "personId": 6501,
            "typing": false
        },
        {
            "body": "You were born here.",
            "personId": 6501,
            "typing": false
        },
        {
            "body": "They can't do anything to you.",
            "personId": 6501,
            "typing": false
        },
        {
            "body": "I can hear immigration asking about us!",
            "personId": 6500,
            "typing": false
        },
        {
            "body": "THEY'RE COMING TOWARD ME.",
            "personId": 6500,
            "typing": false
        },
        {
            "body": "MAMA! WHAT DO I DO?!",
            "personId": 6500,
            "typing": false
        },
        {
            "body": "Be brave, Carolina.",
            "personId": 6501,
            "typing": false
        },
        {
            "body": "5 minutes",
            "typing": false
        },
        {
            "body": "I think it's all ok now.",
            "personId": 6500,
            "typing": false
        },
        {
            "body": "I told them I was here alone and that I was hiding becuase I was scared.",
            "personId": 6500,
            "typing": false
        },
        {
            "body": "...but they kept asking for the "vieja."",
            "personId": 6500,
            "typing": false
        },
        {
            "body": "OLD WOMAN?",
            "personId": 6501,
            "typing": false
        },
        {
            "body": "HaHaHaHa.",
            "personId": 6500,
            "typing": false
        },
        {
            "body": "I'm on my way to Tio's house right now.",
            "personId": 6500,
            "typing": false
        },
        {
            "body": "5 minutes",
            "typing": false
        },
        {
            "body": "CAROLINA!",
            "personId": 6501,
            "typing": false
        },
        {
            "body": "IMMIGRATION IS HERE! THEY CAME TO YOUR UNCLE'S TO FIND ME.",
            "personId": 6501,
            "typing": false
        },
        {
            "body": "CAROLINA!",
            "personId": 6501,
            "typing": false
        },
        {
            "body": "What?!",
            "personId": 6500,
            "typing": false
        },
        {
            "body": "HOW!",
            "personId": 6500,
            "typing": false
        },
        {
            "body": "I think they read our texts.",
            "personId": 6501,
            "typing": false
        },
        {
            "body": "MAMA!!!",
            "personId": 6500,
            "typing": false
        },
        {
            "body": "NO!",
            "personId": 6500,
            "typing": false
        },
        {
            "body": "I'M ALMOST THERE!!",
            "personId": 6500,
            "typing": false
        },
        {
            "body": "Listen to me Carolina.",
            "personId": 6501,
            "typing": false
        },
        {
            "body": "I'm in trouble.",
            "personId": 6501,
            "typing": false
        },
        {
            "body": "They're going to deport me.",
            "personId": 6501,
            "typing": false
        },
        {
            "body": "You must be brave.",
            "personId": 6501,
            "typing": false
        },
        {
            "body": "I'll make it to my sister's house in Mexico City and then call you.",
            "personId": 6501,
            "typing": false
        },
        {
            "body": "I won't be able to get a hold of you for a few weeks.",
            "personId": 6501,
            "typing": false
        },
        {
            "body": "But I'll be OK.",
            "personId": 6501,
            "typing": false
        },
        {
            "body": "Stay with your Tio and be a good girl.",
            "personId": 6501,
            "typing": false
        },
        {
            "body": "NO!!!",
            "personId": 6500,
            "typing": false
        },
        {
            "body": "IT'S NOT SAFE THERE. THAT'S WHY WE CAME HERE!!!!!!!!!",
            "personId": 6500,
            "typing": false
        },
        {
            "body": "MAMA!",
            "personId": 6500,
            "typing": false
        },
        {
            "body": "I'M SCARED WITHOUT YOU.",
            "personId": 6500,
            "typing": false
        },
        {
            "body": "PLEASE DON'T GO.",
            "personId": 6500,
            "typing": false
        },
        {
            "body": "I don't have a choice, mi amore.",
            "personId": 6501,
            "typing": false
        },
        {
            "body": "Te amo.",
            "personId": 6501,
            "typing": false
        },
        {
            "body": "I love you too.",
            "personId": 6500,
            "typing": false
        },
        {
            "body": "I'm pulling up now!",
            "personId": 6500,
            "typing": false
        },
        {
            "body": "There are so many people here.",
            "personId": 6500,
            "typing": false
        },
        {
            "body": "I SEE MADIE AND CARA!!!",
            "personId": 6500,
            "typing": false
        },
        {
            "body": "THEY'RE SMILING!",
            "personId": 6500,
            "typing": false
        },
        {
            "body": "IT WAS THEM!",
            "personId": 6500,
            "typing": false
        },
        {
            "body": "They reported you, Mama.",
            "personId": 6500,
            "typing": false
        },
        {
            "body": "They just saw me and smirked...",
            "personId": 6500,
            "typing": false
        },
        {
            "body": "I'M GOING TO GET THEM!!!!!!!",
            "personId": 6500,
            "typing": false
        },
        {
            "body": "CAROLINA!",
            "personId": 6501,
            "typing": false
        },
        {
            "body": "Be good.",
            "personId": 6501,
            "typing": false
        },
        {
            "body": "Do not do anything crazy.",
            "personId": 6501,
            "typing": false
        },
        {
            "body": "It will be ok.",
            "personId": 6501,
            "typing": false
        },
        {
            "body": "When will I see you again?",
            "personId": 6500,
            "typing": false
        },
        {
            "body": "Mamacita! Por Favor!!!",
            "personId": 6500,
            "typing": false
        },
        {
            "body": "I don't know when I'll see you.",
            "personId": 6501,
            "typing": false
        },
        {
            "body": "But somehow it'll be ok.",
            "personId": 6501,
            "typing": false
        },
        {
            "body": "I risked a lot to for us to live here!",
            "personId": 6501,
            "typing": false
        },
        {
            "body": "And even if all it accomplished was you being legal...",
            "personId": 6501,
            "typing": false
        },
        {
            "body": "It's a success.",
            "personId": 6501,
            "typing": false
        },
        {
            "body": "WHY ARE THEY BEING SO ROUGH WTH YOU?!",
            "personId": 6500,
            "typing": false
        },
        {
            "body": "YOU DIDN'T DO ANYTHING WRONG.",
            "personId": 6500,
            "typing": false
        },
        {
            "body": "MAMA!!!",
            "personId": 6500,
            "typing": false
        },
        {
            "body": "MAMA!!!",
            "personId": 6500,
            "typing": false
        },
        {
            "body": "I hate watching this...",
            "personId": 6500,
            "typing": false
        },
        {
            "body": "This isn't fair.",
            "personId": 6500,
            "typing": false
        },
        {
            "body": "I'll come find you.",
            "personId": 6500,
            "typing": false
        },
        {
            "body": "Te amo, Jefa.",
            "personId": 6500,
            "typing": false
        }
    ],
    "number": 1,
    "people": [
        {
            "bubbleColor": "ebeff4",
            "id": 6500,
            "name": "Carolina",
            "nameColor": "25aef4",
            "textColor": "000000cc"
        },
        {
            "bubbleColor": "f6ecec",
            "id": 6501,
            "name": "Mamacita",
            "nameColor": "ea5aa3",
            "textColor": "000000cc"
        }
    ],
    "storyId": 65
}