{
    "messages": [
        {
            "body": "I hate you.",
            "personId": 4600,
            "typing": false
        },
        {
            "body": "You make me want to die.",
            "personId": 4600,
            "typing": false
        },
        {
            "body": "🔪🔪🔪",
            "personId": 4600,
            "typing": false
        },
        {
            "body": "MUST you make my pants so tight?!",
            "personId": 4600,
            "typing": false
        },
        {
            "body": "I might as well be pregnant with all this water weight!",
            "personId": 4600,
            "typing": false
        },
        {
            "body": "IS it water weight?",
            "personId": 4600,
            "typing": false
        },
        {
            "body": "I don't know.",
            "personId": 4600,
            "typing": false
        },
        {
            "body": "Probably not, with all the crap I've been eating!",
            "personId": 4600,
            "typing": false
        },
        {
            "body": "I feel like a house. A literal house.",
            "personId": 4600,
            "typing": false
        },
        {
            "body": "Why do you make me crave cheetos and Reese's pieces?!",
            "personId": 4600,
            "typing": false
        },
        {
            "body": "Why can't you make me want kale and butternut squash?",
            "personId": 4600,
            "typing": false
        },
        {
            "body": "Gross. Kale.",
            "personId": 4600,
            "typing": false
        },
        {
            "body": "SO.",
            "personId": 4600,
            "typing": false
        },
        {
            "body": "MUCH.",
            "personId": 4600,
            "typing": false
        },
        {
            "body": "CHOCOLATE!!!",
            "personId": 4600,
            "typing": false
        },
        {
            "body": "🍩🍪🍫",
            "personId": 4600,
            "typing": false
        },
        {
            "body": "I want to die!",
            "personId": 4600,
            "typing": false
        },
        {
            "body": "Wait is that ANOTHER pimple!",
            "personId": 4600,
            "typing": false
        },
        {
            "body": "AAAAHHHHH!!!!!",
            "personId": 4600,
            "typing": false
        },
        {
            "body": "I can't handle this!",
            "personId": 4600,
            "typing": false
        },
        {
            "body": "Why are you doing this to me?!",
            "personId": 4600,
            "typing": false
        },
        {
            "body": "Why do you hate me so much?!",
            "personId": 4600,
            "typing": false
        },
        {
            "body": "Why am I crying?!",
            "personId": 4600,
            "typing": false
        },
        {
            "body": "This commercial is for coffee!",
            "personId": 4600,
            "typing": false
        },
        {
            "body": "COFFEE!!!",
            "personId": 4600,
            "typing": false
        },
        {
            "body": "She's not REALLY sharing a cup of coffee with her mother.",
            "personId": 4600,
            "typing": false
        },
        {
            "body": "That's not her REAL mother!",
            "personId": 4600,
            "typing": false
        },
        {
            "body": "They're just actors!",
            "personId": 4600,
            "typing": false
        },
        {
            "body": "Damn it!!!",
            "personId": 4600,
            "typing": false
        },
        {
            "body": "My stomach is KILLING ME.",
            "personId": 4600,
            "typing": false
        },
        {
            "body": "Am I being dramatic?",
            "personId": 4600,
            "typing": false
        },
        {
            "body": "No. I'm not.",
            "personId": 4600,
            "typing": false
        },
        {
            "body": "Get the heating pad.",
            "personId": 4600,
            "typing": false
        },
        {
            "body": "It's the only way!",
            "personId": 4600,
            "typing": false
        },
        {
            "body": "I'm giving up. It's too hard.",
            "personId": 4600,
            "typing": false
        },
        {
            "body": "My body is assulitng me!",
            "personId": 4600,
            "typing": false
        },
        {
            "body": "And why? WHY?!?",
            "personId": 4600,
            "typing": false
        },
        {
            "body": "You should be called TORTURE of the month.",
            "personId": 4600,
            "typing": false
        },
        {
            "body": "Ya know what? I'm wearing sweats today.",
            "personId": 4600,
            "typing": false
        },
        {
            "body": "I'm not getting dressed.",
            "personId": 4600,
            "typing": false
        },
        {
            "body": "What's the point?",
            "personId": 4600,
            "typing": false
        },
        {
            "body": "I guess I could put on my my black Lulu Lemons and a flowy shirt.",
            "personId": 4600,
            "typing": false
        },
        {
            "body": "Then I can hide the heating pad under my top.",
            "personId": 4600,
            "typing": false
        },
        {
            "body": "I'll be needing a motrin.",
            "personId": 4600,
            "typing": false
        },
        {
            "body": "Or two.",
            "personId": 4600,
            "typing": false
        },
        {
            "body": "3 more days left.",
            "personId": 4600,
            "typing": false
        },
        {
            "body": "Yay!",
            "personId": 4600,
            "typing": false
        },
        {
            "body": "Must you be SO awful?",
            "personId": 4600,
            "typing": false
        },
        {
            "body": "FML.",
            "personId": 4600,
            "typing": false
        },
        {
            "body": "This. Is. Not. Fair.",
            "personId": 4600,
            "typing": false
        },
        {
            "body": "Thanks T.O.M.",
            "personId": 4600,
            "typing": false
        },
        {
            "body": "😭👍🏼😭",
            "personId": 4600,
            "typing": false
        }
    ],
    "number": 0,
    "people": [
        {
            "bubbleColor": "ebeff4",
            "id": 4600,
            "name": "Me",
            "nameColor": "25aef4",
            "textColor": "000000cc"
        }
    ],
    "storyId": 46
}