{
    "messages": [
        {
            "body": "I'm not ready yet.",
            "personId": 100183,
            "typing": false
        },
        {
            "body": "Did you come here of your own free will?",
            "personId": 100182,
            "typing": false
        },
        {
            "body": "Yes.",
            "personId": 100183,
            "typing": false
        },
        {
            "body": "Is Brandy your real name?",
            "personId": 100182,
            "typing": false
        },
        {
            "body": "No.",
            "personId": 100183,
            "typing": false
        },
        {
            "body": "Good.",
            "personId": 100182,
            "typing": false
        },
        {
            "body": "How did you find out about us?",
            "personId": 100182,
            "typing": false
        },
        {
            "body": "A bartender at the Riot.",
            "personId": 100183,
            "typing": false
        },
        {
            "body": "Is this your first time doing anything like this?",
            "personId": 100182,
            "typing": false
        },
        {
            "body": "Yes.",
            "personId": 100183,
            "typing": false
        },
        {
            "body": "Do you know anyone here?",
            "personId": 100182,
            "typing": false
        },
        {
            "body": "I don't think so.",
            "personId": 100183,
            "typing": false
        },
        {
            "body": "How do you feel right now?",
            "personId": 100182,
            "typing": false
        },
        {
            "body": "Afraid.",
            "personId": 100183,
            "typing": false
        },
        {
            "body": "Of what?",
            "personId": 100182,
            "typing": false
        },
        {
            "body": "Your questions.",
            "personId": 100183,
            "typing": false
        },
        {
            "body": "Someone spotting me.",
            "personId": 100183,
            "typing": false
        },
        {
            "body": "That I don't know who you are.",
            "personId": 100183,
            "typing": false
        },
        {
            "body": "Breathe in and out. Relax.",
            "personId": 100182,
            "typing": false
        },
        {
            "body": "No one will know who you are.",
            "personId": 100182,
            "typing": false
        },
        {
            "body": "Where are you?",
            "personId": 100183,
            "typing": false
        },
        {
            "body": "That doesn't matter.",
            "personId": 100182,
            "typing": false
        },
        {
            "body": "Take off your coat.",
            "personId": 100182,
            "typing": false
        },
        {
            "body": "You'll get it back when you leave.",
            "personId": 100182,
            "typing": false
        },
        {
            "body": "Ok.",
            "personId": 100183,
            "typing": false
        },
        {
            "body": "Now take off your clothes.",
            "personId": 100182,
            "typing": false
        },
        {
            "body": "Right here in the hall?",
            "personId": 100183,
            "typing": false
        },
        {
            "body": "Yes.",
            "personId": 100182,
            "typing": false
        },
        {
            "body": "I can see you.",
            "personId": 100182,
            "typing": false
        },
        {
            "body": "Where are you?",
            "personId": 100183,
            "typing": false
        },
        {
            "body": "Looking at you from afar.",
            "personId": 100182,
            "typing": false
        },
        {
            "body": "We're all looking at you.",
            "personId": 100182,
            "typing": false
        },
        {
            "body": "Who are all of you?",
            "personId": 100183,
            "typing": false
        },
        {
            "body": "Friends.",
            "personId": 100182,
            "typing": false
        },
        {
            "body": "Take off your clothes.",
            "personId": 100182,
            "typing": false
        },
        {
            "body": "Ok.",
            "personId": 100183,
            "typing": false
        },
        {
            "body": "Don't be shy.",
            "personId": 100182,
            "typing": false
        },
        {
            "body": "You'll have fun.",
            "personId": 100182,
            "typing": false
        },
        {
            "body": "I like the cool air on my body.",
            "personId": 100183,
            "typing": false
        },
        {
            "body": "It's making me feel powerful.",
            "personId": 100183,
            "typing": false
        },
        {
            "body": "I can tell.",
            "personId": 100182,
            "typing": false
        },
        {
            "body": "You are powerful.",
            "personId": 100182,
            "typing": false
        },
        {
            "body": "You have our full attention.",
            "personId": 100182,
            "typing": false
        },
        {
            "body": "We can't stop looking at you.",
            "personId": 100182,
            "typing": false
        },
        {
            "body": "Open the large wooden door in front of you.",
            "personId": 100182,
            "typing": false
        },
        {
            "body": "Hi.",
            "personId": 100183,
            "typing": false
        },
        {
            "body": "Hello.",
            "personId": 100182,
            "typing": false
        },
        {
            "body": "Stay there.",
            "personId": 100182,
            "typing": false
        },
        {
            "body": "Bend over.",
            "personId": 100182,
            "typing": false
        },
        {
            "body": "Touch your favorite part of your body.",
            "personId": 100182,
            "typing": false
        },
        {
            "body": "Your neck is beautiful. ",
            "personId": 100182,
            "typing": true
        },
        {
            "body": "I see why it's your favorite.",
            "personId": 100182,
            "typing": false
        },
        {
            "body": "Thank you.",
            "personId": 100183,
            "typing": false
        },
        {
            "body": "I like the way your hair drapes over your nipples.",
            "personId": 100182,
            "typing": false
        },
        {
            "body": "Like you walked out of a movie.",
            "personId": 100182,
            "typing": false
        },
        {
            "body": "What's your least favorite body part?",
            "personId": 100182,
            "typing": false
        },
        {
            "body": "My stomach.",
            "personId": 100183,
            "typing": false
        },
        {
            "body": "Touch it.",
            "personId": 100182,
            "typing": false
        },
        {
            "body": "I'm going to walk over to you now.",
            "personId": 100182,
            "typing": false
        },
        {
            "body": "Don't turn around. I want to see you.",
            "personId": 100182,
            "typing": false
        },
        {
            "body": "I don't want you to see me.",
            "personId": 100182,
            "typing": false
        },
        {
            "body": "I'm going to touch your stomach.",
            "personId": 100182,
            "typing": false
        },
        {
            "body": "I'm going to caress every inch of it.",
            "personId": 100182,
            "typing": false
        },
        {
            "body": "I'm going to show you why it shouldn't be your least favorite body part.",
            "personId": 100182,
            "typing": false
        },
        {
            "body": "It's a very sensual spot. And one that you should love.",
            "personId": 100182,
            "typing": false
        },
        {
            "body": "It's beautiful.",
            "personId": 100182,
            "typing": false
        },
        {
            "body": "You're beautiful.",
            "personId": 100182,
            "typing": false
        },
        {
            "body": "I'm shivering and you haven't even touched me.",
            "personId": 100183,
            "typing": false
        },
        {
            "body": "Just wait until I do.",
            "personId": 100182,
            "typing": false
        },
        {
            "body": "Will the rest of them keep watching.",
            "personId": 100183,
            "typing": false
        },
        {
            "body": "Yes.",
            "personId": 100182,
            "typing": false
        },
        {
            "body": "And you'll watch too.",
            "personId": 100182,
            "typing": false
        }
    ],
    "number": 0,
    "people": [
        {
            "bubbleColor": "ebeff4",
            "id": 100182,
            "name": "M",
            "nameColor": "25aef4",
            "textColor": "000000cc"
        },
        {
            "bubbleColor": "f6ecec",
            "id": 100183,
            "name": "Brandy",
            "nameColor": "ea5aa3",
            "textColor": "000000cc"
        }
    ],
    "storyId": 100065
}