{
    "messages": [
        {
            "body": "He's a terrible child!",
            "personId": 11500,
            "typing": false
        },
        {
            "body": "He needs to be punished!",
            "personId": 11500,
            "typing": false
        },
        {
            "body": "You would sit there and do nothing if I let you!",
            "personId": 11500,
            "typing": false
        },
        {
            "body": "Honey, he's blind. He has special needs.",
            "personId": 11501,
            "typing": false
        },
        {
            "body": "I think you are too hard on him.",
            "personId": 11501,
            "typing": false
        },
        {
            "body": "No excuse!",
            "personId": 11500,
            "typing": false
        },
        {
            "body": "Should we allow him to be a monster because he can't see?!",
            "personId": 11500,
            "typing": false
        },
        {
            "body": "That is just wrong.",
            "personId": 11500,
            "typing": false
        },
        {
            "body": "He's not a monster!",
            "personId": 11501,
            "typing": false
        },
        {
            "body": "He's a sweet little boy.",
            "personId": 11501,
            "typing": false
        },
        {
            "body": "He just drew on the wall with some crayons. We can clean it.",
            "personId": 11501,
            "typing": false
        },
        {
            "body": "It's not that big of a deal.",
            "personId": 11501,
            "typing": false
        },
        {
            "body": "NOT that big of a deal?!",
            "personId": 11500,
            "typing": false
        },
        {
            "body": "Do you know how hard it is to get that stuff off?!",
            "personId": 11500,
            "typing": false
        },
        {
            "body": "You need to discipline him!",
            "personId": 11500,
            "typing": false
        },
        {
            "body": "TONIGHT!!!",
            "personId": 11500,
            "typing": false
        },
        {
            "body": "WHAT?!",
            "personId": 11501,
            "typing": false
        },
        {
            "body": "NO!",
            "personId": 11501,
            "typing": false
        },
        {
            "body": "Please Beverly be reasonable.",
            "personId": 11501,
            "typing": false
        },
        {
            "body": "I don't understand.",
            "personId": 11500,
            "typing": true
        },
        {
            "body": "What?!",
            "personId": 11501,
            "typing": false
        },
        {
            "body": "I thought you loved me.",
            "personId": 11500,
            "typing": false
        },
        {
            "body": "I thought I was your soul mate.",
            "personId": 11500,
            "typing": false
        },
        {
            "body": "I DO love you!",
            "personId": 11501,
            "typing": false
        },
        {
            "body": "What are you talking about?",
            "personId": 11501,
            "typing": false
        },
        {
            "body": "Then why are you questionsing me?",
            "personId": 11500,
            "typing": false
        },
        {
            "body": "Why are you ALWAYS on his side?",
            "personId": 11500,
            "typing": false
        },
        {
            "body": "I used to come first, I used to be the only one you loved!",
            "personId": 11500,
            "typing": false
        },
        {
            "body": "Now it's henry, henry, henry...",
            "personId": 11500,
            "typing": false
        },
        {
            "body": "I can't STAND IT!!!",
            "personId": 11500,
            "typing": false
        },
        {
            "body": "You love him more than me!",
            "personId": 11500,
            "typing": false
        },
        {
            "body": "I love you BOTH!",
            "personId": 11501,
            "typing": false
        },
        {
            "body": "I won't have a disobedient child!",
            "personId": 11500,
            "typing": false
        },
        {
            "body": "Now discipline him!",
            "personId": 11500,
            "typing": false
        },
        {
            "body": "How?!",
            "personId": 11501,
            "typing": false
        },
        {
            "body": "A time out!",
            "personId": 11500,
            "typing": false
        },
        {
            "body": "So he can really think about what he's done.",
            "personId": 11500,
            "typing": false
        },
        {
            "body": "In the basement.",
            "personId": 11500,
            "typing": false
        },
        {
            "body": "After a night down there he will think twice before he disobeys me.",
            "personId": 11500,
            "typing": false
        },
        {
            "body": "He'll be so scared, isn't there another way?",
            "personId": 11500,
            "typing": false
        },
        {
            "body": "You are being too harsh!!",
            "personId": 11501,
            "typing": false
        },
        {
            "body": "No, do it.",
            "personId": 11500,
            "typing": false
        },
        {
            "body": "Fine.",
            "personId": 11501,
            "typing": false
        },
        {
            "body": "5 minutes later",
            "typing": false
        },
        {
            "body": "It's done.",
            "personId": 11501,
            "typing": false
        },
        {
            "body": "He's locked down there",
            "personId": 11501,
            "typing": false
        },
        {
            "body": "I can hear him sobbing!",
            "personId": 11501,
            "typing": false
        },
        {
            "body": "Good I'm almost home.",
            "personId": 11500,
            "typing": false
        },
        {
            "body": "Don't let him out.",
            "personId": 11500,
            "typing": false
        },
        {
            "body": "He's crying and crying...this is agony",
            "personId": 11501,
            "typing": false
        },
        {
            "body": "He's fine.",
            "personId": 11500,
            "typing": false
        },
        {
            "body": "I hope you’re right.",
            "personId": 11501,
            "typing": false
        }
    ],
    "number": 0,
    "people": [
        {
            "bubbleColor": "ebeff4",
            "id": 11500,
            "name": "Beverly Wells",
            "nameColor": "25aef4",
            "textColor": "000000cc"
        },
        {
            "bubbleColor": "f6ecec",
            "id": 11501,
            "name": "John Wells",
            "nameColor": "ea5aa3",
            "textColor": "000000cc"
        }
    ],
    "storyId": 115
}