{
    "messages": [
        {
            "body": "What do you mean she's missing?!",
            "personId": 11100,
            "typing": false
        },
        {
            "body": "I saw her at church on Sunday.",
            "personId": 11100,
            "typing": false
        },
        {
            "body": "The call just came in.",
            "personId": 11101,
            "typing": false
        },
        {
            "body": "Captain wants us to interview the Priests.",
            "personId": 11101,
            "typing": false
        },
        {
            "body": "Her roommate.",
            "personId": 11101,
            "typing": false
        },
        {
            "body": "The church.",
            "personId": 11101,
            "typing": false
        },
        {
            "body": "Uh.",
            "personId": 11100,
            "typing": false
        },
        {
            "body": "I don't think we need to do any of that just yet.",
            "personId": 11100,
            "typing": false
        },
        {
            "body": "Why? It's protocol Jacobs.",
            "personId": 11101,
            "typing": false
        },
        {
            "body": "We should get to the crime scene first.",
            "personId": 11100,
            "typing": false
        },
        {
            "body": "There's a dead nun.",
            "personId": 11100,
            "typing": false
        },
        {
            "body": ""Bandshell Park"",
            "personId": 11100,
            "typing": false
        },
        {
            "body": "It's sister Louise.",
            "personId": 11100,
            "typing": false
        },
        {
            "body": "She's dead?!",
            "personId": 11101,
            "typing": false
        },
        {
            "body": "Who sent you that?",
            "personId": 11101,
            "typing": false
        },
        {
            "body": "The number won't trace. I think it's from a burner.",
            "personId": 11100,
            "typing": false
        },
        {
            "body": "Someone wants us to know she's not missing anymore...",
            "personId": 11100,
            "typing": false
        },
        {
            "body": "CSI and the Medical Examiner are on their way to the scene.",
            "personId": 11100,
            "typing": false
        },
        {
            "body": "Meet you there.",
            "personId": 11100,
            "typing": false
        },
        {
            "body": "What kind of a sick freak would hurt a nun?",
            "personId": 11101,
            "typing": false
        },
        {
            "body": "2 hours later",
            "typing": false
        },
        {
            "body": "Did that strike you as weird?",
            "personId": 11100,
            "typing": false
        },
        {
            "body": "Yes!",
            "personId": 11101,
            "typing": false
        },
        {
            "body": "The whole crime scene was too perfect.",
            "personId": 11101,
            "typing": false
        },
        {
            "body": "A nun is sexually assaulted and murdered.",
            "personId": 11101,
            "typing": false
        },
        {
            "body": "Her body is perfectly placed under a tree? I don't think so.",
            "personId": 11101,
            "typing": false
        },
        {
            "body": "It was made to look messy...but that's not how a typical scene looks.",
            "personId": 11100,
            "typing": false
        },
        {
            "body": "You're tipped off, but by WHO?",
            "personId": 11101,
            "typing": false
        },
        {
            "body": "We get to the crime scene and the BISHOP is already there!",
            "personId": 11101,
            "typing": false
        },
        {
            "body": "Praying over her body.",
            "personId": 11100,
            "typing": false
        },
        {
            "body": "Why would he be there?! It's the middle of the night!",
            "personId": 11100,
            "typing": false
        },
        {
            "body": "I'm trying to be professional, but I knew her. Personally.",
            "personId": 11100,
            "typing": false
        },
        {
            "body": "This is a hard case for me.",
            "personId": 11100,
            "typing": false
        },
        {
            "body": "She was my little sister's teacher.",
            "personId": 11100,
            "typing": false
        },
        {
            "body": "Everyone loved her.",
            "personId": 11100,
            "typing": false
        },
        {
            "body": "I didn't know that.",
            "personId": 11101,
            "typing": false
        },
        {
            "body": "All the more reason to find the perp, Jacobs!",
            "personId": 11101,
            "typing": false
        },
        {
            "body": "The Bishop said he got the same text as you.",
            "personId": 11101,
            "typing": false
        },
        {
            "body": "Is he lying?",
            "personId": 11101,
            "typing": false
        },
        {
            "body": "Did he go back to admire his dirty work?",
            "personId": 11101,
            "typing": false
        },
        {
            "body": "OR is he telling the truth?",
            "personId": 11100,
            "typing": false
        },
        {
            "body": "He struck me as being honest.",
            "personId": 11101,
            "typing": false
        },
        {
            "body": "But Priests are good at playing it cool.",
            "personId": 11101,
            "typing": false
        },
        {
            "body": "Think about all the things they hear in confession.",
            "personId": 11101,
            "typing": false
        },
        {
            "body": "I felt like we caught him.",
            "personId": 11100,
            "typing": false
        },
        {
            "body": "Like he came back to see the scene one more time.",
            "personId": 11100,
            "typing": false
        },
        {
            "body": "THEN WHO SENT YOU THE TEXT OF THE DEAD VIC?",
            "personId": 11101,
            "typing": false
        },
        {
            "body": "I'll go to the church in the AM. You interview her students.",
            "personId": 11101,
            "typing": false
        },
        {
            "body": "8 hours later",
            "typing": false
        },
        {
            "body": "HOLY SHIT.",
            "personId": 11100,
            "typing": false
        },
        {
            "body": "There's more to this than just the murder!",
            "personId": 11100,
            "typing": false
        },
        {
            "body": "ABUSE.",
            "personId": 11100,
            "typing": false
        },
        {
            "body": "What?!",
            "personId": 11101,
            "typing": false
        },
        {
            "body": "By who?",
            "personId": 11101,
            "typing": false
        },
        {
            "body": "I'm getting stone walled at the church.",
            "personId": 11101,
            "typing": false
        },
        {
            "body": "No one will talk to me.",
            "personId": 11101,
            "typing": false
        },
        {
            "body": "I talked to a ton of Sister Louise's students.",
            "personId": 11100,
            "typing": false
        },
        {
            "body": "No one will talk.",
            "personId": 11100,
            "typing": false
        },
        {
            "body": "But one girl.",
            "personId": 11100,
            "typing": false
        },
        {
            "body": ""Jane Doe"",
            "personId": 11100,
            "typing": false
        },
        {
            "body": "Told me that she recently confided in Sister Louise that Father Horth was abusing her.",
            "personId": 11100,
            "typing": false
        },
        {
            "body": "WHOA. STUPID CHURCH.",
            "personId": 11101,
            "typing": false
        },
        {
            "body": "It's not the church. It's the Priest",
            "personId": 11100,
            "typing": false
        },
        {
            "body": "IF it's true.",
            "personId": 11100,
            "typing": false
        },
        {
            "body": "We need evidence!",
            "personId": 11100,
            "typing": false
        },
        {
            "body": "Jane Doe said that she told Sister Louise about the abuse LAST WEEK.",
            "personId": 11100,
            "typing": false
        },
        {
            "body": "And all about the terrible things that Father Horth was making her do...",
            "personId": 11100,
            "typing": false
        },
        {
            "body": "and Sister Louise said that she was going to "take care of it."",
            "personId": 11100,
            "typing": false
        },
        {
            "body": "Do you think he was abusing more than one girl (allegedly)?",
            "personId": 11101,
            "typing": false
        },
        {
            "body": "Yes. I do.",
            "personId": 11100,
            "typing": false
        },
        {
            "body": "We need to get into the Parish.",
            "personId": 11100,
            "typing": false
        }
    ],
    "number": 0,
    "people": [
        {
            "bubbleColor": "0d86f7",
            "id": 11100,
            "name": "Jacobs",
            "nameColor": "ffffffb2",
            "textColor": "ffffff"
        },
        {
            "bubbleColor": "01ce48",
            "id": 11101,
            "name": "Leon",
            "nameColor": "ffffffb2",
            "textColor": "ffffff"
        }
    ],
    "storyId": 111
}