{
    "messages": [
        {
            "body": "You've been working out.",
            "personId": 100209,
            "typing": false
        },
        {
            "body": "I'm so glad you think so, it's always tough the first few weeks at a new job.",
            "personId": 100210,
            "typing": false
        },
        {
            "body": "I don't mean the job.",
            "personId": 100209,
            "typing": false
        },
        {
            "personId": 100209,
            "typing": true
        },
        {
            "body": "Oh.",
            "personId": 100210,
            "typing": false
        },
        {
            "body": "?",
            "personId": 100210,
            "typing": false
        },
        {
            "body": "That skirt you're wearing, it's very... flattering.",
            "personId": 100209,
            "typing": false
        },
        {
            "body": "Clearly you excercise that body.",
            "personId": 100209,
            "typing": false
        },
        {
            "body": "lol",
            "personId": 100210,
            "typing": false
        },
        {
            "body": "Well I try Mr. Parks",
            "personId": 100210,
            "typing": false
        },
        {
            "body": "Caleb, please.",
            "personId": 100209,
            "typing": false
        },
        {
            "body": "And I'd say you more than try, you succeed.",
            "personId": 100209,
            "typing": false
        },
        {
            "body": "You know you could get into a lot of trouble prancing around in a skirt like that.",
            "personId": 100209,
            "typing": false
        },
        {
            "body": "Are you saying I'm in trouble with you?",
            "personId": 100210,
            "typing": false
        },
        {
            "body": "Do you want to get into trouble with me?",
            "personId": 100209,
            "typing": false
        },
        {
            "body": "3 mins later",
            "typing": false
        },
        {
            "body": "You didn't answer my question.",
            "personId": 100209,
            "typing": false
        },
        {
            "body": "Sorry, I got distracted with some emails.",
            "personId": 100210,
            "typing": false
        },
        {
            "body": "I guess it depends what kind of trouble you had in mind.",
            "personId": 100210,
            "typing": true
        },
        {
            "body": "Fun trouble?",
            "personId": 100210,
            "typing": false
        },
        {
            "body": "Is there any other kind?",
            "personId": 100209,
            "typing": false
        },
        {
            "body": "I've never really been in "trouble" with my boss before.",
            "personId": 100210,
            "typing": false
        },
        {
            "body": "That's ok, I'm a really good teacher.",
            "personId": 100209,
            "typing": false
        },
        {
            "body": "It's just like any other work duty.",
            "personId": 100209,
            "typing": false
        },
        {
            "body": "We will just go over it again and again until you understand.",
            "personId": 100209,
            "typing": false
        },
        {
            "body": "I believe practice makes perfect",
            "personId": 100209,
            "typing": true
        },
        {
            "body": "I strive for perfection",
            "personId": 100210,
            "typing": false
        },
        {
            "body": "That's what I like to hear.",
            "personId": 100209,
            "typing": false
        },
        {
            "body": "We may need to start right away.",
            "personId": 100209,
            "typing": false
        },
        {
            "body": "I'm not sure how much longer I can ignore your bad behavior.",
            "personId": 100209,
            "typing": false
        },
        {
            "body": "Breaking dress code is a pretty serious offense.",
            "personId": 100209,
            "typing": false
        },
        {
            "body": "I guess I need to be punished.",
            "personId": 100210,
            "typing": false
        },
        {
            "body": "I wouldn't want the rest of the office to think I was getting special treatment.",
            "personId": 100210,
            "typing": false
        },
        {
            "body": "We can't have that.",
            "personId": 100209,
            "typing": false
        },
        {
            "body": "Rules are rules.",
            "personId": 100209,
            "typing": false
        },
        {
            "body": "When you break them you have to be taught a lesson.",
            "personId": 100209,
            "typing": false
        },
        {
            "body": "What will my punishment be?",
            "personId": 100210,
            "typing": false
        },
        {
            "body": "Come to my office.",
            "personId": 100209,
            "typing": false
        },
        {
            "body": "I'll show you.",
            "personId": 100209,
            "typing": false
        },
        {
            "personId": 100210,
            "typing": true
        },
        {
            "body": "5 mins later",
            "typing": false
        },
        {
            "body": "I'm waiting.",
            "personId": 100209,
            "typing": false
        },
        {
            "body": "Don't be scared.",
            "personId": 100209,
            "typing": true
        },
        {
            "body": "I'll take it easy on you seeing as it's your first offense.",
            "personId": 100209,
            "typing": false
        },
        {
            "body": "I don't know what I'm suppossed to do here?",
            "personId": 100210,
            "typing": false
        },
        {
            "body": "You don't need to know.",
            "personId": 100209,
            "typing": false
        },
        {
            "body": "I'll tell you exactly what to do.",
            "personId": 100209,
            "typing": false
        },
        {
            "body": "You just have to obey me.",
            "personId": 100209,
            "typing": false
        },
        {
            "body": "Do you understand?",
            "personId": 100209,
            "typing": false
        },
        {
            "body": "Yes.",
            "personId": 100210,
            "typing": true
        },
        {
            "body": "Yes what?",
            "personId": 100209,
            "typing": false
        },
        {
            "body": "Yes boss.",
            "personId": 100210,
            "typing": false
        },
        {
            "body": "Good girl.",
            "personId": 100209,
            "typing": false
        },
        {
            "body": "Now come into my office.",
            "personId": 100209,
            "typing": false
        },
        {
            "body": "Walk over to my desk.",
            "personId": 100209,
            "typing": false
        },
        {
            "body": "Put your elbows on the desk.",
            "personId": 100209,
            "typing": false
        },
        {
            "body": "And bend over.",
            "personId": 100209,
            "typing": false
        },
        {
            "body": "What are you going to do?",
            "personId": 100210,
            "typing": false
        },
        {
            "body": "Show you what happens when you misbehave.",
            "personId": 100209,
            "typing": false
        },
        {
            "body": "2 mins later",
            "typing": false
        },
        {
            "body": "I'm coming.",
            "personId": 100210,
            "typing": false
        }
    ],
    "number": 0,
    "people": [
        {
            "bubbleColor": "ebeff4",
            "id": 100209,
            "name": "Caleb Parks",
            "nameColor": "25aef4",
            "textColor": "000000cc"
        },
        {
            "bubbleColor": "f6ecec",
            "id": 100210,
            "name": "Amanda Holt",
            "nameColor": "ea5aa3",
            "textColor": "000000cc"
        }
    ],
    "storyId": 100070
}