{
    "messages": [
        {
            "body": "How long have you been in holding?",
            "personId": 5301,
            "typing": false
        },
        {
            "body": "OVER 9 HOURS!",
            "personId": 5300,
            "typing": false
        },
        {
            "body": "This isn't humane.",
            "personId": 5300,
            "typing": false
        },
        {
            "body": "They just keep telling me that I did it!",
            "personId": 5300,
            "typing": false
        },
        {
            "body": "They want me to confess.",
            "personId": 5300,
            "typing": false
        },
        {
            "body": "It's exhausting.",
            "personId": 5300,
            "typing": false
        },
        {
            "body": "I wish they'd give you a break.",
            "personId": 5301,
            "typing": false
        },
        {
            "body": "I'm tired and no one believes me.",
            "personId": 5300,
            "typing": false
        },
        {
            "body": "I don't understand how they found me.",
            "personId": 5300,
            "typing": false
        },
        {
            "body": "It's a small town.",
            "personId": 5301,
            "typing": false
        },
        {
            "body": "There aren't that many places to hide.",
            "personId": 5301,
            "typing": false
        },
        {
            "body": "I wasn't hiding!",
            "personId": 5300,
            "typing": false
        },
        {
            "body": "I was trying to solve a murder that no one else has any interest in solving!",
            "personId": 5300,
            "typing": false
        },
        {
            "body": "Law enforcement wants to pin it on me and call it a day.",
            "personId": 5300,
            "typing": false
        },
        {
            "body": "But there is actually a murderer out there!",
            "personId": 5300,
            "typing": false
        },
        {
            "body": "BECAUSE I DIDN'T DO IT.",
            "personId": 5300,
            "typing": false
        },
        {
            "body": "I know. I know.",
            "personId": 5301,
            "typing": false
        },
        {
            "body": "Why didn't they take your phone?",
            "personId": 5301,
            "typing": false
        },
        {
            "body": "Because they're idiots.",
            "personId": 5300,
            "typing": false
        },
        {
            "body": "Or because they want to read your texts...",
            "personId": 5301,
            "typing": false
        },
        {
            "body": "GOOD!",
            "personId": 5300,
            "typing": false
        },
        {
            "body": "Then they'll see that I've been actively trying to HELP them solve this shit.",
            "personId": 5300,
            "typing": false
        },
        {
            "body": "And clear my name.",
            "personId": 5300,
            "typing": false
        },
        {
            "body": "Idiots.",
            "personId": 5300,
            "typing": false
        },
        {
            "body": "They just sit around and drink stale coffee.",
            "personId": 5300,
            "typing": false
        },
        {
            "body": "Why doesn't anyone believe me?!",
            "personId": 5300,
            "typing": false
        },
        {
            "body": "They're questioning you.",
            "personId": 5301,
            "typing": false
        },
        {
            "body": "What the hell Emily?",
            "personId": 5300,
            "typing": false
        },
        {
            "body": "Whose side are you on?",
            "personId": 5300,
            "typing": false
        },
        {
            "body": "YOURS. I'm your sister, I love you.",
            "personId": 5301,
            "typing": false
        },
        {
            "body": "I'm here for you.",
            "personId": 5301,
            "typing": false
        },
        {
            "body": "But the police ARE trying to solve it.",
            "personId": 5301,
            "typing": false
        },
        {
            "body": "If you didn't do it they'll find out!",
            "personId": 5301,
            "typing": false
        },
        {
            "body": "IF?!",
            "personId": 5300,
            "typing": false
        },
        {
            "personId": 5301,
            "typing": true
        },
        {
            "body": "Tell me again how they knew I was at the old boat house...",
            "personId": 5300,
            "typing": false
        },
        {
            "body": "How should I know?",
            "personId": 5301,
            "typing": false
        },
        {
            "body": "Like I said, it's a small town.",
            "personId": 5301,
            "typing": false
        },
        {
            "body": "Nah.",
            "personId": 5300,
            "typing": false
        },
        {
            "body": "It's not that small.",
            "personId": 5300,
            "typing": false
        },
        {
            "body": "The boat house is an obscure spot.",
            "personId": 5300,
            "typing": false
        },
        {
            "body": "It's where I would look for you!",
            "personId": 5301,
            "typing": false
        },
        {
            "body": "EXACTLY!",
            "personId": 5300,
            "typing": false
        },
        {
            "body": "Just say it.",
            "personId": 5300,
            "typing": false
        },
        {
            "body": "Say what?!",
            "personId": 5301,
            "typing": false
        },
        {
            "body": "You turned me in!",
            "personId": 5300,
            "typing": false
        },
        {
            "body": "Didn't you.",
            "personId": 5300,
            "typing": false
        },
        {
            "body": "SAY IT.",
            "personId": 5300,
            "typing": false
        },
        {
            "body": "You. Turned. Me. In?!",
            "personId": 5300,
            "typing": false
        },
        {
            "body": "Yes.",
            "personId": 5301,
            "typing": false
        },
        {
            "body": "I'm sorry.",
            "personId": 5301,
            "typing": false
        },
        {
            "body": "None of this adds up!",
            "personId": 5301,
            "typing": false
        },
        {
            "body": "And you're young enough to go to prison, do your time, and come out again.",
            "personId": 5301,
            "typing": false
        },
        {
            "body": "For MURDER?",
            "personId": 5300,
            "typing": false
        },
        {
            "body": "You really think they won't try me as an adult! I'm going to spend my life behind bars!!!",
            "personId": 5300,
            "typing": false
        },
        {
            "body": "Is that what you want?!",
            "personId": 5300,
            "typing": false
        },
        {
            "body": "You just need to tell them what happened.",
            "personId": 5301,
            "typing": false
        },
        {
            "body": "It was just horrible a mistake.",
            "personId": 5301,
            "typing": false
        },
        {
            "body": "It's your first offense.",
            "personId": 5301,
            "typing": false
        },
        {
            "body": "They'll be lenient.",
            "personId": 5301,
            "typing": false
        },
        {
            "body": "I'm not telling them it was a mistake!!",
            "personId": 5300,
            "typing": false
        },
        {
            "body": "I'm NOT admitting guilt to something I didn't do!",
            "personId": 5300,
            "typing": false
        },
        {
            "body": "I'm INNOCENT!!!",
            "personId": 5300,
            "typing": false
        },
        {
            "body": "Chase.",
            "personId": 5301,
            "typing": false
        },
        {
            "body": "Please...",
            "personId": 5301,
            "typing": false
        },
        {
            "body": "They have it all on the security camera.",
            "personId": 5301,
            "typing": true
        },
        {
            "body": "I saw you do it.",
            "personId": 5301,
            "typing": false
        },
        {
            "body": "I watched you strangle her in the car!",
            "personId": 5301,
            "typing": false
        },
        {
            "body": "You don't need to lie to me!",
            "personId": 5301,
            "typing": false
        },
        {
            "body": "I know it was a mistake. You just got carried away...",
            "personId": 5301,
            "typing": false
        },
        {
            "body": "Chase?",
            "personId": 5301,
            "typing": false
        },
        {
            "body": "I'm not going to jail.",
            "personId": 5300,
            "typing": false
        },
        {
            "body": "I won’t survive there.",
            "personId": 5300,
            "typing": false
        },
        {
            "body": "The guilt is too much.",
            "personId": 5300,
            "typing": false
        }
    ],
    "number": 4,
    "people": [
        {
            "bubbleColor": "ebeff4",
            "id": 5300,
            "name": "Chase",
            "nameColor": "25aef4",
            "textColor": "000000cc"
        },
        {
            "bubbleColor": "f6ecec",
            "id": 5301,
            "name": "Emily",
            "nameColor": "ea5aa3",
            "textColor": "000000cc"
        }
    ],
    "storyId": 53
}