{
    "messages": [
        {
            "body": "OMG deadlines are coming up!",
            "personId": 100178,
            "typing": false
        },
        {
            "body": "We got this! 💪",
            "personId": 100179,
            "typing": false
        },
        {
            "body": "I think everyone will LOVE these patterns!",
            "personId": 100179,
            "typing": false
        },
        {
            "body": "Yeah, I'm really proud of our Vera Bradley designs.",
            "personId": 100178,
            "typing": false
        },
        {
            "body": "Show me what you have so far!",
            "personId": 100179,
            "typing": false
        },
        {
            "body": "I wanted to do a fall look with a feminine twist.",
            "personId": 100178,
            "typing": false
        },
        {
            "body": "Do you think it's a good fit?",
            "personId": 100178,
            "typing": false
        },
        {
            "image": "BFGbpIcCTnKgQkK8aHAV_pinkpattern.hi-res.jpg",
            "obscuredImage": "BFGbpIcCTnKgQkK8aHAV_pinkpattern.obscured.jpg",
            "personId": 100178,
            "portrait": true,
            "typing": false
        },
        {
            "body": "YASS!!!!!",
            "personId": 100179,
            "typing": false
        },
        {
            "body": "This is so cute! 😍😍",
            "personId": 100179,
            "typing": false
        },
        {
            "body": "Oh thank goodness! Haha",
            "personId": 100178,
            "typing": false
        },
        {
            "body": "I was thinking of doing something floral.",
            "personId": 100179,
            "typing": false
        },
        {
            "body": "But how can I make it fit for the fall collection?",
            "personId": 100179,
            "typing": false
        },
        {
            "body": "I think florals will work great!",
            "personId": 100178,
            "typing": false
        },
        {
            "body": "Just use darker tones to give it that fall feel. ",
            "personId": 100178,
            "typing": false
        },
        {
            "body": "Oh that's a great idea!",
            "personId": 100179,
            "typing": false
        },
        {
            "body": "1 hour later",
            "typing": false
        },
        {
            "body": "How's this?",
            "personId": 100179,
            "typing": false
        },
        {
            "image": "tT8HRULSj69WJs5Aq3zA_fall.hi-res.jpg",
            "obscuredImage": "tT8HRULSj69WJs5Aq3zA_fall.obscured.jpg",
            "personId": 100179,
            "portrait": true,
            "typing": false
        },
        {
            "body": "Perfect! 👌",
            "personId": 100178,
            "typing": false
        },
        {
            "body": "I think this collection will be our best yet!",
            "personId": 100178,
            "typing": false
        },
        {
            "body": "Shop your fall look now at Vera Bradley!",
            "typing": false
        }
    ],
    "number": 0,
    "people": [
        {
            "bubbleColor": "ebeff4",
            "id": 100178,
            "name": "Alexa",
            "nameColor": "25aef4",
            "textColor": "000000cc"
        },
        {
            "bubbleColor": "f6ecec",
            "id": 100179,
            "name": "Katie",
            "nameColor": "ea5aa3",
            "textColor": "000000cc"
        }
    ],
    "storyId": 100064
}