{
    "messages": [
        {
            "body": "You haven't left your beach chair in an hour.",
            "personId": 100007,
            "typing": false
        },
        {
            "body": "Your legs are going to fall asleep if you don't move.",
            "personId": 100007,
            "typing": false
        },
        {
            "body": "Nothing wrong with a little R and R.",
            "personId": 100007,
            "typing": false
        },
        {
            "body": "But you may wanna re-apply that sunblock. ",
            "personId": 100007,
            "typing": false
        },
        {
            "body": "This is your fifth margarita.",
            "personId": 100007,
            "typing": false
        },
        {
            "body": "Nothing wrong with a little water!",
            "personId": 100007,
            "typing": false
        },
        {
            "body": "Be careful or you could end up wasted before noon.",
            "personId": 100007,
            "typing": false
        },
        {
            "body": "You're the group leader and all of your friends are following your moves!",
            "personId": 100007,
            "typing": false
        },
        {
            "body": "Even if you don't know it.",
            "personId": 100007,
            "typing": false
        },
        {
            "body": "But you do.",
            "personId": 100007,
            "typing": false
        },
        {
            "body": "They all listen to you.",
            "personId": 100007,
            "typing": false
        },
        {
            "body": "You’re basking in their compliments.",
            "personId": 100007,
            "typing": false
        },
        {
            "body": "Nothing wrong with that.",
            "personId": 100007,
            "typing": false
        },
        {
            "body": "Your personality is on 🔥",
            "personId": 100007,
            "typing": false
        },
        {
            "body": "Be careful or you might start some drama.",
            "personId": 100007,
            "typing": false
        },
        {
            "body": "Not that it'd be your fault.",
            "personId": 100007,
            "typing": false
        },
        {
            "body": "You're just the messenger. ",
            "personId": 100007,
            "typing": false
        },
        {
            "body": "Messenger of FUN.",
            "personId": 100007,
            "typing": false
        },
        {
            "body": "Your opinions are especially intense today.",
            "personId": 100007,
            "typing": false
        },
        {
            "body": "You've got something to say and you're gonna say it!",
            "personId": 100007,
            "typing": false
        },
        {
            "body": "Or write it.",
            "personId": 100007,
            "typing": false
        },
        {
            "body": "Or give the "cold shoulder" until your point is known.",
            "personId": 100007,
            "typing": false
        },
        {
            "body": "My goodness you're fun to be around.",
            "personId": 100007,
            "typing": false
        },
        {
            "body": "You're such a little light.",
            "personId": 100007,
            "typing": false
        },
        {
            "body": "Be careful. Light attracts moths.",
            "personId": 100007,
            "typing": false
        },
        {
            "body": "Be particular about who you choose to keep in your inner circle.",
            "personId": 100007,
            "typing": false
        },
        {
            "body": "Stop sharing things with people that don't make you feel good.",
            "personId": 100007,
            "typing": false
        },
        {
            "body": "You don't have time for that.",
            "personId": 100007,
            "typing": false
        },
        {
            "body": "Today might be a good day to start that journal.",
            "personId": 100007,
            "typing": false
        },
        {
            "body": "Keep learning how to be self aware and in tune with yourself.",
            "personId": 100007,
            "typing": false
        },
        {
            "body": "Just make sure you're paying attention to the needs of those around you.",
            "personId": 100007,
            "typing": false
        },
        {
            "body": "You can be a bit Me, Me, Me, if you're not keeping tabs on yourself.",
            "personId": 100007,
            "typing": false
        },
        {
            "body": "Relationships are give and take. FYI.",
            "personId": 100007,
            "typing": false
        },
        {
            "body": "Speaking of relationships, there may be something firey headed your way.",
            "personId": 100007,
            "typing": false
        },
        {
            "body": "Don't pass over the people you already know just because they're "friends."",
            "personId": 100007,
            "typing": false
        },
        {
            "body": "Romance is going to sneak up in the strangest places.",
            "personId": 100007,
            "typing": false
        },
        {
            "body": "Someone energetic and deep.",
            "personId": 100007,
            "typing": false
        },
        {
            "body": "THIS IS YOUR SUMMER OF FUN.",
            "personId": 100007,
            "typing": false
        },
        {
            "body": "Which ironically means good things are going to happen in your career as well.",
            "personId": 100007,
            "typing": false
        },
        {
            "body": "Why? Because you're passionate.",
            "personId": 100007,
            "typing": false
        },
        {
            "body": "And you take charge.",
            "personId": 100007,
            "typing": false
        },
        {
            "body": "...but only if you make sure to balance out that fun with a motivation to work.",
            "personId": 100007,
            "typing": false
        },
        {
            "body": "Or you'll end up in this beach chair all summer.",
            "personId": 100007,
            "typing": false
        },
        {
            "body": "Which will be great.",
            "personId": 100007,
            "typing": false
        },
        {
            "body": "Until your credit card is denied and your parents cut you off. ",
            "personId": 100007,
            "typing": false
        }
    ],
    "number": 0,
    "people": [
        {
            "bubbleColor": "ebeff4",
            "id": 100007,
            "name": "Astrology 101",
            "nameColor": "25aef4",
            "textColor": "000000cc"
        },
        {
            "bubbleColor": "fbf9e0",
            "id": 100008,
            "name": "Valentina",
            "nameColor": "ffb112",
            "textColor": "000000cc"
        }
    ],
    "storyId": 100003
}