{
    "messages": [
        {
            "body": "You there?",
            "personId": 100023,
            "typing": false
        },
        {
            "body": "Avery?",
            "personId": 100023,
            "typing": false
        },
        {
            "body": "Please tell me you're not out doing something crazy.",
            "personId": 100023,
            "typing": false
        },
        {
            "body": "Avery!",
            "personId": 100023,
            "typing": false
        },
        {
            "body": "I'm here.",
            "personId": 100022,
            "typing": false
        },
        {
            "body": "What's up?",
            "personId": 100022,
            "typing": false
        },
        {
            "body": "Did you call the police yet?",
            "personId": 100022,
            "typing": false
        },
        {
            "body": "No",
            "personId": 100023,
            "typing": false
        },
        {
            "body": "What do you want?",
            "personId": 100022,
            "typing": false
        },
        {
            "body": "Maybe I was too harsh before.",
            "personId": 100023,
            "typing": false
        },
        {
            "body": "What?",
            "personId": 100022,
            "typing": false
        },
        {
            "body": "Why?",
            "personId": 100022,
            "typing": false
        },
        {
            "body": "I've been doing some research.",
            "personId": 100023,
            "typing": false
        },
        {
            "body": "I found your old year books online and looked everyone up.",
            "personId": 100023,
            "typing": false
        },
        {
            "body": "I looked up the articles about the deaths.",
            "personId": 100023,
            "typing": false
        },
        {
            "body": "And I looked up you.",
            "personId": 100023,
            "typing": true
        },
        {
            "body": "I saw that you were dating one of the guys that died in the car wash.",
            "personId": 100023,
            "typing": false
        },
        {
            "body": "Zander.",
            "personId": 100022,
            "typing": false
        },
        {
            "body": "He was my frist real boyfriend.",
            "personId": 100022,
            "typing": false
        },
        {
            "body": "I found his old Facebook account.",
            "personId": 100023,
            "typing": false
        },
        {
            "body": "I saw all of the posts you wrote. ",
            "personId": 100023,
            "typing": false
        },
        {
            "body": "You seemed like you were in love with him.",
            "personId": 100023,
            "typing": false
        },
        {
            "body": "I was getting there.",
            "personId": 100022,
            "typing": false
        },
        {
            "body": "I matched the dates. He died right after your last Facebook post.",
            "personId": 100023,
            "typing": false
        },
        {
            "body": "There was no motive for you to kill him.",
            "personId": 100023,
            "typing": false
        },
        {
            "body": "I tried to stop it.",
            "personId": 100022,
            "typing": false
        },
        {
            "body": "Grudge haunting",
            "personId": 100022,
            "typing": false
        },
        {
            "body": "Ever since then she's tormented me.",
            "personId": 100022,
            "typing": false
        },
        {
            "body": "I read a lot about grudge haunting.",
            "personId": 100023,
            "typing": false
        },
        {
            "body": "I think that's what this is.",
            "personId": 100023,
            "typing": false
        },
        {
            "body": "I'm probably dumb, but I trust that what you're saying is true.",
            "personId": 100023,
            "typing": false
        },
        {
            "body": "I believe you.",
            "personId": 100023,
            "typing": false
        },
        {
            "body": "You there?",
            "personId": 100023,
            "typing": true
        },
        {
            "body": "I'm so choked up.",
            "personId": 100022,
            "typing": false
        },
        {
            "body": "I've never told anyone about this.",
            "personId": 100022,
            "typing": false
        },
        {
            "body": "And when I told you it was so obvious how insanse I sounded.",
            "personId": 100022,
            "typing": false
        },
        {
            "body": "But to have you believe me?",
            "personId": 100022,
            "typing": false
        },
        {
            "body": "It's such a relief.",
            "personId": 100022,
            "typing": false
        },
        {
            "body": "I feel like a weight is lifted.",
            "personId": 100022,
            "typing": false
        },
        {
            "body": "I can't believe it!",
            "personId": 100022,
            "typing": false
        },
        {
            "body": "Will you help me?",
            "personId": 100022,
            "typing": false
        },
        {
            "body": "Yes.",
            "personId": 100023,
            "typing": false
        },
        {
            "body": "We're gonna get this bitch.",
            "personId": 100023,
            "typing": false
        },
        {
            "body": "Haha.",
            "personId": 100022,
            "typing": false
        },
        {
            "body": "How?",
            "personId": 100022,
            "typing": false
        },
        {
            "body": "I have an idea",
            "personId": 100023,
            "typing": false
        },
        {
            "body": "I have a idea too.",
            "personId": 100079,
            "typing": false
        },
        {
            "body": "Don't mess with me, you no-name loser.",
            "personId": 100079,
            "typing": false
        },
        {
            "body": "It won't end well.",
            "personId": 100079,
            "typing": false
        },
        {
            "body": "I might end up holding a grudge against you too.",
            "personId": 100079,
            "typing": false
        },
        {
            "body": "Oh my god.",
            "personId": 100022,
            "typing": false
        },
        {
            "body": "Lea!",
            "personId": 100022,
            "typing": false
        },
        {
            "body": "I told you! ",
            "personId": 100022,
            "typing": false
        },
        {
            "body": "I'm not scared of you.",
            "personId": 100023,
            "typing": false
        },
        {
            "body": "You should be.",
            "personId": 100079,
            "typing": false
        }
    ],
    "number": 7,
    "people": [
        {
            "bubbleColor": "f6ecec",
            "id": 100022,
            "name": "Avery",
            "nameColor": "ea5aa3",
            "textColor": "000000cc"
        },
        {
            "bubbleColor": "ebeff4",
            "id": 100023,
            "name": "Joe",
            "nameColor": "25aef4",
            "textColor": "000000cc"
        },
        {
            "bubbleColor": "fbf9e0",
            "id": 100079,
            "name": "Blocked",
            "nameColor": "ffb112",
            "textColor": "000000cc"
        }
    ],
    "storyId": 100009
}